----------------------------------------
Begin PBS Prologue Sat May 21 20:12:29 EDT 2016 1463875949
Job ID:		36124165.gpc-sched-ib0
Username:	edickie
Group:		arisvoin
Nodes:		gpc-f130n065-ib0
End PBS Prologue Sat May 21 20:12:30 EDT 2016 1463875950
----------------------------------------
/home/a/arisvoin/edickie/quarantine/python/2.7.11-Anaconda2-2.5.0/build/lib/python2.7/site-packages/matplotlib/font_manager.py:273: UserWarning: Matplotlib is building the font cache using fc-list. This may take a moment.
  warnings.warn('Matplotlib is building the font cache using fc-list. This may take a moment.')
/home/a/arisvoin/edickie/quarantine/python/2.7.11-Anaconda2-2.5.0/build/lib/python2.7/site-packages/matplotlib/font_manager.py:273: UserWarning: Matplotlib is building the font cache using fc-list. This may take a moment.
  warnings.warn('Matplotlib is building the font cache using fc-list. This may take a moment.')
/home/a/arisvoin/edickie/quarantine/python/2.7.11-Anaconda2-2.5.0/build/lib/python2.7/site-packages/matplotlib/font_manager.py:273: UserWarning: Matplotlib is building the font cache using fc-list. This may take a moment.
  warnings.warn('Matplotlib is building the font cache using fc-list. This may take a moment.')
/home/a/arisvoin/edickie/quarantine/python/2.7.11-Anaconda2-2.5.0/build/lib/python2.7/site-packages/matplotlib/font_manager.py:273: UserWarning: Matplotlib is building the font cache using fc-list. This may take a moment.
  warnings.warn('Matplotlib is building the font cache using fc-list. This may take a moment.')
=>> PBS: job killed: walltime 10812 exceeded limit 10800
Cleaning up ramdisk directory /dev/shm/tmp.qrdMVw on Sat May 21 23:12:41 EDT 2016
parallel: SIGTERM received. No new jobs will be started.
parallel: Waiting for these 4 jobs to finish. Send SIGTERM again to stop now.
parallel: find-PINT-vertices.py --pcorr --sampling-radius 8 --search-radius 16 /scratch/a/arisvoin/edickie/ABIDE/hcp/SDSU/SDSU_50196/MNINonLinear/Results/rest_abide25fix/rest_abide25fix_Atlas_s8.dtseries.nii /scratch/a/arisvoin/edickie/ABIDE/hcp/SDSU/SDSU_50196/MNINonLinear/fsaverage_LR32k/SDSU_50196.L.midthickness.32k_fs_LR.surf.gii /scratch/a/arisvoin/edickie/ABIDE/hcp/SDSU/SDSU_50196/MNINonLinear/fsaverage_LR32k/SDSU_50196.R.midthickness.32k_fs_LR.surf.gii /home/a/arisvoin/edickie/myscripts/abide/Yeo7_76verts.csv /scratch/a/arisvoin/edickie/ABIDE/PINT_testing/SDSU_Yeo7-76v_rad8-16/SDSU_50196_Yeo7-76v_rad8-16 > /scratch/a/arisvoin/edickie/ABIDE/PINT_testing/SDSU_Yeo7-76v_rad8-16/SDSU_50196_Yeo7-76v_rad8-16.log
parallel: find-PINT-vertices.py --pcorr --sampling-radius 8 --search-radius 16 /scratch/a/arisvoin/edickie/ABIDE/hcp/SDSU/SDSU_50195/MNINonLinear/Results/rest_abide25fix/rest_abide25fix_Atlas_s8.dtseries.nii /scratch/a/arisvoin/edickie/ABIDE/hcp/SDSU/SDSU_50195/MNINonLinear/fsaverage_LR32k/SDSU_50195.L.midthickness.32k_fs_LR.surf.gii /scratch/a/arisvoin/edickie/ABIDE/hcp/SDSU/SDSU_50195/MNINonLinear/fsaverage_LR32k/SDSU_50195.R.midthickness.32k_fs_LR.surf.gii /home/a/arisvoin/edickie/myscripts/abide/Yeo7_76verts.csv /scratch/a/arisvoin/edickie/ABIDE/PINT_testing/SDSU_Yeo7-76v_rad8-16/SDSU_50195_Yeo7-76v_rad8-16 > /scratch/a/arisvoin/edickie/ABIDE/PINT_testing/SDSU_Yeo7-76v_rad8-16/SDSU_50195_Yeo7-76v_rad8-16.log
parallel: find-PINT-vertices.py --pcorr --sampling-radius 8 --search-radius 16 /scratch/a/arisvoin/edickie/ABIDE/hcp/SDSU/SDSU_50199/MNINonLinear/Results/rest_abide25fix/rest_abide25fix_Atlas_s8.dtseries.nii /scratch/a/arisvoin/edickie/ABIDE/hcp/SDSU/SDSU_50199/MNINonLinear/fsaverage_LR32k/SDSU_50199.L.midthickness.32k_fs_LR.surf.gii /scratch/a/arisvoin/edickie/ABIDE/hcp/SDSU/SDSU_50199/MNINonLinear/fsaverage_LR32k/SDSU_50199.R.midthickness.32k_fs_LR.surf.gii /home/a/arisvoin/edickie/myscripts/abide/Yeo7_76verts.csv /scratch/a/arisvoin/edickie/ABIDE/PINT_testing/SDSU_Yeo7-76v_rad8-16/SDSU_50199_Yeo7-76v_rad8-16 > /scratch/a/arisvoin/edickie/ABIDE/PINT_testing/SDSU_Yeo7-76v_rad8-16/SDSU_50199_Yeo7-76v_rad8-16.log
parallel: find-PINT-vertices.py --pcorr --sampling-radius 8 --search-radius 16 /scratch/a/arisvoin/edickie/ABIDE/hcp/SDSU/SDSU_50198/MNINonLinear/Results/rest_abide25fix/rest_abide25fix_Atlas_s8.dtseries.nii /scratch/a/arisvoin/edickie/ABIDE/hcp/SDSU/SDSU_50198/MNINonLinear/fsaverage_LR32k/SDSU_50198.L.midthickness.32k_fs_LR.surf.gii /scratch/a/arisvoin/edickie/ABIDE/hcp/SDSU/SDSU_50198/MNINonLinear/fsaverage_LR32k/SDSU_50198.R.midthickness.32k_fs_LR.surf.gii /home/a/arisvoin/edickie/myscripts/abide/Yeo7_76verts.csv /scratch/a/arisvoin/edickie/ABIDE/PINT_testing/SDSU_Yeo7-76v_rad8-16/SDSU_50198_Yeo7-76v_rad8-16 > /scratch/a/arisvoin/edickie/ABIDE/PINT_testing/SDSU_Yeo7-76v_rad8-16/SDSU_50198_Yeo7-76v_rad8-16.log
/var/spool/torque/mom_priv/jobs/36124165.gpc-sched-ib0.SC: line 25: 20585 Terminated              parallel -j 4 "find-PINT-vertices.py --pcorr --sampling-radius ${SamplingRad} --search-radius ${SearchRad} ${HCP_DATA}/{}/MNINonLinear/Results/rest_abide25fix/rest_abide25fix_Atlas_s8.dtseries.nii ${HCP_DATA}/{}/MNINonLinear/fsaverage_LR32k/{}.L.midthickness.32k_fs_LR.surf.gii ${HCP_DATA}/{}/MNINonLinear/fsaverage_LR32k/{}.R.midthickness.32k_fs_LR.surf.gii ${InputVertices} ${PINToutputs}/{}_${OutName} > ${PINToutputs}/{}_${OutName}.log" ::: $subjects
done at Sat May 21 23:12:41 EDT 2016
Terminated
----------------------------------------
Begin PBS Epilogue Sat May 21 23:12:56 EDT 2016 1463886776
Job ID:		36124165.gpc-sched-ib0
Username:	edickie
Group:		arisvoin
Job Name:	find_PINT_SDSU_rad8-16_20160521.sh
Session:	19851
Limits:		neednodes=1:ppn=8,nodes=1:ppn=8,walltime=03:00:00
Resources:	cput=47:01:21,mem=1345632kb,vmem=6540940kb,walltime=03:00:22
Queue:		batch_ib
Account:		
Nodes:	gpc-f130n065-ib0
Killing leftovers...

End PBS Epilogue Sat May 21 23:12:57 EDT 2016 1463886777
----------------------------------------
