----------------------------------------
Begin PBS Prologue Sat May 21 20:12:29 EDT 2016 1463875949
Job ID:		36124070.gpc-sched-ib0
Username:	edickie
Group:		arisvoin
Nodes:		gpc-f130n063-ib0
End PBS Prologue Sat May 21 20:12:30 EDT 2016 1463875950
----------------------------------------
/home/a/arisvoin/edickie/quarantine/python/2.7.11-Anaconda2-2.5.0/build/lib/python2.7/site-packages/matplotlib/font_manager.py:273: UserWarning: Matplotlib is building the font cache using fc-list. This may take a moment.
  warnings.warn('Matplotlib is building the font cache using fc-list. This may take a moment.')
/home/a/arisvoin/edickie/quarantine/python/2.7.11-Anaconda2-2.5.0/build/lib/python2.7/site-packages/matplotlib/font_manager.py:273: UserWarning: Matplotlib is building the font cache using fc-list. This may take a moment.
  warnings.warn('Matplotlib is building the font cache using fc-list. This may take a moment.')
/home/a/arisvoin/edickie/quarantine/python/2.7.11-Anaconda2-2.5.0/build/lib/python2.7/site-packages/matplotlib/font_manager.py:273: UserWarning: Matplotlib is building the font cache using fc-list. This may take a moment.
  warnings.warn('Matplotlib is building the font cache using fc-list. This may take a moment.')
/home/a/arisvoin/edickie/quarantine/python/2.7.11-Anaconda2-2.5.0/build/lib/python2.7/site-packages/matplotlib/font_manager.py:273: UserWarning: Matplotlib is building the font cache using fc-list. This may take a moment.
  warnings.warn('Matplotlib is building the font cache using fc-list. This may take a moment.')
=>> PBS: job killed: walltime 10816 exceeded limit 10800
Cleaning up ramdisk directory /dev/shm/tmp.kUjKJc on 
While running:
/bg01/homescinet/a/arisvoin/edickie/quarantine/connectome-workbench/1.1.1/build/bin_rh_linux64/../exe_rh_linux64/wb_command -surface-geodesic-rois /scratch/a/arisvoin/edickie/ABIDE/hcp/UCLA_2/UCLA_51295/MNINonLinear/fsaverage_LR32k/UCLA_51295.R.midthickness.32k_fs_LR.surf.gii 8 /dev/shm/tmp.kUjKJc/tmpzKMqeV/vertex_list.txt /dev/shm/tmp.kUjKJc/tmpzKMqeV/roi_surf.func.gii -overlap-logic EXCLUDE

ERROR: invalid vertex number: -32492


While running:
/bg01/homescinet/a/arisvoin/edickie/quarantine/connectome-workbench/1.1.1/build/bin_rh_linux64/../exe_rh_linux64/wb_command -surface-geodesic-rois /scratch/a/arisvoin/edickie/ABIDE/hcp/UCLA_2/UCLA_51295/MNINonLinear/fsaverage_LR32k/UCLA_51295.R.midthickness.32k_fs_LR.surf.gii 24 /dev/shm/tmp.kUjKJc/tmpzKMqeV/vertex_list.txt /dev/shm/tmp.kUjKJc/tmpzKMqeV/roi_surf.func.gii -overlap-logic EXCLUDE

ERROR: invalid vertex number: -32492


While running:
/bg01/homescinet/a/arisvoin/edickie/quarantine/connectome-workbench/1.1.1/build/bin_rh_linux64/../exe_rh_linux64/wb_command -surface-geodesic-rois /scratch/a/arisvoin/edickie/ABIDE/hcp/UCLA_2/UCLA_51298/MNINonLinear/fsaverage_LR32k/UCLA_51298.R.midthickness.32k_fs_LR.surf.gii 8 /dev/shm/tmp.kUjKJc/tmpNPqeMJ/vertex_list.txt /dev/shm/tmp.kUjKJc/tmpNPqeMJ/roi_surf.func.gii -overlap-logic EXCLUDE

ERROR: invalid vertex number: -32492


While running:
/bg01/homescinet/a/arisvoin/edickie/quarantine/connectome-workbench/1.1.1/build/bin_rh_linux64/../exe_rh_linux64/wb_command -surface-geodesic-rois /scratch/a/arisvoin/edickie/ABIDE/hcp/UCLA_2/UCLA_51298/MNINonLinear/fsaverage_LR32k/UCLA_51298.R.midthickness.32k_fs_LR.surf.gii 24 /dev/shm/tmp.kUjKJc/tmpNPqeMJ/vertex_list.txt /dev/shm/tmp.kUjKJc/tmpNPqeMJ/roi_surf.func.gii -overlap-logic EXCLUDE

ERROR: invalid vertex number: -32492


While running:
/bg01/homescinet/a/arisvoin/edickie/quarantine/connectome-workbench/1.1.1/build/bin_rh_linux64/../exe_rh_linux64/wb_command -surface-geodesic-rois /scratch/a/arisvoin/edickie/ABIDE/hcp/UCLA_2/UCLA_51299/MNINonLinear/fsaverage_LR32k/UCLA_51299.R.midthickness.32k_fs_LR.surf.gii 8 /dev/shm/tmp.kUjKJc/tmp2CECpZ/vertex_list.txt /dev/shm/tmp.kUjKJc/tmp2CECpZ/roi_surf.func.gii -overlap-logic EXCLUDE

ERROR: invalid vertex number: -32492


While running:
/bg01/homescinet/a/arisvoin/edickie/quarantine/connectome-workbench/1.1.1/build/bin_rh_linux64/../exe_rh_linux64/wb_command -surface-geodesic-rois /scratch/a/arisvoin/edickie/ABIDE/hcp/UCLA_2/UCLA_51299/MNINonLinear/fsaverage_LR32k/UCLA_51299.R.midthickness.32k_fs_LR.surf.gii 24 /dev/shm/tmp.kUjKJc/tmp2CECpZ/vertex_list.txt /dev/shm/tmp.kUjKJc/tmp2CECpZ/roi_surf.func.gii -overlap-logic EXCLUDE

ERROR: invalid vertex number: -32492

Sat May 21 23:12:45 EDT 2016
parallel: SIGTERM received. No new jobs will be started.
parallel: Waiting for these 4 jobs to finish. Send SIGTERM again to stop now.
parallel: find-PINT-vertices.py --pcorr --sampling-radius 8 --search-radius 24 /scratch/a/arisvoin/edickie/ABIDE/hcp/UCLA_2/UCLA_51300/MNINonLinear/Results/rest_abide25fix/rest_abide25fix_Atlas_s8.dtseries.nii /scratch/a/arisvoin/edickie/ABIDE/hcp/UCLA_2/UCLA_51300/MNINonLinear/fsaverage_LR32k/UCLA_51300.L.midthickness.32k_fs_LR.surf.gii /scratch/a/arisvoin/edickie/ABIDE/hcp/UCLA_2/UCLA_51300/MNINonLinear/fsaverage_LR32k/UCLA_51300.R.midthickness.32k_fs_LR.surf.gii /home/a/arisvoin/edickie/myscripts/abide/Yeo7_76verts.csv /scratch/a/arisvoin/edickie/ABIDE/PINT_testing/UCLA_2_Yeo7-76v_rad8-24/UCLA_51300_Yeo7-76v_rad8-24 > /scratch/a/arisvoin/edickie/ABIDE/PINT_testing/UCLA_2_Yeo7-76v_rad8-24/UCLA_51300_Yeo7-76v_rad8-24.log
parallel: find-PINT-vertices.py --pcorr --sampling-radius 8 --search-radius 24 /scratch/a/arisvoin/edickie/ABIDE/hcp/UCLA_2/UCLA_51298/MNINonLinear/Results/rest_abide25fix/rest_abide25fix_Atlas_s8.dtseries.nii /scratch/a/arisvoin/edickie/ABIDE/hcp/UCLA_2/UCLA_51298/MNINonLinear/fsaverage_LR32k/UCLA_51298.L.midthickness.32k_fs_LR.surf.gii /scratch/a/arisvoin/edickie/ABIDE/hcp/UCLA_2/UCLA_51298/MNINonLinear/fsaverage_LR32k/UCLA_51298.R.midthickness.32k_fs_LR.surf.gii /home/a/arisvoin/edickie/myscripts/abide/Yeo7_76verts.csv /scratch/a/arisvoin/edickie/ABIDE/PINT_testing/UCLA_2_Yeo7-76v_rad8-24/UCLA_51298_Yeo7-76v_rad8-24 > /scratch/a/arisvoin/edickie/ABIDE/PINT_testing/UCLA_2_Yeo7-76v_rad8-24/UCLA_51298_Yeo7-76v_rad8-24.log
parallel: find-PINT-vertices.py --pcorr --sampling-radius 8 --search-radius 24 /scratch/a/arisvoin/edickie/ABIDE/hcp/UCLA_2/UCLA_51295/MNINonLinear/Results/rest_abide25fix/rest_abide25fix_Atlas_s8.dtseries.nii /scratch/a/arisvoin/edickie/ABIDE/hcp/UCLA_2/UCLA_51295/MNINonLinear/fsaverage_LR32k/UCLA_51295.L.midthickness.32k_fs_LR.surf.gii /scratch/a/arisvoin/edickie/ABIDE/hcp/UCLA_2/UCLA_51295/MNINonLinear/fsaverage_LR32k/UCLA_51295.R.midthickness.32k_fs_LR.surf.gii /home/a/arisvoin/edickie/myscripts/abide/Yeo7_76verts.csv /scratch/a/arisvoin/edickie/ABIDE/PINT_testing/UCLA_2_Yeo7-76v_rad8-24/UCLA_51295_Yeo7-76v_rad8-24 > /scratch/a/arisvoin/edickie/ABIDE/PINT_testing/UCLA_2_Yeo7-76v_rad8-24/UCLA_51295_Yeo7-76v_rad8-24.log
parallel: find-PINT-vertices.py --pcorr --sampling-radius 8 --search-radius 24 /scratch/a/arisvoin/edickie/ABIDE/hcp/UCLA_2/UCLA_51299/MNINonLinear/Results/rest_abide25fix/rest_abide25fix_Atlas_s8.dtseries.nii /scratch/a/arisvoin/edickie/ABIDE/hcp/UCLA_2/UCLA_51299/MNINonLinear/fsaverage_LR32k/UCLA_51299.L.midthickness.32k_fs_LR.surf.gii /scratch/a/arisvoin/edickie/ABIDE/hcp/UCLA_2/UCLA_51299/MNINonLinear/fsaverage_LR32k/UCLA_51299.R.midthickness.32k_fs_LR.surf.gii /home/a/arisvoin/edickie/myscripts/abide/Yeo7_76verts.csv /scratch/a/arisvoin/edickie/ABIDE/PINT_testing/UCLA_2_Yeo7-76v_rad8-24/UCLA_51299_Yeo7-76v_rad8-24 > /scratch/a/arisvoin/edickie/ABIDE/PINT_testing/UCLA_2_Yeo7-76v_rad8-24/UCLA_51299_Yeo7-76v_rad8-24.log
/var/spool/torque/mom_priv/jobs/36124070.gpc-sched-ib0.SC: line 25: 22325 Terminated              parallel -j 4 "find-PINT-vertices.py --pcorr --sampling-radius ${SamplingRad} --search-radius ${SearchRad} ${HCP_DATA}/{}/MNINonLinear/Results/rest_abide25fix/rest_abide25fix_Atlas_s8.dtseries.nii ${HCP_DATA}/{}/MNINonLinear/fsaverage_LR32k/{}.L.midthickness.32k_fs_LR.surf.gii ${HCP_DATA}/{}/MNINonLinear/fsaverage_LR32k/{}.R.midthickness.32k_fs_LR.surf.gii ${InputVertices} ${PINToutputs}/{}_${OutName} > ${PINToutputs}/{}_${OutName}.log" ::: $subjects
done at Sat May 21 23:12:45 EDT 2016
Terminated
----------------------------------------
Begin PBS Epilogue Sat May 21 23:12:59 EDT 2016 1463886779
Job ID:		36124070.gpc-sched-ib0
Username:	edickie
Group:		arisvoin
Job Name:	find_PINT_UCLA2_rad8-24_20160521.sh
Session:	19852
Limits:		neednodes=1:ppn=8,nodes=1:ppn=8,walltime=03:00:00
Resources:	cput=47:27:38,mem=1160860kb,vmem=6329168kb,walltime=03:00:25
Queue:		batch_ib
Account:		
Nodes:	gpc-f130n063-ib0
Killing leftovers...

End PBS Epilogue Sat May 21 23:13:00 EDT 2016 1463886780
----------------------------------------
