Yale_50551
Yale_50552
Yale_50553
Yale_50554
Yale_50555
Yale_50556
Yale_50557
Yale_50558
Yale_50559
Yale_50560
Yale_50561
Yale_50562
Yale_50563
Yale_50564
Yale_50565
Yale_50566
Yale_50567
Yale_50568
Yale_50569
Yale_50570
Yale_50571
Yale_50572
Yale_50573
Yale_50574
Yale_50575
Yale_50576
Yale_50577
Yale_50578
Yale_50601
Yale_50602
Yale_50603
Yale_50604
Yale_50605
Yale_50606
Yale_50607
Yale_50608
Yale_50609
Yale_50610
Yale_50611
Yale_50612
Yale_50613
Yale_50614
Yale_50615
Yale_50616
Yale_50617
Yale_50618
Yale_50619
Yale_50620
Yale_50621
Yale_50622
Yale_50623
Yale_50624
Yale_50625
Yale_50626
Yale_50627
Yale_50628
