hemi,tvertex,LRpairs,roiidx,NETWORK,LOBE,SHORTNAME,
L,21555,40,1,2,occipital/temporal,VI04L,
R,21555,40,2,2,occipital/temporal,VI04R,
L,15127,41,3,2,occipital,VI02L,
R,15127,41,4,2,occipital,VI02R,
L,25126,42,5,2,occipital,VI01L,
R,25126,42,6,2,occipital,VI01R,
L,25096,43,7,2,occipital,VI03L,
R,25096,43,8,2,occipital,VI03R,
L,15036,3,9,3,temporal,DAT1L,MT
R,23208,3,10,3,temporal,DAT1R,MT
L,6111,4,11,3,Frontal,DAF1L,
R,6141,4,12,3,Frontal,DAF1R,
L,7417,5,13,3,parietal,DAP3L,
R,7507,5,14,3,parietal,DAP3R,
L,19598,6,15,3,Frontal,DAF2L,
R,19537,6,16,3,Frontal,DAF2R,
L,15820,7,17,3,parietal,DAP1L,
R,15818,7,18,3,parietal,DAP1R,
L,14785,8,19,3,parietal,DAP2L,
R,12052,8,20,3,parietal,DAP2R,
L,5450,9,21,4,Frontal,SAF3L,55B?
R,30946,9,22,4,frontal,SAF3R,55B?
L,29837,10,23,4,frontal,SAF5L,pole
R,29591,10,24,4,frontal,SAF5R,pole
L,15764,11,25,4,temporal,SAT1L,tpj
R,15844,11,26,4,temporal,SAT1R,tpj
L,18804,12,27,4,frontal,SAF4L,operculum
R,18804,12,28,4,frontal,SAF4R,operculum
L,2453,13,29,4,frontal,SAF1L,dorsalcingulate
R,2411,13,30,4,frontal,SAF1R,dorsalcingulate
L,10939,14,31,4,insula,SAI1L,ant insula
R,11054,14,32,4,insula,SAI1R,ant insula
L,4089,15,33,4,parietal,SAP1L,dorsalcingulate
R,4130,15,34,4,parietal,SAP1R,dorsalcingulate
L,17169,16,35,4,parietal,SAP2L,operculum
R,9371,16,36,4,parietal,SAP2R,operculum
L,4956,17,37,4,frontal,SAF2L,dorsal frontal
R,4956,17,38,4,frontal,SAF2R,dorsal frontal
L,10265,36,39,5,insula,SMI1L,insula
R,10265,36,40,5,insula,SMI1R,insula
L,4605,37,41,5,frontal,SMF1L,dorsal medial
R,4605,37,42,5,frontal,SMF1R,dorsal medial
L,7981,38,43,5,frontal,SMF2L,dorsal lateral
R,7981,38,44,5,frontal,SMF2R,dorsal lateral
L,17962,39,45,5,frontal,SMF3L,vetral lateral
R,17962,39,46,5,frontal,SMF3R,ventral lateral
L,30492,19,47,6,frontal,EXF3L,frontal
R,30492,19,48,6,frontal,EXF3R,frontal
L,2465,20,49,6,frontal,EXF1L,dorsalcingualte
R,2424,20,50,6,frontal,EXF1R,doralcingulate
L,6841,21,51,6,parietal,EXP2L,sup parietal lobule
R,13895,21,52,6,parietal,EXP2R,sup parietal lobule
L,22055,22,53,6,temporal,EXT1L,lateral temporal
R,21912,22,54,6,temporal,EXT1R,lateral temporal
L,30321,23,55,6,frontal,EXF2L,dorsal lateral
R,30321,23,56,6,frontal,EXF2R,dorsal lateral
L,29627,24,57,6,frontal,EXF4L,pole
R,19783,24,58,6,frontal,EXF4R,pole
L,10957,25,59,6,frontal,EXF5L,vlpfc
R,11073,25,60,6,frontal,EXF5R,vlpfc
L,12812,26,61,6,parietal,EXP1L,
R,12848,26,62,6,parietal,EXP1R,
L,26529,27,63,7,temporal,DMT2L,parahippocampal
R,26578,27,64,7,temporal,DMT2R,parahippocampal
L,11548,28,65,7,frontal,DMF3L,ventral lateral
R,10169,28,66,7,frontal,DMF3R,ventral lateral
L,30442,29,67,7,frontal,DMF1L,dlpfc
R,27830,29,68,7,fronal,DMF1R,dlpfc
L,16429,31,69,7,parietal,DMP2L,ipl
R,16195,31,70,7,parietal,DMP2R,ipl
L,13363,32,71,7,parietal,DMP1L,precuneus
R,11809,32,72,7,parietal,DMP1R,precuneus
L,32170,33,73,7,temporal,DMT1L,
R,32221,33,74,7,temporal,DMT1R,
L,28834,35,75,7,frontal,DMF2L,mpfc
R,28834,35,76,7,frontal,DMF2R,mpfc
