,bg_mean,bg_size,bg_std,efc,fber,fg_mean,fg_size,fg_std,fwhm,fwhm_x,fwhm_y,fwhm_z,ghost_y,scan,session,snr,subject
0,59.8731072409,101229,100.071346655,0.552391209679,66.2282392625,928.747158822,38035,195.102999251,1.95457071725,1.93083,2.12706700475,1.81815,0.0505884997547,rest_1,followup_1,9.28085001221,51274
1,78.5446510237,96810,105.092514512,0.591249651428,61.2188435118,997.774857505,42454,241.33474947,2.21149611943,2.17453350615,2.38982276356,2.08125975189,0.0481320358813,rest_1,followup_1,9.49425239412,51312
2,63.668264001,99671,83.6568421669,0.572404324063,86.7155852486,963.174037268,39593,175.159958893,1.88969634397,1.85850318563,2.10209683373,1.727275,0.0502291843295,rest_1,baseline,11.5133922381,51209
3,60.7005204569,92690,92.2415594062,0.592187880087,88.5939473909,1015.23432182,46574,222.538357242,2.19071463528,2.11942350177,2.42161,2.0484951221,0.0467119216919,rest_1,followup_1,11.00625714,51294
4,79.3934298388,94405,118.515673818,0.601118009626,56.5800277325,1050.04297542,44859,220.828562359,2.00399942829,1.97818666667,2.19977333333,1.84946761024,0.0461841598153,rest_1,followup_1,8.85995026305,51235
5,59.1426404011,93495,86.8778071068,0.59009241437,94.7796656045,1001.43664487,45769,209.80161948,2.09510683067,2.02072650607,2.31063351697,1.96960273479,0.0400156714022,rest_1,baseline,11.5269558271,51294
6,63.3027200609,101862,89.9915037116,0.555963946414,82.1226304324,976.500462211,37402,201.479112125,2.03640142448,2.03106983859,2.21511982396,1.8770175,0.0291067976505,rest_1,baseline,10.8510295076,51274
7,70.952722461,100962,91.6535805565,0.577568669113,66.5072465042,928.156140144,38302,178.953162148,1.90245239286,1.87465666667,2.07713633651,1.7682925,0.035338614136,rest_1,baseline,10.1267853859,51215
8,60.3306810129,105213,90.0929682157,0.535163727449,82.0538314735,962.497686353,34051,195.605425762,2.13357496737,2.05932650301,2.42521961452,1.9446725,0.0345130302012,rest_1,baseline,10.6833830144,51292
9,54.9938190961,101603,88.594545545,0.553754198635,67.6839392264,841.564554397,37661,166.473244351,1.87737929519,1.86107333333,2.05603650327,1.72926760307,0.0470301434398,rest_1,followup_1,9.49905605611,51215
10,50.8790614332,103656,78.7450599824,0.532497735191,105.489708006,946.252016626,35608,178.324503035,1.92427009096,1.89705,2.11084649891,1.77935771212,0.0347605906427,rest_1,baseline,12.016652433,51247
11,63.3517191686,99868,87.5714301752,0.568348001322,81.2739019993,954.303441475,39396,196.868710556,2.08798659538,2.02592317233,2.28130684797,1.96959476521,0.0328476317227,rest_1,baseline,10.8974289853,51244
12,69.6037538518,98351,108.320931542,0.577917094074,56.8294502669,949.572600549,40913,201.074237592,2.06612072729,2.02451666667,2.30764018339,1.88789522505,0.0614575073123,rest_1,followup_1,8.76628909144,51315
13,50.1470522844,100932,80.8847093057,0.550986517989,85.8025142159,865.366928244,38332,168.08920875,2.00546235525,1.90644333333,2.30926351686,1.8320828276,0.0360804311931,rest_1,baseline,10.6987703322,51258
14,57.9517388399,103414,103.053891904,0.541427588553,56.8507287081,873.609072207,35850,177.455752992,1.83314781721,1.79206014242,2.07149049388,1.6594175,0.0615105070174,rest_1,followup_1,8.4772060139,51236
15,62.4557927763,99096,102.563208162,0.563348478734,71.119375386,992.925832103,40168,199.069765863,2.00739441543,1.94898348822,2.25194017897,1.84303021971,0.0513875856996,rest_1,baseline,9.68111128636,51315
16,68.7738312764,98133,96.5358533794,0.581888906639,67.1033473753,950.999943116,41131,195.778600048,2.09010672027,2.04671016266,2.31701314919,1.92539772953,0.0542246289551,rest_1,followup_1,9.85126157613,51313
17,52.7359056474,103842,100.431495187,0.520179189478,83.6536709282,1016.64284894,35422,207.000116174,2.03989376609,2.00241349247,2.24029035608,1.89219283835,0.0450724810362,rest_1,followup_1,10.1227493133,51247
18,54.2230296941,104098,80.4072447585,0.538234098137,91.9575079937,913.743414314,35166,173.121423544,1.77110209921,1.74255666667,1.95982713393,1.62677,0.0375028029084,rest_1,baseline,11.3639438468,51236
19,67.3897040096,99678,106.903423712,0.567405022417,60.8564441954,964.677626777,39586,203.103708457,2.04615042326,1.98970317521,2.27166648613,1.89530761297,0.0403577983379,rest_1,followup_1,9.02382349678,51244
20,51.2691698988,102199,101.008951876,0.532312807041,71.1272602656,936.366120808,37065,189.394090889,1.96767807235,1.87724985081,2.20501982476,1.8404626097,0.0366797298193,rest_1,followup_1,9.27013005692,51258
21,52.8763544711,102657,97.6026200264,0.53219382997,78.5318099139,965.118303346,36607,190.324723718,2.01373284726,1.96341984396,2.27472315255,1.82836978204,0.0484061129391,rest_1,followup_1,9.88824176119,51234
22,77.6032289519,92540,113.494386888,0.601715877695,75.1886726637,1167.10906901,46724,243.221406797,2.06835866491,2.00731333333,2.27653981908,1.93636511542,0.0460688322783,rest_1,followup_1,10.2834078496,51298
23,64.4147341587,93601,92.342052879,0.594730310735,86.1701121154,1024.39670261,45663,207.180367827,2.04380663291,1.94536333333,2.27448720895,1.929452615,0.0365578494966,rest_1,baseline,11.0935015053,51298
24,65.7525273124,97571,99.6753128217,0.577227645697,75.3748652924,1018.85578869,41693,191.476654903,2.04018465273,1.95945682239,2.29339054679,1.88970533791,0.0392742753029,rest_1,baseline,10.2217465875,51270
25,58.7886125325,97050,100.798152177,0.57088717308,68.8853767327,949.62904051,42214,190.175916536,2.09519480946,2.02433666667,2.33521018559,1.94565534791,0.047898247838,rest_1,followup_1,9.42109572448,51270
26,60.1330955548,102900,94.9340367402,0.542520586829,86.2679731065,1025.98109825,36364,191.801382182,1.96259633359,1.90867984831,2.21676035234,1.786655,0.0272814892232,rest_1,baseline,10.8073050876,51234
27,58.6560605608,100310,100.420132727,0.557020268378,62.4295458797,900.046474935,38954,185.078490813,1.93681730835,1.89924,2.20129,1.7378375,0.0481405854225,rest_1,followup_1,8.96280905525,51246
28,63.7856469012,98280,96.6924663266,0.567986319863,86.0462741264,1055.43279014,40984,201.561230446,1.98060688505,1.95049651166,2.19985333333,1.81074010793,0.0424667224288,rest_1,baseline,10.91535701,51313
29,62.0692397384,99978,104.761794168,0.558639162985,67.8795500656,983.501296858,39286,198.018518952,1.99535901946,1.95325666667,2.27833684773,1.785195,0.0416717007756,rest_1,baseline,9.38797683514,51246
30,72.8881602364,100754,108.503975784,0.569696076718,57.3744727635,968.213583639,38510,206.991130604,2.10526150674,2.13059033865,2.31831314909,1.88906522519,0.0459616594017,rest_1,followup_1,8.92330052093,51300
31,53.4824574452,99911,81.9221827533,0.556794797438,89.9960546022,907.941674002,39353,192.469845699,2.04573854261,2.02192333333,2.1918901742,1.93181726971,0.0267666783184,rest_1,baseline,11.0829770825,51231
32,70.8962946568,100101,108.624158363,0.570037210604,58.2230964091,968.246252117,39163,205.245337716,2.09339555754,2.06655983576,2.33907018589,1.897855,0.0497804619372,rest_1,followup_1,8.91372846252,51307
33,58.6219667253,99544,91.6794654165,0.560806489969,79.8481593603,953.932728433,39720,188.523718498,1.95663617776,1.92804015323,2.16835350566,1.7917775,0.0460367761552,rest_1,followup_1,10.4050860692,51209
34,61.2131745043,100650,105.18965033,0.554852333805,62.1509635513,938.215490568,38614,200.800047583,2.15473549022,2.12381,2.42479942188,1.94262761579,0.0484090745449,rest_1,followup_1,8.91927568566,51243
35,59.5226504717,95414,92.8283198099,0.582872317864,79.4846131075,962.751787404,43850,199.095388276,2.03977565324,2.00565015939,2.23505053288,1.89324,0.035489462316,rest_1,baseline,10.3713154496,51235
36,57.4578426502,100638,85.4461927524,0.55866341133,81.6790729089,911.023202045,38626,189.816694605,2.112884328,2.07090666667,2.34390351961,1.943245,0.0348837561905,rest_1,baseline,10.6619519571,51307
37,61.8507804866,100696,94.9008954637,0.556052599245,83.1981834692,1012.27722566,38568,207.032817724,2.10018871151,2.06520349746,2.37742685561,1.8867125,0.0363976769149,rest_1,baseline,10.6666772817,51243
38,77.1360938639,98591,115.147467848,0.574304919257,65.1979134892,1092.45326274,40673,242.734181141,2.12045535795,2.10077316638,2.26067946101,2.0075675,0.0454973727465,rest_1,followup_1,9.48742758439,51231
39,63.4541855635,97105,89.9045975093,0.573139783536,90.4181845104,1021.07631221,42159,228.681287926,2.15771253938,2.12238016867,2.35515629232,2.00972761979,0.0384753644466,rest_1,baseline,11.3573314436,51312
40,58.3557285193,106049,98.3687449733,0.525041231133,67.7913079476,921.939670785,33215,191.975650653,2.09220822105,2.03458,2.3630998122,1.90483477293,0.0568526647985,rest_1,followup_1,9.37228253786,51292
41,71.833701581,100439,97.3326048422,0.581021489774,57.9438490793,902.304294443,38825,183.783016367,2.12730939127,2.14134333333,2.35438389466,1.90953522763,0.0435856990516,rest_1,baseline,9.27031898413,51300
