,dvars,gcor,m_tsnr,mean_fd,num_fd,outlier,perc_fd,quality,scan,session,subject
0,1.12044188496,0.0397534684946,52.7225570679,0.152796728094,0.0,,0.0,0.00918760008333,rest_1,followup_1,51274
1,1.09615955443,0.0251818117009,67.7386856079,0.0803447487226,0.0,,0.0,0.00572875733333,rest_1,followup_1,51312
2,1.01402867603,0.0330207253178,27.1999225616,0.382825335793,12.0,,9.9173553719,0.0389902383333,rest_1,baseline,51209
3,1.16600310444,0.0232261596644,63.187374115,0.145447147769,0.0,,0.0,0.007382217,rest_1,followup_1,51294
4,1.13662771995,0.0163132243556,70.4726028442,0.0326319605254,0.0,,0.0,0.00694621875,rest_1,followup_1,51235
5,1.23108521024,0.0985101094612,50.2972221375,0.156879226843,1.0,,0.826446280992,0.00977511358333,rest_1,baseline,51294
6,1.10964024661,0.0514491469206,35.9062271118,0.454858455735,9.0,,7.43801652893,0.0183084935,rest_1,baseline,51274
7,1.08325975186,0.05039117317,45.455368042,0.219438741284,7.0,,5.78512396694,0.0148055628333,rest_1,baseline,51215
8,1.09201755497,0.0430036020215,33.3561019897,0.461360606245,18.0,,14.8760330579,0.02132717275,rest_1,baseline,51292
9,1.07743629673,0.0274458149867,50.4397850037,0.1162756559,1.0,,0.826446280992,0.0101165336667,rest_1,followup_1,51215
10,1.18083808367,0.0279761831647,59.865524292,0.131910288462,0.0,,0.0,0.00955001625,rest_1,baseline,51247
11,1.21149857073,0.042700826113,72.0496902466,0.0994102096733,1.0,,0.826446280992,0.00585074375,rest_1,baseline,51244
12,1.18223426086,0.0397256701214,68.6078643799,0.059430452557,0.0,,0.0,0.00642809625,rest_1,followup_1,51315
13,1.10746530714,0.180666111809,20.0454540253,0.922112567448,24.0,,19.8347107438,0.04664995975,rest_1,baseline,51258
14,1.14335796046,0.025427719572,70.4971542358,0.0497658029807,0.0,,0.0,0.00537821941667,rest_1,followup_1,51236
15,1.23794383426,0.0607260840888,79.5690078735,0.0508290345304,0.0,,0.0,0.00478344158333,rest_1,baseline,51315
16,1.25127223804,0.0736186460019,48.8603286743,0.0713733120303,0.0,,0.0,0.01382603525,rest_1,followup_1,51313
17,1.22539864557,0.0139439149491,66.3714599609,0.0599372487677,0.0,,0.0,0.00657802516667,rest_1,followup_1,51247
18,1.28343562468,0.0364262739739,53.5568237305,0.175927928199,1.0,,0.826446280992,0.0109471896667,rest_1,baseline,51236
19,1.11239385138,0.013874188458,50.9655609131,0.0935094383169,0.0,,0.0,0.0112316904167,rest_1,followup_1,51244
20,1.10979617668,0.0402436503264,49.5905990601,0.144974506853,0.0,,0.0,0.0109044539167,rest_1,followup_1,51258
21,1.03806356583,0.00869809385871,51.379776001,0.100304992947,0.0,,0.0,0.0123845128333,rest_1,followup_1,51234
22,1.09664609373,0.0225093915214,73.7655563354,0.0418767456202,0.0,,0.0,0.00567120441667,rest_1,followup_1,51298
23,1.15414114048,0.0321590408817,61.7671356201,0.134290384519,1.0,,0.826446280992,0.00892454175,rest_1,baseline,51298
24,1.2567890174,0.0342929284798,90.6735839844,0.0407168616708,0.0,,0.0,0.00473016925,rest_1,baseline,51270
25,1.16124395296,0.022815456432,78.3618621826,0.0447280485933,0.0,,0.0,0.00488364341667,rest_1,followup_1,51270
26,1.2697947044,0.045097202294,95.9692382812,0.0306281972448,0.0,,0.0,0.00436515241667,rest_1,baseline,51234
27,1.14054448369,0.0628678470972,61.9555664062,0.0770115353314,0.0,,0.0,0.00793182091667,rest_1,followup_1,51246
28,1.10696053486,0.0150043553921,67.6777420044,0.0445437257012,0.0,,0.0,0.00971425666667,rest_1,baseline,51313
29,1.22444139076,0.0284383368191,78.4590072632,0.0450650723697,0.0,,0.0,0.00571460925,rest_1,baseline,51246
30,1.04453326312,0.0271184980427,43.963180542,0.1468514615,1.0,,0.826446280992,0.0133019861667,rest_1,followup_1,51300
31,1.21774885791,0.0615112007615,41.5639457703,0.302299155101,9.0,,7.43801652893,0.0133803865833,rest_1,baseline,51231
32,1.16736678814,0.0278712751105,84.3959732056,0.0349381570236,0.0,,0.0,0.00392418833333,rest_1,followup_1,51307
33,1.29307913504,0.0425431271517,79.3976211548,0.0401140281576,0.0,,0.0,0.0053381295,rest_1,followup_1,51209
34,1.17099321846,0.0160761156456,64.0827941895,0.0643504877811,0.0,,0.0,0.00527439008333,rest_1,followup_1,51243
35,1.14213044497,0.022776115182,82.3856124878,0.0585637921792,0.0,,0.0,0.0051521495,rest_1,baseline,51235
36,1.18378696812,0.0707650239901,56.5127639771,0.102905681219,1.0,,0.826446280992,0.00851838683333,rest_1,baseline,51307
37,1.32368852343,0.0397882718591,84.6561660767,0.0703431649019,0.0,,0.0,0.00485576958333,rest_1,baseline,51243
38,1.19395089139,0.0392550544217,80.1534194946,0.0655431347059,0.0,,0.0,0.00347587075,rest_1,followup_1,51231
39,1.22071859738,0.0210079492809,68.363571167,0.118024174405,0.0,,0.0,0.00593056666667,rest_1,baseline,51312
40,1.0651626776,0.00897577837887,67.1812820435,0.0661175213808,0.0,,0.0,0.00569456333333,rest_1,followup_1,51292
41,1.14575025084,0.0674969026,24.6869468689,0.913676610494,34.0,,28.0991735537,0.0386924566667,rest_1,baseline,51300
