----------------------------------------
Begin PBS Prologue Thu Apr  7 11:52:09 EDT 2016 1460044329
Job ID:		35385631.gpc-sched-ib0
Username:	edickie
Group:		arisvoin
Nodes:		gpc-f140n059-ib0
End PBS Prologue Thu Apr  7 11:52:11 EDT 2016 1460044331
----------------------------------------
FIX Training classifier with output training file: ./abide_UCLA23_2 and Melodic outputs list: UCLA_51291/RST/SESS01/fake.20160319.01.feat UCLA_51292/RST/SESS01/fake.20160319.01.feat UCLA_51293/RST/SESS01/fake.20160319.01.feat UCLA_51294/RST/SESS01/fake.20160319.01.feat UCLA_51295/RST/SESS01/fake.20160319.01.feat UCLA_51297/RST/SESS01/fake.20160319.01.feat UCLA_51298/RST/SESS01/fake.20160319.01.feat UCLA_51299/RST/SESS01/fake.20160319.01.feat UCLA_51300/RST/SESS01/fake.20160319.01.feat UCLA_51301/RST/SESS01/fake.20160319.01.feat UCLA_51302/RST/SESS01/fake.20160319.01.feat UCLA_51303/RST/SESS01/fake.20160319.01.feat UCLA_51304/RST/SESS01/fake.20160319.01.feat UCLA_51305/RST/SESS01/fake.20160319.01.feat UCLA_51306/RST/SESS01/fake.20160319.01.feat UCLA_51307/RST/SESS01/fake.20160319.01.feat UCLA_51308/RST/SESS01/fake.20160319.01.feat UCLA_51309/RST/SESS01/fake.20160319.01.feat UCLA_51311/RST/SESS01/fake.20160319.01.feat UCLA_51313/RST/SESS01/fake.20160319.01.feat UCLA_51314/RST/SESS01/fake.20160319.01.feat UCLA_51315/RST/SESS01/fake.20160319.01.feat UCLA_51317/RST/SESS01/fake.20160319.01.feat
 copy true labels and features into training directory
 running classifier training
 running LOO accuracy testing
leaving-out: UCLA_51291/RST/SESS01/fake.20160319.01.feat
leaving-out: UCLA_51292/RST/SESS01/fake.20160319.01.feat
leaving-out: UCLA_51293/RST/SESS01/fake.20160319.01.feat
leaving-out: UCLA_51294/RST/SESS01/fake.20160319.01.feat
leaving-out: UCLA_51295/RST/SESS01/fake.20160319.01.feat
leaving-out: UCLA_51297/RST/SESS01/fake.20160319.01.feat
leaving-out: UCLA_51298/RST/SESS01/fake.20160319.01.feat
leaving-out: UCLA_51299/RST/SESS01/fake.20160319.01.feat
leaving-out: UCLA_51300/RST/SESS01/fake.20160319.01.feat
leaving-out: UCLA_51301/RST/SESS01/fake.20160319.01.feat
leaving-out: UCLA_51302/RST/SESS01/fake.20160319.01.feat
leaving-out: UCLA_51303/RST/SESS01/fake.20160319.01.feat
leaving-out: UCLA_51304/RST/SESS01/fake.20160319.01.feat
leaving-out: UCLA_51305/RST/SESS01/fake.20160319.01.feat
leaving-out: UCLA_51306/RST/SESS01/fake.20160319.01.feat
leaving-out: UCLA_51307/RST/SESS01/fake.20160319.01.feat
leaving-out: UCLA_51308/RST/SESS01/fake.20160319.01.feat
leaving-out: UCLA_51309/RST/SESS01/fake.20160319.01.feat
leaving-out: UCLA_51311/RST/SESS01/fake.20160319.01.feat
leaving-out: UCLA_51313/RST/SESS01/fake.20160319.01.feat
leaving-out: UCLA_51314/RST/SESS01/fake.20160319.01.feat
leaving-out: UCLA_51315/RST/SESS01/fake.20160319.01.feat
leaving-out: UCLA_51317/RST/SESS01/fake.20160319.01.feat
----------------------------------------
Begin PBS Epilogue Thu Apr  7 12:36:10 EDT 2016 1460046970
Job ID:		35385631.gpc-sched-ib0
Username:	edickie
Group:		arisvoin
Job Name:	trainfix_UCLA2_20160407.sh
Session:	13983
Limits:		neednodes=1:ppn=8,nodes=1:ppn=8,walltime=04:00:00
Resources:	cput=00:45:19,mem=217692kb,vmem=1170792kb,walltime=00:43:55
Queue:		batch_ib
Account:		
Nodes:	gpc-f140n059-ib0
Killing leftovers...

End PBS Epilogue Thu Apr  7 12:36:11 EDT 2016 1460046971
----------------------------------------
