----------------------------------------
Begin PBS Prologue Sun Apr  3 22:47:49 EDT 2016 1459738069
Job ID:		35336194.gpc-sched-ib0
Username:	edickie
Group:		arisvoin
Nodes:		gpc-f120n079-ib0
End PBS Prologue Sun Apr  3 22:47:50 EDT 2016 1459738070
----------------------------------------
FIX Training classifier with output training file: ./abide_Caltech25 and Melodic outputs list: Caltech_51456/RST/SESS01/fake.20160319.01.feat Caltech_51458/RST/SESS01/fake.20160319.01.feat Caltech_51461/RST/SESS01/fake.20160319.01.feat Caltech_51462/RST/SESS01/fake.20160319.01.feat Caltech_51463/RST/SESS01/fake.20160319.01.feat Caltech_51466/RST/SESS01/fake.20160319.01.feat Caltech_51470/RST/SESS01/fake.20160319.01.feat Caltech_51471/RST/SESS01/fake.20160319.01.feat Caltech_51472/RST/SESS01/fake.20160319.01.feat Caltech_51475/RST/SESS01/fake.20160319.01.feat Caltech_51476/RST/SESS01/fake.20160319.01.feat Caltech_51477/RST/SESS01/fake.20160319.01.feat Caltech_51478/RST/SESS01/fake.20160319.01.feat Caltech_51479/RST/SESS01/fake.20160319.01.feat Caltech_51480/RST/SESS01/fake.20160319.01.feat Caltech_51481/RST/SESS01/fake.20160319.01.feat Caltech_51482/RST/SESS01/fake.20160319.01.feat Caltech_51483/RST/SESS01/fake.20160319.01.feat Caltech_51484/RST/SESS01/fake.20160319.01.feat Caltech_51485/RST/SESS01/fake.20160319.01.feat Caltech_51487/RST/SESS01/fake.20160319.01.feat Caltech_51489/RST/SESS01/fake.20160319.01.feat Caltech_51491/RST/SESS01/fake.20160319.01.feat Caltech_51492/RST/SESS01/fake.20160319.01.feat Caltech_51493/RST/SESS01/fake.20160319.01.feat
 copy true labels and features into training directory
 running classifier training
 running LOO accuracy testing
leaving-out: Caltech_51456/RST/SESS01/fake.20160319.01.feat
leaving-out: Caltech_51458/RST/SESS01/fake.20160319.01.feat
leaving-out: Caltech_51461/RST/SESS01/fake.20160319.01.feat
leaving-out: Caltech_51462/RST/SESS01/fake.20160319.01.feat
leaving-out: Caltech_51463/RST/SESS01/fake.20160319.01.feat
leaving-out: Caltech_51466/RST/SESS01/fake.20160319.01.feat
leaving-out: Caltech_51470/RST/SESS01/fake.20160319.01.feat
leaving-out: Caltech_51471/RST/SESS01/fake.20160319.01.feat
leaving-out: Caltech_51472/RST/SESS01/fake.20160319.01.feat
leaving-out: Caltech_51475/RST/SESS01/fake.20160319.01.feat
leaving-out: Caltech_51476/RST/SESS01/fake.20160319.01.feat
leaving-out: Caltech_51477/RST/SESS01/fake.20160319.01.feat
leaving-out: Caltech_51478/RST/SESS01/fake.20160319.01.feat
leaving-out: Caltech_51479/RST/SESS01/fake.20160319.01.feat
leaving-out: Caltech_51480/RST/SESS01/fake.20160319.01.feat
leaving-out: Caltech_51481/RST/SESS01/fake.20160319.01.feat
leaving-out: Caltech_51482/RST/SESS01/fake.20160319.01.feat
leaving-out: Caltech_51483/RST/SESS01/fake.20160319.01.feat
leaving-out: Caltech_51484/RST/SESS01/fake.20160319.01.feat
leaving-out: Caltech_51485/RST/SESS01/fake.20160319.01.feat
leaving-out: Caltech_51487/RST/SESS01/fake.20160319.01.feat
leaving-out: Caltech_51489/RST/SESS01/fake.20160319.01.feat
leaving-out: Caltech_51491/RST/SESS01/fake.20160319.01.feat
leaving-out: Caltech_51492/RST/SESS01/fake.20160319.01.feat
leaving-out: Caltech_51493/RST/SESS01/fake.20160319.01.feat
----------------------------------------
Begin PBS Epilogue Sun Apr  3 23:34:02 EDT 2016 1459740842
Job ID:		35336194.gpc-sched-ib0
Username:	edickie
Group:		arisvoin
Job Name:	trainfix_Caltech_20160304.sh
Session:	15772
Limits:		neednodes=1:ppn=8,nodes=1:ppn=8,walltime=04:00:00
Resources:	cput=00:47:42,mem=214720kb,vmem=1168024kb,walltime=00:46:08
Queue:		batch_ib
Account:		
Nodes:	gpc-f120n079-ib0
Killing leftovers...

End PBS Epilogue Sun Apr  3 23:34:03 EDT 2016 1459740843
----------------------------------------
