NumSignal,PercentExcluded,featdir,labelfile,numICs
12,85.0,CMU_50642/RST/SESS01/fake.20160422.01.feat/,fix4melview_abide_CMU25_thr20,78
26,74.0,CMU_50643/RST/SESS01/fake.20160422.01.feat/,fix4melview_abide_CMU25_thr20,99
24,59.0,CMU_50644/RST/SESS01/fake.20160422.01.feat/,fix4melview_abide_CMU25_thr20,59
21,77.0,CMU_50645/RST/SESS01/fake.20160422.01.feat/,fix4melview_abide_CMU25_thr20,90
19,78.0,CMU_50646/RST/SESS01/fake.20160422.01.feat/,fix4melview_abide_CMU25_thr20,87
14,81.0,CMU_50647/RST/SESS01/fake.20160422.01.feat/,fix4melview_abide_CMU25_thr20,72
30,48.0,CMU_50648/RST/SESS01/fake.20160422.01.feat/,fix4melview_abide_CMU25_thr20,58
17,71.0,CMU_50649/RST/SESS01/fake.20160422.01.feat/,fix4melview_abide_CMU25_thr20,59
9,92.0,CMU_50650/RST/SESS01/fake.20160422.01.feat/,fix4melview_abide_CMU25_thr20,106
21,71.0,CMU_50651/RST/SESS01/fake.20160422.01.feat/,fix4melview_abide_CMU25_thr20,73
19,71.0,CMU_50652/RST/SESS01/fake.20160422.01.feat/,fix4melview_abide_CMU25_thr20,66
23,65.0,CMU_50653/RST/SESS01/fake.20160422.01.feat/,fix4melview_abide_CMU25_thr20,65
30,59.0,CMU_50654/RST/SESS01/fake.20160422.01.feat/,fix4melview_abide_CMU25_thr20,74
24,75.0,CMU_50655/RST/SESS01/fake.20160422.01.feat/,fix4melview_abide_CMU25_thr20,96
29,57.0,CMU_50656/RST/SESS01/fake.20160422.01.feat/,fix4melview_abide_CMU25_thr20,68
21,70.0,CMU_50657/RST/SESS01/fake.20160422.01.feat/,fix4melview_abide_CMU25_thr20,69
14,78.0,CMU_50658/RST/SESS01/fake.20160422.01.feat/,fix4melview_abide_CMU25_thr20,64
24,71.0,CMU_50659/RST/SESS01/fake.20160422.01.feat/,fix4melview_abide_CMU25_thr20,82
28,61.0,CMU_50660/RST/SESS01/fake.20160422.01.feat/,fix4melview_abide_CMU25_thr20,71
24,61.0,CMU_50661/RST/SESS01/fake.20160422.01.feat/,fix4melview_abide_CMU25_thr20,61
18,76.0,CMU_50663/RST/SESS01/fake.20160422.01.feat/,fix4melview_abide_CMU25_thr20,75
20,72.0,CMU_50664/RST/SESS01/fake.20160422.01.feat/,fix4melview_abide_CMU25_thr20,72
18,78.0,CMU_50665/RST/SESS01/fake.20160422.01.feat/,fix4melview_abide_CMU25_thr20,80
14,83.0,CMU_50666/RST/SESS01/fake.20160422.01.feat/,fix4melview_abide_CMU25_thr20,84
19,68.0,CMU_50667/RST/SESS01/fake.20160422.01.feat/,fix4melview_abide_CMU25_thr20,59
49,36.0,CMU_50668/RST/SESS01/fake.20160422.01.feat/,fix4melview_abide_CMU25_thr20,76
20,62.0,CMU_50669/RST/SESS01/fake.20160422.01.feat/,fix4melview_abide_CMU25_thr20,53
