"subid","x_ASD","x_TD","x_age","x_Caltech","x_CMU","x_KKI","x_Leuven","x_MaxMun","x_Olin","x_Pitt","x_SBL","x_SDSU","x_Trinity","x_UCLA","x_USM","x_Yale","x_Comp1","x_Comp2"
"Pitt_50002",1,0,-1.06960956130484,0,0,0,0,0,0,1,0,0,0,0,0,0,-0.0820733881645599,0.333015817382607
"Pitt_50003",1,0,6.61039043869516,0,0,0,0,0,0,1,0,0,0,0,0,0,-2.57251970095733,1.53115187085347
"Pitt_50004",1,0,1.25039043869516,0,0,0,0,0,0,1,0,0,0,0,0,0,0.056206392267065,1.12980731882308
"Pitt_50005",1,0,-4.10960956130484,0,0,0,0,0,0,1,0,0,0,0,0,0,-0.682238494886117,1.01292709688877
"Pitt_50006",1,0,-4.46960956130484,0,0,0,0,0,0,1,0,0,0,0,0,0,1.03058235640116,-0.152911938559604
"Pitt_50007",1,0,-0.0596095613048355,0,0,0,0,0,0,1,0,0,0,0,0,0,-1.51729459846017,1.37399074438743
"Pitt_50008",1,0,14.6103904386952,0,0,0,0,0,0,1,0,0,0,0,0,0,-1.03488534565166,1.08349122853776
"Pitt_50009",1,0,16.0203904386952,0,0,0,0,0,0,1,0,0,0,0,0,0,0.372009210967173,1.18698177475884
"Pitt_50010",1,0,17.3603904386952,0,0,0,0,0,0,1,0,0,0,0,0,0,1.02880174115132,0.582310931212975
"Pitt_50011",1,0,-0.909609561304837,0,0,0,0,0,0,1,0,0,0,0,0,0,0.467339336615627,-0.0992963950767133
"Pitt_50012",1,0,3.64039043869516,0,0,0,0,0,0,1,0,0,0,0,0,0,1.00849957459411,0.350153645976858
"Pitt_50013",1,0,-8.50960956130484,0,0,0,0,0,0,1,0,0,0,0,0,0,-0.932516109711273,1.79257170673792
"Pitt_50014",1,0,-3.63960956130484,0,0,0,0,0,0,1,0,0,0,0,0,0,1.28090460445441,-0.569875347395745
"Pitt_50015",1,0,-3.63960956130484,0,0,0,0,0,0,1,0,0,0,0,0,0,0.749628565036013,0.64692716323162
"Pitt_50016",1,0,3.98039043869516,0,0,0,0,0,0,1,0,0,0,0,0,0,0.455583921853624,0.314630348341169
"Pitt_50019",1,0,9.97039043869516,0,0,0,0,0,0,1,0,0,0,0,0,0,-1.58711083965666,1.55804741395845
"Pitt_50020",1,0,2.99039043869516,0,0,0,0,0,0,1,0,0,0,0,0,0,-0.0349484585930208,0.345969219079716
"Pitt_50022",1,0,-0.849609561304838,0,0,0,0,0,0,1,0,0,0,0,0,0,0.314539856331486,-0.0673629956572901
"Pitt_50023",1,0,-5.19960956130484,0,0,0,0,0,0,1,0,0,0,0,0,0,-1.0485623689087,0.645939503240701
"Pitt_50024",1,0,4.80039043869516,0,0,0,0,0,0,1,0,0,0,0,0,0,0.970641327652214,-0.0821038613881142
"Pitt_50025",1,0,13.8803904386952,0,0,0,0,0,0,1,0,0,0,0,0,0,0.466316984843558,0.105101569760632
"Pitt_50026",1,0,-1.55960956130484,0,0,0,0,0,0,1,0,0,0,0,0,0,-0.547778327343493,2.20092798303466
"Pitt_50027",1,0,-5.59960956130484,0,0,0,0,0,0,1,0,0,0,0,0,0,1.00778227160034,1.33217094036904
"Pitt_50028",1,0,-5.09960956130484,0,0,0,0,0,0,1,0,0,0,0,0,0,-0.0940716310403849,1.5458212566479
"Pitt_50029",1,0,-6.43960956130484,0,0,0,0,0,0,1,0,0,0,0,0,0,1.11296018194158,0.507689226066706
"Pitt_50030",0,1,7.28039043869516,0,0,0,0,0,0,1,0,0,0,0,0,0,1.1202856292625,0.51720229507338
"Pitt_50031",0,1,-4.91960956130484,0,0,0,0,0,0,1,0,0,0,0,0,0,-1.86498549571906,0.777589643075896
"Pitt_50032",0,1,1.96039043869516,0,0,0,0,0,0,1,0,0,0,0,0,0,-0.154101765419752,-0.242220974144262
"Pitt_50033",0,1,-5.68960956130484,0,0,0,0,0,0,1,0,0,0,0,0,0,-0.811208606418624,0.57638349995757
"Pitt_50034",0,1,-3.06960956130484,0,0,0,0,0,0,1,0,0,0,0,0,0,0.0297973646664608,1.07173877112091
"Pitt_50035",0,1,-0.479609561304837,0,0,0,0,0,0,1,0,0,0,0,0,0,-0.291595157317858,1.08830816242085
"Pitt_50036",0,1,-4.55960956130484,0,0,0,0,0,0,1,0,0,0,0,0,0,1.25340890842394,0.147948278706633
"Pitt_50037",0,1,1.32039043869516,0,0,0,0,0,0,1,0,0,0,0,0,0,0.927978831950068,0.439312834112839
"Pitt_50038",0,1,-3.88960956130484,0,0,0,0,0,0,1,0,0,0,0,0,0,0.805932409317343,0.827620780304715
"Pitt_50040",0,1,6.76039043869516,0,0,0,0,0,0,1,0,0,0,0,0,0,0.596785004514297,0.0190321023407132
"Pitt_50041",0,1,10.0803904386952,0,0,0,0,0,0,1,0,0,0,0,0,0,0.964765009889067,0.178424219297296
"Pitt_50042",0,1,15.3303904386952,0,0,0,0,0,0,1,0,0,0,0,0,0,-0.2140905765497,0.76051580724736
"Pitt_50043",0,1,-4.05960956130484,0,0,0,0,0,0,1,0,0,0,0,0,0,0.493641023688128,1.4415622181571
"Pitt_50044",0,1,-0.709609561304838,0,0,0,0,0,0,1,0,0,0,0,0,0,0.812121795565181,0.00140735226022257
"Pitt_50045",0,1,-2.13960956130484,0,0,0,0,0,0,1,0,0,0,0,0,0,-0.11445914044475,0.52974452620076
"Pitt_50046",0,1,2.81039043869516,0,0,0,0,0,0,1,0,0,0,0,0,0,-1.1808382941429,0.78122290786182
"Pitt_50047",0,1,-2.48960956130484,0,0,0,0,0,0,1,0,0,0,0,0,0,-0.467510828451807,0.244005721204634
"Pitt_50048",0,1,-6.02960956130484,0,0,0,0,0,0,1,0,0,0,0,0,0,-1.50373922739779,1.03968577013394
"Pitt_50049",0,1,-2.01960956130484,0,0,0,0,0,0,1,0,0,0,0,0,0,-0.067799801181138,1.83902457184282
"Pitt_50050",0,1,-3.46960956130484,0,0,0,0,0,0,1,0,0,0,0,0,0,-0.780621820635999,0.302630232530322
"Pitt_50051",0,1,-5.00960956130484,0,0,0,0,0,0,1,0,0,0,0,0,0,0.809024207286772,0.275532598754014
"Pitt_50053",1,0,-5.80960956130484,0,0,0,0,0,0,1,0,0,0,0,0,0,-1.01646385377409,1.45644558339634
"Pitt_50056",1,0,-4.24960956130484,0,0,0,0,0,0,1,0,0,0,0,0,0,-0.41365915018495,1.63785030918802
"Pitt_50057",1,0,-5.21960956130484,0,0,0,0,0,0,1,0,0,0,0,0,0,1.35992075167415,0.321363358801303
"Pitt_50058",0,1,5.26039043869516,0,0,0,0,0,0,1,0,0,0,0,0,0,0.690705835095569,0.613760925647585
"Pitt_50059",0,1,3.38039043869516,0,0,0,0,0,0,1,0,0,0,0,0,0,-0.801667215666312,0.190552174379152
"Pitt_50060",0,1,2.50039043869516,0,0,0,0,0,0,1,0,0,0,0,0,0,0.768821941929852,-0.0125264867655367
"Olin_50102",0,1,-3.83960956130484,0,0,0,0,0,1,0,0,0,0,0,0,0,-2.01929688319772,0.926792907597805
"Olin_50104",0,1,-1.83960956130484,0,0,0,0,0,1,0,0,0,0,0,0,0,-0.090781588484949,0.0419705287005343
"Olin_50105",0,1,-0.839609561304837,0,0,0,0,0,1,0,0,0,0,0,0,0,-0.880068033324269,0.634362206782708
"Olin_50106",0,1,-7.83960956130484,0,0,0,0,0,1,0,0,0,0,0,0,0,-1.86660515137872,1.59585802682862
"Olin_50107",0,1,3.16039043869516,0,0,0,0,0,1,0,0,0,0,0,0,0,-1.70162099987402,-1.08204200273821
"Olin_50108",0,1,3.16039043869516,0,0,0,0,0,1,0,0,0,0,0,0,0,-1.05220822846863,0.0730238631165835
"Olin_50109",0,1,2.16039043869516,0,0,0,0,0,1,0,0,0,0,0,0,0,-3.18886234745625,0.848655233795724
"Olin_50111",0,1,-3.83960956130484,0,0,0,0,0,1,0,0,0,0,0,0,0,-0.9714874044173,0.696041335460071
"Olin_50112",0,1,-0.839609561304837,0,0,0,0,0,1,0,0,0,0,0,0,0,-3.46287159891052,0.954015060740637
"Olin_50113",0,1,-2.83960956130484,0,0,0,0,0,1,0,0,0,0,0,0,0,-4.36468216356083,-1.48427754988128
"Olin_50114",0,1,2.16039043869516,0,0,0,0,0,1,0,0,0,0,0,0,0,-0.894993365877327,0.238549434200443
"Olin_50115",0,1,5.16039043869516,0,0,0,0,0,1,0,0,0,0,0,0,0,-2.07151046781023,0.500249869115791
"Olin_50116",0,1,-2.83960956130484,0,0,0,0,0,1,0,0,0,0,0,0,0,-0.716745456480165,0.2057255863914
"Olin_50117",0,1,3.16039043869516,0,0,0,0,0,1,0,0,0,0,0,0,0,-0.341272435398549,0.501465051592962
"Olin_50119",1,0,1.16039043869516,0,0,0,0,0,1,0,0,0,0,0,0,0,-1.85038899478642,0.991990176515091
"Olin_50121",1,0,2.16039043869516,0,0,0,0,0,1,0,0,0,0,0,0,0,-1.67672086444518,0.191554766889888
"Olin_50124",1,0,0.160390438695163,0,0,0,0,0,1,0,0,0,0,0,0,0,-3.09086900189254,0.622395721382859
"Olin_50125",1,0,6.16039043869516,0,0,0,0,0,1,0,0,0,0,0,0,0,-2.15473575246911,-1.58496787782084
"Olin_50126",1,0,-0.839609561304837,0,0,0,0,0,1,0,0,0,0,0,0,0,-2.93741309083873,1.07559282663422
"Olin_50127",1,0,-3.83960956130484,0,0,0,0,0,1,0,0,0,0,0,0,0,-1.13753249105914,-0.115829071453058
"Olin_50128",1,0,-1.83960956130484,0,0,0,0,0,1,0,0,0,0,0,0,0,-1.07899879499798,0.893129915206519
"Olin_50129",1,0,-5.83960956130484,0,0,0,0,0,1,0,0,0,0,0,0,0,-2.99230387816805,0.0527283590690795
"Olin_50130",1,0,0.160390438695163,0,0,0,0,0,1,0,0,0,0,0,0,0,-0.086051745840546,-0.217036929042279
"Olin_50131",1,0,3.16039043869516,0,0,0,0,0,1,0,0,0,0,0,0,0,-1.350844469763,-0.558614489925624
"Olin_50132",1,0,-1.83960956130484,0,0,0,0,0,1,0,0,0,0,0,0,0,-0.996210951731895,-0.0449357674040622
"Olin_50134",1,0,0.160390438695163,0,0,0,0,0,1,0,0,0,0,0,0,0,-2.63669912508323,-0.482143855984466
"Olin_50137",1,0,2.16039043869516,0,0,0,0,0,1,0,0,0,0,0,0,0,-1.14996234378951,0.825643592954822
"SDSU_50183",1,0,-3.69960956130484,0,0,0,0,0,0,0,0,1,0,0,0,0,3.42037356763378,-1.64711066825078
"SDSU_50184",1,0,-0.689609561304838,0,0,0,0,0,0,0,0,1,0,0,0,0,2.42592634906733,-2.32250832915584
"SDSU_50186",1,0,-5.70960956130484,0,0,0,0,0,0,0,0,1,0,0,0,0,0.631423901622331,0.56365300296947
"SDSU_50188",1,0,-2.43960956130484,0,0,0,0,0,0,0,0,1,0,0,0,0,0.744932848971404,-0.753011591289672
"SDSU_50189",1,0,-1.19960956130484,0,0,0,0,0,0,0,0,1,0,0,0,0,2.778900551818,-1.56526757146557
"SDSU_50191",1,0,-5.20960956130484,0,0,0,0,0,0,0,0,1,0,0,0,0,1.35320146955577,-0.317638192155017
"SDSU_50193",0,1,-3.08960956130484,0,0,0,0,0,0,0,0,1,0,0,0,0,2.83880658260122,-0.764963559757879
"SDSU_50194",0,1,-4.48960956130484,0,0,0,0,0,0,0,0,1,0,0,0,0,1.72630174478001,-0.136402240194247
"SDSU_50195",0,1,-5.25960956130484,0,0,0,0,0,0,0,0,1,0,0,0,0,1.82403537592228,-0.952473452010544
"SDSU_50196",0,1,-4.92960956130484,0,0,0,0,0,0,0,0,1,0,0,0,0,2.00454561850061,-1.92343732871588
"SDSU_50198",0,1,-2.55960956130484,0,0,0,0,0,0,0,0,1,0,0,0,0,1.24128045915627,0.528705147061546
"SDSU_50199",0,1,-2.30960956130484,0,0,0,0,0,0,0,0,1,0,0,0,0,2.63644842250293,-1.86964652862283
"SDSU_50200",0,1,-3.95960956130484,0,0,0,0,0,0,0,0,1,0,0,0,0,1.63327201834507,-0.961256019404369
"SDSU_50201",0,1,-4.06960956130484,0,0,0,0,0,0,0,0,1,0,0,0,0,2.05719471509071,-0.4662725859264
"SDSU_50202",0,1,-5.75960956130484,0,0,0,0,0,0,0,0,1,0,0,0,0,-1.11032062189517,0.190816265389947
"SDSU_50203",0,1,-1.78960956130484,0,0,0,0,0,0,0,0,1,0,0,0,0,3.54720025505795,-1.13468431865235
"SDSU_50204",0,1,-2.97960956130484,0,0,0,0,0,0,0,0,1,0,0,0,0,2.48657612752829,0.375701721466443
"SDSU_50205",0,1,-3.73960956130484,0,0,0,0,0,0,0,0,1,0,0,0,0,3.00118275469502,-1.64106276318277
"SDSU_50206",0,1,-9.16960956130484,0,0,0,0,0,0,0,0,1,0,0,0,0,0.184629718012479,0.0433137020096632
"SDSU_50208",0,1,-4.05960956130484,0,0,0,0,0,0,0,0,1,0,0,0,0,0.211566564660406,0.650850905818239
"SDSU_50209",0,1,-1.26960956130484,0,0,0,0,0,0,0,0,1,0,0,0,0,2.48015858989576,-0.644965507794426
"SDSU_50210",0,1,-1.23960956130484,0,0,0,0,0,0,0,0,1,0,0,0,0,2.73688916609696,-1.2809676302348
"SDSU_50211",0,1,-1.70960956130484,0,0,0,0,0,0,0,0,1,0,0,0,0,-0.635468476008718,-0.382942861435171
"SDSU_50213",0,1,-5.45960956130484,0,0,0,0,0,0,0,0,1,0,0,0,0,1.08547086092835,0.43539701122806
"SDSU_50214",0,1,-3.07960956130484,0,0,0,0,0,0,0,0,1,0,0,0,0,3.21867286824061,-0.720282170262232
"SDSU_50215",0,1,-0.959609561304838,0,0,0,0,0,0,0,0,1,0,0,0,0,1.17779794396925,-0.915108250381201
"SDSU_50217",0,1,-4.93960956130484,0,0,0,0,0,0,0,0,1,0,0,0,0,2.27830471290301,-0.0673000275278387
"Trinity_50232",1,0,5.24039043869516,0,0,0,0,0,0,0,0,0,1,0,0,0,-0.683757777279084,2.01007771630977
"Trinity_50233",1,0,2.91039043869516,0,0,0,0,0,0,0,0,0,1,0,0,0,2.2025313633781,0.280154022545741
"Trinity_50234",1,0,-2.17960956130484,0,0,0,0,0,0,0,0,0,1,0,0,0,1.43976602007357,1.07982780892376
"Trinity_50235",1,0,-2.50960956130484,0,0,0,0,0,0,0,0,0,1,0,0,0,2.0997180683891,1.25239127976216
"Trinity_50236",1,0,1.32039043869516,0,0,0,0,0,0,0,0,0,1,0,0,0,1.40765344372971,0.839126418543213
"Trinity_50237",1,0,3.58039043869517,0,0,0,0,0,0,0,0,0,1,0,0,0,0.26033476195797,-0.136274976563223
"Trinity_50238",1,0,1.08039043869517,0,0,0,0,0,0,0,0,0,1,0,0,0,1.58063944083337,1.18442406358129
"Trinity_50239",1,0,-0.809609561304836,0,0,0,0,0,0,0,0,0,1,0,0,0,1.57350067934355,1.50199218256166
"Trinity_50240",1,0,-2.78960956130484,0,0,0,0,0,0,0,0,0,1,0,0,0,1.91286016173595,0.693428232154804
"Trinity_50241",1,0,-0.669609561304835,0,0,0,0,0,0,0,0,0,1,0,0,0,1.32173738860527,0.324332889331106
"Trinity_50243",1,0,-4.08960956130484,0,0,0,0,0,0,0,0,0,1,0,0,0,1.36180399121538,0.971671595754054
"Trinity_50244",1,0,8.07039043869516,0,0,0,0,0,0,0,0,0,1,0,0,0,0.413382910131919,1.49970010067445
"Trinity_50245",1,0,3.74039043869516,0,0,0,0,0,0,0,0,0,1,0,0,0,1.08837555127159,1.34397713853181
"Trinity_50246",1,0,1.66039043869516,0,0,0,0,0,0,0,0,0,1,0,0,0,0.27236758717282,0.714304691881465
"Trinity_50247",1,0,-5.83960956130484,0,0,0,0,0,0,0,0,0,1,0,0,0,-1.37095549503526,1.70722931628406
"Trinity_50248",1,0,-4.25960956130484,0,0,0,0,0,0,0,0,0,1,0,0,0,1.64618311171131,0.409062202032331
"Trinity_50249",1,0,-4.00960956130484,0,0,0,0,0,0,0,0,0,1,0,0,0,1.10241054827239,1.47867068971655
"Trinity_50250",1,0,-3.92960956130484,0,0,0,0,0,0,0,0,0,1,0,0,0,0.552104985957008,0.777103292260582
"Trinity_50251",1,0,-0.589609561304837,0,0,0,0,0,0,0,0,0,1,0,0,0,1.91866512509052,1.73480115458755
"Trinity_50252",1,0,-2.58960956130484,0,0,0,0,0,0,0,0,0,1,0,0,0,0.626883859578294,1.12389082330992
"Trinity_50253",1,0,0.170390438695165,0,0,0,0,0,0,0,0,0,1,0,0,0,1.64887011519994,1.17599439555923
"Trinity_50254",1,0,1.57039043869516,0,0,0,0,0,0,0,0,0,1,0,0,0,1.96105390128218,0.560713594520397
"Trinity_50255",1,0,-3.42960956130484,0,0,0,0,0,0,0,0,0,1,0,0,0,2.31544408844727,0.606120541224662
"Trinity_50257",0,1,-2.92960956130484,0,0,0,0,0,0,0,0,0,1,0,0,0,1.83825129433215,0.620804277187633
"Trinity_50259",0,1,1.99039043869516,0,0,0,0,0,0,0,0,0,1,0,0,0,2.3604544939811,0.376115077353616
"Trinity_50260",0,1,2.49039043869516,0,0,0,0,0,0,0,0,0,1,0,0,0,2.64385883441679,-0.200397851607986
"Trinity_50261",0,1,2.24039043869516,0,0,0,0,0,0,0,0,0,1,0,0,0,2.11700759490803,-0.0281599993645624
"Trinity_50262",0,1,3.49039043869516,0,0,0,0,0,0,0,0,0,1,0,0,0,0.782508898246532,1.12468513050026
"Trinity_50263",0,1,1.24039043869516,0,0,0,0,0,0,0,0,0,1,0,0,0,2.0320757641004,0.489693021102886
"Trinity_50264",0,1,7.82039043869516,0,0,0,0,0,0,0,0,0,1,0,0,0,2.39090642898142,0.346699429483183
"Trinity_50265",0,1,-5.58960956130484,0,0,0,0,0,0,0,0,0,1,0,0,0,-0.204459383987842,2.51711271297615
"Trinity_50266",0,1,-1.92960956130484,0,0,0,0,0,0,0,0,0,1,0,0,0,2.00623092590705,1.0125980784389
"Trinity_50267",0,1,-0.339609561304837,0,0,0,0,0,0,0,0,0,1,0,0,0,2.09941411801257,0.594309317568926
"Trinity_50268",0,1,-3.42960956130484,0,0,0,0,0,0,0,0,0,1,0,0,0,1.75009199053414,0.959947979592631
"Trinity_50269",0,1,-3.17960956130484,0,0,0,0,0,0,0,0,0,1,0,0,0,2.73141656250064,1.48069283619099
"Trinity_50270",0,1,1.49039043869516,0,0,0,0,0,0,0,0,0,1,0,0,0,1.50445299534252,0.824886153935029
"Trinity_50271",0,1,1.82039043869516,0,0,0,0,0,0,0,0,0,1,0,0,0,3.02820306948569,0.982984764472055
"UM_50272",1,0,-3.63960956130484,0,0,0,0,0,0,0,0,0,0,0,0,0,-1.50342119201744,0.318560098603319
"UM_50273",1,0,-1.03960956130484,0,0,0,0,0,0,0,0,0,0,0,0,0,-0.485104858739936,-0.457252133271873
"UM_50275",1,0,-6.33960956130484,0,0,0,0,0,0,0,0,0,0,0,0,0,-1.69703511009215,0.97986221050816
"UM_50276",1,0,-1.03960956130484,0,0,0,0,0,0,0,0,0,0,0,0,0,0.957071663656714,-1.67378921023191
"UM_50277",1,0,-2.43960956130484,0,0,0,0,0,0,0,0,0,0,0,0,0,-1.52969192239893,1.57913357340791
"UM_50280",1,0,-2.23960956130484,0,0,0,0,0,0,0,0,0,0,0,0,0,-0.664777396156154,-0.229767777002317
"UM_50282",1,0,-2.63960956130484,0,0,0,0,0,0,0,0,0,0,0,0,0,-0.600808307723922,0.0326613906839012
"UM_50284",1,0,-6.63960956130484,0,0,0,0,0,0,0,0,0,0,0,0,0,-1.31743348529128,1.1089666873295
"UM_50285",1,0,-5.03960956130484,0,0,0,0,0,0,0,0,0,0,0,0,0,-0.864757801789591,0.23035544464808
"UM_50287",1,0,-3.43960956130484,0,0,0,0,0,0,0,0,0,0,0,0,0,-0.570214088272262,-0.292642294509345
"UM_50289",1,0,-4.93960956130484,0,0,0,0,0,0,0,0,0,0,0,0,0,-2.15874636526325,1.09698548850215
"UM_50290",1,0,-3.83960956130484,0,0,0,0,0,0,0,0,0,0,0,0,0,-0.401368412580453,0.466131318753325
"UM_50291",1,0,-3.93960956130484,0,0,0,0,0,0,0,0,0,0,0,0,0,-0.924187218946524,0.679413881150173
"UM_50293",1,0,-5.43960956130484,0,0,0,0,0,0,0,0,0,0,0,0,0,0.844784640864851,-0.589483926006334
"UM_50294",1,0,-5.23960956130484,0,0,0,0,0,0,0,0,0,0,0,0,0,0.616924465983603,0.512302929067451
"UM_50295",1,0,-6.33960956130484,0,0,0,0,0,0,0,0,0,0,0,0,0,-0.528156303225803,0.409217594946785
"UM_50297",1,0,-1.93960956130484,0,0,0,0,0,0,0,0,0,0,0,0,0,-3.25444174571651,1.66558168989146
"UM_50298",1,0,-5.03960956130484,0,0,0,0,0,0,0,0,0,0,0,0,0,0.398512179042306,0.428302416485915
"UM_50300",1,0,-8.13960956130484,0,0,0,0,0,0,0,0,0,0,0,0,0,-0.886839261662059,1.49576757235144
"UM_50301",1,0,-1.73960956130484,0,0,0,0,0,0,0,0,0,0,0,0,0,-0.572087718103027,-0.717508308914673
"UM_50302",1,0,-7.43960956130484,0,0,0,0,0,0,0,0,0,0,0,0,0,-1.52305468979056,1.06288686719471
"UM_50307",1,0,-8.13960956130484,0,0,0,0,0,0,0,0,0,0,0,0,0,1.03714669649447,-1.49367712809925
"UM_50310",1,0,-8.13960956130484,0,0,0,0,0,0,0,0,0,0,0,0,0,0.639572217335203,0.00622016533763817
"UM_50314",1,0,-1.73960956130484,0,0,0,0,0,0,0,0,0,0,0,0,0,0.527079262798589,-0.210815554630114
"UM_50315",1,0,-4.43960956130484,0,0,0,0,0,0,0,0,0,0,0,0,0,-0.637725775765337,0.490584032684332
"UM_50318",1,0,-8.63960956130484,0,0,0,0,0,0,0,0,0,0,0,0,0,-0.274626308634162,0.798801408359781
"UM_50319",1,0,-2.83960956130484,0,0,0,0,0,0,0,0,0,0,0,0,0,-0.0370868905355481,-0.015298345785752
"UM_50320",1,0,0.760390438695165,0,0,0,0,0,0,0,0,0,0,0,0,0,-0.570973588243811,0.737531780725468
"UM_50321",1,0,0.160390438695163,0,0,0,0,0,0,0,0,0,0,0,0,0,0.411465586405356,-0.750104738150695
"UM_50324",1,0,-4.03960956130484,0,0,0,0,0,0,0,0,0,0,0,0,0,-0.0576622154123836,-0.537173482217289
"UM_50325",1,0,-4.73960956130484,0,0,0,0,0,0,0,0,0,0,0,0,0,-1.42342114450211,1.75404953452232
"UM_50326",1,0,-5.83960956130484,0,0,0,0,0,0,0,0,0,0,0,0,0,-1.21440338707013,1.79035375382721
"UM_50327",0,1,-2.53960956130484,0,0,0,0,0,0,0,0,0,0,0,0,0,0.202029332503642,-1.08638383249249
"UM_50328",0,1,-0.439609561304838,0,0,0,0,0,0,0,0,0,0,0,0,0,-0.723799325298763,0.221086466900703
"UM_50329",0,1,-0.739609561304835,0,0,0,0,0,0,0,0,0,0,0,0,0,0.460321640288202,-0.883636153858454
"UM_50330",0,1,-1.73960956130484,0,0,0,0,0,0,0,0,0,0,0,0,0,-0.360304048093385,-0.0703368948974445
"UM_50331",0,1,-0.639609561304837,0,0,0,0,0,0,0,0,0,0,0,0,0,0.0124100003153327,-0.392879354125087
"UM_50332",0,1,-7.43960956130484,0,0,0,0,0,0,0,0,0,0,0,0,0,-1.12831132283527,0.834360472053923
"UM_50333",0,1,-7.63960956130484,0,0,0,0,0,0,0,0,0,0,0,0,0,-2.27999145962077,1.98367891849218
"UM_50334",0,1,-6.83960956130484,0,0,0,0,0,0,0,0,0,0,0,0,0,-0.100619489311901,0.486279663774437
"UM_50335",0,1,-0.0396095613048359,0,0,0,0,0,0,0,0,0,0,0,0,0,-0.289493261975968,-0.180907123912112
"UM_50336",0,1,-3.53960956130484,0,0,0,0,0,0,0,0,0,0,0,0,0,0.504387564784043,-1.38873539865316
"UM_50337",0,1,-6.03960956130484,0,0,0,0,0,0,0,0,0,0,0,0,0,0.495307111370004,0.713927454907562
"UM_50338",0,1,-4.33960956130484,0,0,0,0,0,0,0,0,0,0,0,0,0,0.378842618785678,-0.239082727426665
"UM_50339",0,1,0.160390438695163,0,0,0,0,0,0,0,0,0,0,0,0,0,-0.850947280739558,-0.741257158678852
"UM_50340",0,1,-1.73960956130484,0,0,0,0,0,0,0,0,0,0,0,0,0,0.713655007384439,-1.14056781865005
"UM_50341",0,1,0.360390438695163,0,0,0,0,0,0,0,0,0,0,0,0,0,0.2142297078875,-0.952648682148133
"UM_50342",0,1,-5.23960956130484,0,0,0,0,0,0,0,0,0,0,0,0,0,-1.85572148680343,1.08668951904398
"UM_50343",0,1,-4.03960956130484,0,0,0,0,0,0,0,0,0,0,0,0,0,-1.21784992506883,1.47022552049654
"UM_50344",0,1,0.360390438695163,0,0,0,0,0,0,0,0,0,0,0,0,0,0.423460591384979,-0.239050460865928
"UM_50346",0,1,1.06039043869516,0,0,0,0,0,0,0,0,0,0,0,0,0,-0.204595064488394,-0.577949731666346
"UM_50347",0,1,-2.23960956130484,0,0,0,0,0,0,0,0,0,0,0,0,0,-0.104996075782078,-0.406801901229459
"UM_50348",0,1,1.36039043869516,0,0,0,0,0,0,0,0,0,0,0,0,0,-0.441805177175041,0.364694057767609
"UM_50349",0,1,1.06039043869516,0,0,0,0,0,0,0,0,0,0,0,0,0,0.0917962349700947,-0.0969020453726804
"UM_50350",0,1,-5.43960956130484,0,0,0,0,0,0,0,0,0,0,0,0,0,-0.387046362270458,-0.0178474228747356
"UM_50351",0,1,-1.03960956130484,0,0,0,0,0,0,0,0,0,0,0,0,0,-0.265519163199921,-0.735547524422442
"UM_50352",0,1,-2.33960956130484,0,0,0,0,0,0,0,0,0,0,0,0,0,-2.26297516012055,0.982854506617525
"UM_50353",0,1,-4.73960956130484,0,0,0,0,0,0,0,0,0,0,0,0,0,0.186848666196265,-0.270179959684847
"UM_50355",0,1,-6.93960956130484,0,0,0,0,0,0,0,0,0,0,0,0,0,-0.253097193408812,0.79945510004612
"UM_50356",0,1,-0.639609561304837,0,0,0,0,0,0,0,0,0,0,0,0,0,0.40892677125785,-0.592739559566794
"UM_50357",0,1,-8.33960956130484,0,0,0,0,0,0,0,0,0,0,0,0,0,0.484409825825362,-0.0593143394390158
"UM_50358",0,1,-8.03960956130484,0,0,0,0,0,0,0,0,0,0,0,0,0,1.17741784154978,-1.12588409889814
"UM_50360",0,1,-3.93960956130484,0,0,0,0,0,0,0,0,0,0,0,0,0,0.999472292691614,0.419067381967058
"UM_50361",0,1,0.460390438695164,0,0,0,0,0,0,0,0,0,0,0,0,0,0.405727202086875,-0.536060723266324
"UM_50362",0,1,-6.63960956130484,0,0,0,0,0,0,0,0,0,0,0,0,0,1.05354955571933,-0.729710630346148
"UM_50363",0,1,-8.03960956130484,0,0,0,0,0,0,0,0,0,0,0,0,0,-1.75018363369282,1.42099313134259
"UM_50364",0,1,-7.03960956130484,0,0,0,0,0,0,0,0,0,0,0,0,0,-1.14260966023547,1.82997973686525
"UM_50365",0,1,-2.23960956130484,0,0,0,0,0,0,0,0,0,0,0,0,0,0.793325454628669,0.179297091164706
"UM_50366",0,1,-9.63960956130484,0,0,0,0,0,0,0,0,0,0,0,0,0,-0.435019834762394,1.39336379509843
"UM_50367",0,1,-7.03960956130484,0,0,0,0,0,0,0,0,0,0,0,0,0,-0.753030812209533,0.552625468534576
"UM_50368",0,1,0.0603904386951619,0,0,0,0,0,0,0,0,0,0,0,0,0,-1.19959923275996,0.217791461951075
"UM_50369",0,1,-3.03960956130484,0,0,0,0,0,0,0,0,0,0,0,0,0,-0.903750190998699,0.0195781734659539
"UM_50370",0,1,-5.03960956130484,0,0,0,0,0,0,0,0,0,0,0,0,0,-0.912660433169233,1.33982254907031
"UM_50371",0,1,-5.63960956130484,0,0,0,0,0,0,0,0,0,0,0,0,0,-3.43095959977596,2.4728979701359
"UM_50372",0,1,-7.63960956130484,0,0,0,0,0,0,0,0,0,0,0,0,0,-0.487268323986899,-0.409468293547719
"UM_50373",0,1,-0.639609561304837,0,0,0,0,0,0,0,0,0,0,0,0,0,-0.697555487869498,1.28607398744636
"UM_50374",0,1,-8.13960956130484,0,0,0,0,0,0,0,0,0,0,0,0,0,0.411425263872516,-0.653165735893489
"UM_50375",0,1,-6.23960956130484,0,0,0,0,0,0,0,0,0,0,0,0,0,0.595550056689347,-1.15773113398649
"UM_50377",0,1,-6.33960956130484,0,0,0,0,0,0,0,0,0,0,0,0,0,0.208590390993977,-0.178185373378416
"UM_50379",0,1,-3.53960956130484,0,0,0,0,0,0,0,0,0,0,0,0,0,-1.94838794892752,0.620718881152365
"UM_50382",0,1,10.9603904386952,0,0,0,0,0,0,0,0,0,0,0,0,0,-0.544726768476516,-0.256771115170511
"UM_50385",0,1,-0.0396095613048359,0,0,0,0,0,0,0,0,0,0,0,0,0,0.59894372985763,-0.448617122475195
"UM_50386",0,1,-0.0396095613048359,0,0,0,0,0,0,0,0,0,0,0,0,0,-0.114119604885921,-0.901302064982516
"UM_50387",0,1,-3.83960956130484,0,0,0,0,0,0,0,0,0,0,0,0,0,-1.32437435756021,0.248849316161097
"UM_50388",0,1,8.96039043869516,0,0,0,0,0,0,0,0,0,0,0,0,0,-0.648189236097068,0.263526376194374
"UM_50390",0,1,-3.33960956130484,0,0,0,0,0,0,0,0,0,0,0,0,0,0.347922882015971,-0.290212251679113
"UM_50391",0,1,-0.639609561304837,0,0,0,0,0,0,0,0,0,0,0,0,0,-1.71324751025125,0.185665882385575
"UM_50397",1,0,-3.13960956130484,0,0,0,0,0,0,0,0,0,0,0,0,0,-0.107220645474557,-1.57896094087212
"UM_50399",1,0,-0.439609561304838,0,0,0,0,0,0,0,0,0,0,0,0,0,-1.63145551530087,0.206265884783216
"UM_50402",1,0,-4.73960956130484,0,0,0,0,0,0,0,0,0,0,0,0,0,0.0690888961146961,-1.81253483206297
"UM_50403",1,0,-5.03960956130484,0,0,0,0,0,0,0,0,0,0,0,0,0,-2.73812713789132,1.59290955125925
"UM_50404",1,0,-2.03960956130484,0,0,0,0,0,0,0,0,0,0,0,0,0,0.930961681453564,-1.00974802538643
"UM_50405",1,0,-1.23960956130484,0,0,0,0,0,0,0,0,0,0,0,0,0,-0.213307114873295,-1.25046059954701
"UM_50406",1,0,-2.63960956130484,0,0,0,0,0,0,0,0,0,0,0,0,0,-2.47673891437132,1.26022975292208
"UM_50407",1,0,-1.23960956130484,0,0,0,0,0,0,0,0,0,0,0,0,0,0.470202262259728,-0.704380658940675
"UM_50408",1,0,-3.03960956130484,0,0,0,0,0,0,0,0,0,0,0,0,0,0.0749161029103346,-0.962468825900203
"UM_50410",1,0,-1.73960956130484,0,0,0,0,0,0,0,0,0,0,0,0,0,-1.97487760230357,0.965584355027745
"UM_50411",1,0,-3.83960956130484,0,0,0,0,0,0,0,0,0,0,0,0,0,-1.17822289311154,1.11142363506854
"UM_50412",1,0,-4.63960956130484,0,0,0,0,0,0,0,0,0,0,0,0,0,0.679450779238154,-0.427617380543245
"UM_50413",1,0,-4.73960956130484,0,0,0,0,0,0,0,0,0,0,0,0,0,-0.542018676635074,0.0144480795509542
"UM_50414",0,1,-4.03960956130484,0,0,0,0,0,0,0,0,0,0,0,0,0,0.207719274865639,-0.751576129258788
"UM_50415",0,1,-0.239609561304835,0,0,0,0,0,0,0,0,0,0,0,0,0,-0.0124488211636738,-0.809497029380982
"UM_50416",0,1,-3.03960956130484,0,0,0,0,0,0,0,0,0,0,0,0,0,-0.817494302594943,0.0163793033701422
"UM_50417",0,1,-4.53960956130484,0,0,0,0,0,0,0,0,0,0,0,0,0,1.22088834071053,-1.62915412024752
"UM_50418",0,1,-2.93960956130484,0,0,0,0,0,0,0,0,0,0,0,0,0,-0.291336130417676,0.48926365710552
"UM_50419",0,1,-2.03960956130484,0,0,0,0,0,0,0,0,0,0,0,0,0,0.19544062697445,-1.49325062538247
"UM_50421",0,1,-2.43960956130484,0,0,0,0,0,0,0,0,0,0,0,0,0,-0.880266553675266,-0.567809450537419
"UM_50424",0,1,0.0603904386951619,0,0,0,0,0,0,0,0,0,0,0,0,0,0.732010574126254,-0.89113851899019
"UM_50425",0,1,-1.23960956130484,0,0,0,0,0,0,0,0,0,0,0,0,0,0.712412872303557,-1.07077548934809
"UM_50426",0,1,-4.23960956130484,0,0,0,0,0,0,0,0,0,0,0,0,0,0.734260206219129,-0.514117338381543
"UM_50427",0,1,-2.03960956130484,0,0,0,0,0,0,0,0,0,0,0,0,0,0.47263649989167,-1.77304472346932
"UM_50428",0,1,-2.33960956130484,0,0,0,0,0,0,0,0,0,0,0,0,0,0.853950848543709,-1.36606195711307
"USM_50432",0,1,0.440990438695163,0,0,0,0,0,0,0,0,0,0,0,1,0,-0.0213535215550502,0.114768516941915
"USM_50433",0,1,0.898290438695163,0,0,0,0,0,0,0,0,0,0,0,1,0,0.355145502456891,-0.851553999142032
"USM_50434",0,1,0.421890438695165,0,0,0,0,0,0,0,0,0,0,0,1,0,-0.601116161988599,-0.202673646076455
"USM_50435",0,1,-1.73560956130484,0,0,0,0,0,0,0,0,0,0,0,1,0,-1.66130622860355,0.0154750886945111
"USM_50436",0,1,-4.02990956130484,0,0,0,0,0,0,0,0,0,0,0,1,0,-0.533291241646015,-0.0355820712969894
"USM_50437",0,1,-2.89640956130484,0,0,0,0,0,0,0,0,0,0,0,1,0,-1.02390481016239,1.11423364261594
"USM_50438",0,1,-2.81430956130484,0,0,0,0,0,0,0,0,0,0,0,1,0,-0.879765764113799,0.598579634204491
"USM_50439",0,1,4.76139043869516,0,0,0,0,0,0,0,0,0,0,0,1,0,-1.06518462349995,-0.513458309593567
"USM_50440",0,1,6.10839043869516,0,0,0,0,0,0,0,0,0,0,0,1,0,-1.20908222900572,-0.0337384675386023
"USM_50441",0,1,9.75789043869516,0,0,0,0,0,0,0,0,0,0,0,1,0,-0.689692296022016,0.0580062236308617
"USM_50442",0,1,9.01319043869516,0,0,0,0,0,0,0,0,0,0,0,1,0,0.344491499849541,-0.490133404879872
"USM_50443",0,1,-0.769109561304838,0,0,0,0,0,0,0,0,0,0,0,1,0,-0.2734730106804,-0.447118159073692
"USM_50444",0,1,7.14879043869516,0,0,0,0,0,0,0,0,0,0,0,1,0,-1.19763968521573,0.716359042798654
"USM_50445",0,1,0.298690438695164,0,0,0,0,0,0,0,0,0,0,0,1,0,-0.282377755383997,0.618041044351
"USM_50446",0,1,9.48419043869516,0,0,0,0,0,0,0,0,0,0,0,1,0,-0.153133944767466,-0.186006423371767
"USM_50447",0,1,-4.90050956130484,0,0,0,0,0,0,0,0,0,0,0,1,0,-0.793299740747558,0.405295697617874
"USM_50448",0,1,-7.37280956130484,0,0,0,0,0,0,0,0,0,0,0,1,0,-2.50604835530567,0.805234775450982
"USM_50449",0,1,0.378090438695164,0,0,0,0,0,0,0,0,0,0,0,1,0,0.192781703043585,-0.338202129212662
"USM_50450",0,1,3.25829043869516,0,0,0,0,0,0,0,0,0,0,0,1,0,-1.1364076887466,0.747650466603224
"USM_50451",0,1,-5.31390956130484,0,0,0,0,0,0,0,0,0,0,0,1,0,-1.65740151163091,1.74990378500949
"USM_50452",0,1,12.1288904386952,0,0,0,0,0,0,0,0,0,0,0,1,0,0.315878664919423,-1.05273410986262
"USM_50454",0,1,0.961190438695162,0,0,0,0,0,0,0,0,0,0,0,1,0,-0.560608642467958,-1.41153729195012
"USM_50455",0,1,13.4430904386952,0,0,0,0,0,0,0,0,0,0,0,1,0,-0.608562524836339,0.597821523239392
"USM_50456",0,1,-1.74100956130484,0,0,0,0,0,0,0,0,0,0,0,1,0,-1.75421383392095,0.511193254493436
"USM_50457",0,1,16.2137904386952,0,0,0,0,0,0,0,0,0,0,0,1,0,-1.37482696784911,-0.205866337820267
"USM_50458",0,1,8.30689043869516,0,0,0,0,0,0,0,0,0,0,0,1,0,-2.3980323683757,0.748250606228249
"USM_50459",0,1,0.315090438695162,0,0,0,0,0,0,0,0,0,0,0,1,0,0.0453897226484268,-0.761356743767911
"USM_50460",0,1,-3.42760956130484,0,0,0,0,0,0,0,0,0,0,0,1,0,-0.273439671439611,-0.84828497000699
"USM_50461",0,1,-1.44530956130484,0,0,0,0,0,0,0,0,0,0,0,1,0,-0.133541072052764,0.438027374299075
"USM_50462",0,1,6.81469043869516,0,0,0,0,0,0,0,0,0,0,0,1,0,0.147614951960101,-0.331723738012161
"USM_50463",0,1,10.5272904386952,0,0,0,0,0,0,0,0,0,0,0,1,0,-2.11991952938416,0.55155940754584
"USM_50464",0,1,-7.88480956130484,0,0,0,0,0,0,0,0,0,0,0,1,0,-0.586230555755848,-0.152361510557611
"USM_50465",0,1,16.1671904386952,0,0,0,0,0,0,0,0,0,0,0,1,0,-0.187296930186154,-0.0227117561368953
"USM_50466",0,1,21.4129904386952,0,0,0,0,0,0,0,0,0,0,0,1,0,-1.91165216884523,-0.251646534776597
"USM_50467",0,1,1.91949043869516,0,0,0,0,0,0,0,0,0,0,0,1,0,-0.568469383923893,0.228552558834647
"USM_50468",0,1,21.5552904386952,0,0,0,0,0,0,0,0,0,0,0,1,0,0.605403765527993,-1.98699488177207
"USM_50469",0,1,10.7216904386952,0,0,0,0,0,0,0,0,0,0,0,1,0,0.26076963514462,-0.532207509479068
"USM_50470",0,1,-7.92310956130484,0,0,0,0,0,0,0,0,0,0,0,1,0,-2.14599477741087,1.45321396756918
"USM_50471",0,1,7.17609043869516,0,0,0,0,0,0,0,0,0,0,0,1,0,0.3132603852291,-0.803709069694592
"USM_50472",0,1,4.26849043869516,0,0,0,0,0,0,0,0,0,0,0,1,0,-0.0479310955802757,-1.21630710840979
"USM_50473",0,1,4.59709043869516,0,0,0,0,0,0,0,0,0,0,0,1,0,0.143181804404191,-0.282967048831612
"USM_50474",0,1,4.20829043869516,0,0,0,0,0,0,0,0,0,0,0,1,0,-0.966165250007995,0.322399256118729
"USM_50475",1,0,3.80859043869516,0,0,0,0,0,0,0,0,0,0,0,1,0,-1.01834900747059,-0.222635752299347
"USM_50476",1,0,2.33009043869516,0,0,0,0,0,0,0,0,0,0,0,1,0,-1.30051986937246,-0.239339973369203
"USM_50477",1,0,2.34109043869516,0,0,0,0,0,0,0,0,0,0,0,1,0,-1.32586029299563,0.171916086094831
"USM_50478",1,0,2.33839043869516,0,0,0,0,0,0,0,0,0,0,0,1,0,-2.02172062982266,1.62625322465964
"USM_50479",1,0,5.04059043869516,0,0,0,0,0,0,0,0,0,0,0,1,0,-2.29482198985725,1.523047573922
"USM_50480",1,0,11.2500904386952,0,0,0,0,0,0,0,0,0,0,0,1,0,-1.19118331387468,0.713635450452495
"USM_50482",1,0,9.57179043869516,0,0,0,0,0,0,0,0,0,0,0,1,0,0.154069556770614,-0.409708779449235
"USM_50483",1,0,3.59499043869516,0,0,0,0,0,0,0,0,0,0,0,1,0,-3.47934185331757,0.878140644894302
"USM_50484",1,0,1.86469043869516,0,0,0,0,0,0,0,0,0,0,0,1,0,-0.540578221650024,-1.03907112950512
"USM_50485",1,0,5.75519043869516,0,0,0,0,0,0,0,0,0,0,0,1,0,0.165756820878609,-0.739373377523264
"USM_50486",1,0,-0.0518095613048359,0,0,0,0,0,0,0,0,0,0,0,1,0,-2.21465867634565,0.658787727972864
"USM_50487",1,0,7.95759043869516,0,0,0,0,0,0,0,0,0,0,0,1,0,-0.97181482172532,1.13458000304987
"USM_50488",1,0,7.61149043869516,0,0,0,0,0,0,0,0,0,0,0,1,0,-1.32672027877676,0.724259263082779
"USM_50490",1,0,1.78809043869516,0,0,0,0,0,0,0,0,0,0,0,1,0,-2.85416482306762,0.901126371374323
"USM_50491",1,0,9.10909043869516,0,0,0,0,0,0,0,0,0,0,0,1,0,0.52974035504138,-1.10386643103473
"USM_50492",1,0,14.7106904386952,0,0,0,0,0,0,0,0,0,0,0,1,0,-0.467173212793324,0.777469908677986
"USM_50493",1,0,17.8701904386952,0,0,0,0,0,0,0,0,0,0,0,1,0,-0.820085750393158,0.602510412684437
"USM_50494",1,0,19.9372904386952,0,0,0,0,0,0,0,0,0,0,0,1,0,-1.52930458038037,-0.0142364136536188
"USM_50495",1,0,4.72029043869516,0,0,0,0,0,0,0,0,0,0,0,1,0,-0.396634105089087,-0.0498096024114691
"USM_50496",1,0,6.48349043869516,0,0,0,0,0,0,0,0,0,0,0,1,0,-1.94554825358444,1.09995347855588
"USM_50497",1,0,16.6216904386952,0,0,0,0,0,0,0,0,0,0,0,1,0,-0.0701771058275769,-0.0905991385472738
"USM_50498",1,0,3.29109043869516,0,0,0,0,0,0,0,0,0,0,0,1,0,-0.917759821163045,0.0154484054321603
"USM_50499",1,0,7.59499043869516,0,0,0,0,0,0,0,0,0,0,0,1,0,0.0880783280410107,-0.678713208904292
"USM_50500",1,0,-0.602109561304836,0,0,0,0,0,0,0,0,0,0,0,1,0,-0.329114053682062,-1.84550420231924
"USM_50502",1,0,15.1185904386952,0,0,0,0,0,0,0,0,0,0,0,1,0,-1.21472503991899,0.324463167223704
"USM_50503",1,0,10.8311904386952,0,0,0,0,0,0,0,0,0,0,0,1,0,-0.589027170638707,-0.224074131697496
"USM_50504",1,0,-0.194209561304838,0,0,0,0,0,0,0,0,0,0,0,1,0,-1.5847738828161,0.82792334875884
"USM_50505",1,0,15.3431904386952,0,0,0,0,0,0,0,0,0,0,0,1,0,0.622505498372686,-2.62363394941639
"USM_50506",1,0,-1.90530956130484,0,0,0,0,0,0,0,0,0,0,0,1,0,-1.45882020588902,-0.0679939950521026
"USM_50507",1,0,10.2698904386952,0,0,0,0,0,0,0,0,0,0,0,1,0,-1.95540626807479,0.814843664326709
"USM_50508",1,0,8.53959043869516,0,0,0,0,0,0,0,0,0,0,0,1,0,-2.61585989237206,1.73218812126805
"USM_50511",1,0,-1.45630956130484,0,0,0,0,0,0,0,0,0,0,0,1,0,-2.88197690035242,1.49309533410532
"USM_50512",1,0,-2.34880956130484,0,0,0,0,0,0,0,0,0,0,0,1,0,-1.35376049022937,0.202014743987339
"USM_50513",1,0,0.627190438695163,0,0,0,0,0,0,0,0,0,0,0,1,0,0.0899114059217408,-0.189686216520614
"USM_50514",1,0,3.56219043869516,0,0,0,0,0,0,0,0,0,0,0,1,0,-0.901659271866818,-0.863601652913419
"USM_50515",1,0,-1.98740956130484,0,0,0,0,0,0,0,0,0,0,0,1,0,-0.38053719982988,-0.0155896438089972
"USM_50516",1,0,-0.725309561304837,0,0,0,0,0,0,0,0,0,0,0,1,0,0.327289048753276,-1.21037339819981
"USM_50517",1,0,-1.33860956130484,0,0,0,0,0,0,0,0,0,0,0,1,0,0.313722099926935,-1.24840480611413
"USM_50518",1,0,0.818890438695163,0,0,0,0,0,0,0,0,0,0,0,1,0,-0.796592323186904,-0.421324687078942
"USM_50519",1,0,-1.46180956130484,0,0,0,0,0,0,0,0,0,0,0,1,0,-1.14866220892337,-0.0129479997113584
"USM_50520",1,0,-0.166809561304838,0,0,0,0,0,0,0,0,0,0,0,1,0,-1.09786109772912,0.427164471652354
"USM_50521",1,0,0.577890438695164,0,0,0,0,0,0,0,0,0,0,0,1,0,-0.981362122858282,0.857466792946923
"USM_50523",1,0,-0.514509561304838,0,0,0,0,0,0,0,0,0,0,0,1,0,-1.68567167678264,1.32179107896528
"USM_50524",1,0,-5.50560956130484,0,0,0,0,0,0,0,0,0,0,0,1,0,-1.81364698251704,0.753710323264343
"USM_50525",1,0,15.0090904386952,0,0,0,0,0,0,0,0,0,0,0,1,0,-0.18638892242564,-1.31317087919198
"USM_50526",1,0,32.3834904386952,0,0,0,0,0,0,0,0,0,0,0,1,0,-1.37749464103224,-0.539731997409661
"USM_50527",1,0,0.575190438695163,0,0,0,0,0,0,0,0,0,0,0,1,0,0.25322372969112,-1.25783297098716
"USM_50528",1,0,-6.48570956130484,0,0,0,0,0,0,0,0,0,0,0,1,0,-0.543977582892864,-0.655058205591367
"USM_50529",1,0,24.4957904386952,0,0,0,0,0,0,0,0,0,0,0,1,0,-1.30920434218111,0.860353202969312
"USM_50530",1,0,0.405390438695164,0,0,0,0,0,0,0,0,0,0,0,1,0,-1.32596629557269,1.41289445854275
"USM_50532",1,0,-0.919709561304838,0,0,0,0,0,0,0,0,0,0,0,1,0,-1.42241549752649,0.4120427868447
"Yale_50551",0,1,-1.91960956130484,0,0,0,0,0,0,0,0,0,0,0,0,1,0.852229756824369,-3.09252298856589
"Yale_50552",0,1,-5.08960956130484,0,0,0,0,0,0,0,0,0,0,0,0,1,-0.217840659703321,-2.30456919896423
"Yale_50553",0,1,-8.08960956130484,0,0,0,0,0,0,0,0,0,0,0,0,1,-1.72974296699955,-1.36275729395438
"Yale_50554",0,1,-9.16960956130484,0,0,0,0,0,0,0,0,0,0,0,0,1,-0.845231054257666,-2.26163273828082
"Yale_50555",0,1,-3.41960956130484,0,0,0,0,0,0,0,0,0,0,0,0,1,1.35658368626358,-1.26362320055355
"Yale_50556",0,1,-7.16960956130484,0,0,0,0,0,0,0,0,0,0,0,0,1,-0.172165326357875,-2.28429052369951
"Yale_50557",0,1,-3.58960956130484,0,0,0,0,0,0,0,0,0,0,0,0,1,-1.62091289983576,-1.07800061843708
"Yale_50558",0,1,-4.08960956130484,0,0,0,0,0,0,0,0,0,0,0,0,1,0.700330826470157,-0.637741478632241
"Yale_50559",0,1,-5.58960956130484,0,0,0,0,0,0,0,0,0,0,0,0,1,-0.514649624047185,0.870464216924477
"Yale_50560",0,1,-8.58960956130484,0,0,0,0,0,0,0,0,0,0,0,0,1,1.16839766481091,0.301941116142576
"Yale_50561",0,1,-4.50960956130484,0,0,0,0,0,0,0,0,0,0,0,0,1,-1.31810415672419,-1.68868540693639
"Yale_50562",0,1,-7.00960956130484,0,0,0,0,0,0,0,0,0,0,0,0,1,-1.39160480493323,0.622356658423195
"Yale_50563",0,1,-3.91960956130484,0,0,0,0,0,0,0,0,0,0,0,0,1,-1.84524614595429,-0.691793722633888
"Yale_50564",0,1,-10.1796095613048,0,0,0,0,0,0,0,0,0,0,0,0,1,0.948924057303208,0.485186816963385
"Yale_50565",0,1,-6.83960956130484,0,0,0,0,0,0,0,0,0,0,0,0,1,-0.195153890290612,1.84233400336773
"Yale_50566",0,1,-8.17960956130484,0,0,0,0,0,0,0,0,0,0,0,0,1,1.10725255048209,-1.54545659863856
"Yale_50567",0,1,-0.00960956130483837,0,0,0,0,0,0,0,0,0,0,0,0,1,0.844167600605835,-0.524215619945581
"Yale_50568",0,1,-3.91960956130484,0,0,0,0,0,0,0,0,0,0,0,0,1,0.703649426098526,-1.37560596280467
"Yale_50569",0,1,-1.17960956130484,0,0,0,0,0,0,0,0,0,0,0,0,1,0.170503948993684,-1.53516279862321
"Yale_50570",0,1,-1.17960956130484,0,0,0,0,0,0,0,0,0,0,0,0,1,0.621422078181117,-2.0931299804371
"Yale_50571",0,1,-6.83960956130484,0,0,0,0,0,0,0,0,0,0,0,0,1,-1.58752311223824,-0.624462851505853
"Yale_50572",0,1,-2.08960956130484,0,0,0,0,0,0,0,0,0,0,0,0,1,1.25659407825323,-1.20299109773752
"Yale_50573",0,1,-3.66960956130484,0,0,0,0,0,0,0,0,0,0,0,0,1,-0.222415922422554,-0.871259950812535
"Yale_50574",0,1,-6.91960956130484,0,0,0,0,0,0,0,0,0,0,0,0,1,-1.47719089922491,-2.18015904300911
"Yale_50575",0,1,-3.83960956130484,0,0,0,0,0,0,0,0,0,0,0,0,1,0.407387256376866,-0.779628964744406
"Yale_50576",0,1,-9.41960956130484,0,0,0,0,0,0,0,0,0,0,0,0,1,1.68132674379934,-0.809188296250762
"Yale_50577",0,1,-2.58960956130484,0,0,0,0,0,0,0,0,0,0,0,0,1,0.160425499294383,0.0394820385450819
"Yale_50578",0,1,-5.50960956130484,0,0,0,0,0,0,0,0,0,0,0,0,1,-3.11635223204725,-0.311718106513777
"Yale_50601",1,0,-3.50960956130484,0,0,0,0,0,0,0,0,0,0,0,0,1,-0.318133893592483,0.532788759238391
"Yale_50602",1,0,-7.83960956130484,0,0,0,0,0,0,0,0,0,0,0,0,1,-3.11635223204725,-0.311718106513777
"Yale_50603",1,0,-4.58960956130484,0,0,0,0,0,0,0,0,0,0,0,0,1,0.986648105217752,-0.662798153712591
"Yale_50604",1,0,-3.41960956130484,0,0,0,0,0,0,0,0,0,0,0,0,1,-0.347592432111319,-1.71818991585865
"Yale_50605",1,0,-1.83960956130484,0,0,0,0,0,0,0,0,0,0,0,0,1,-1.2380986520644,-2.77328445304094
"Yale_50606",1,0,-1.41960956130483,0,0,0,0,0,0,0,0,0,0,0,0,1,-0.137502827051492,-1.27829465605589
"Yale_50607",1,0,-0.669609561304835,0,0,0,0,0,0,0,0,0,0,0,0,1,2.44469516953396,0.217719242536373
"Yale_50608",1,0,-1.25960956130484,0,0,0,0,0,0,0,0,0,0,0,0,1,-0.901237106850869,0.751412265313978
"Yale_50609",1,0,-8.91960956130484,0,0,0,0,0,0,0,0,0,0,0,0,1,0.418477954124513,0.554317532874965
"Yale_50610",1,0,-4.83960956130484,0,0,0,0,0,0,0,0,0,0,0,0,1,0.393938217059932,0.377485605205138
"Yale_50611",1,0,-5.91960956130484,0,0,0,0,0,0,0,0,0,0,0,0,1,-0.560414605085987,-1.71980193328989
"Yale_50612",1,0,-6.00960956130484,0,0,0,0,0,0,0,0,0,0,0,0,1,0.721306196831483,-0.625582499717
"Yale_50613",1,0,-5.33960956130484,0,0,0,0,0,0,0,0,0,0,0,0,1,0.647789874386253,-1.14069170483472
"Yale_50614",1,0,-0.0896095613048367,0,0,0,0,0,0,0,0,0,0,0,0,1,-0.148503556324204,-0.509400178745994
"Yale_50616",1,0,-6.00960956130484,0,0,0,0,0,0,0,0,0,0,0,0,1,0.922371421272679,0.236543282026698
"Yale_50619",1,0,-1.33960956130484,0,0,0,0,0,0,0,0,0,0,0,0,1,-0.443553177368241,-1.41854312660543
"Yale_50620",1,0,-5.08960956130484,0,0,0,0,0,0,0,0,0,0,0,0,1,0.26906035102511,-0.525107748712952
"Yale_50621",1,0,-1.25960956130484,0,0,0,0,0,0,0,0,0,0,0,0,1,-1.66221954151917,-2.08412482822105
"Yale_50622",1,0,-7.91960956130484,0,0,0,0,0,0,0,0,0,0,0,0,1,-1.46201865934509,0.485625828071511
"Yale_50623",1,0,-4.17960956130484,0,0,0,0,0,0,0,0,0,0,0,0,1,-1.38450704230456,-2.69711831681118
"Yale_50624",1,0,-6.75960956130484,0,0,0,0,0,0,0,0,0,0,0,0,1,0.593769670080737,1.03839880775972
"Yale_50625",1,0,-10.8396095613048,0,0,0,0,0,0,0,0,0,0,0,0,1,1.66473025330064,-1.57910248370826
"Yale_50626",1,0,-6.75960956130484,0,0,0,0,0,0,0,0,0,0,0,0,1,-1.42346523138039,0.439256131211395
"Yale_50627",1,0,-8.33960956130484,0,0,0,0,0,0,0,0,0,0,0,0,1,0.537843025306257,-0.857269224549382
"Yale_50628",1,0,-3.41960956130484,0,0,0,0,0,0,0,0,0,0,0,0,1,0.600090350625837,-1.24459345219209
"CMU_50642",1,0,15.1603904386952,0,1,0,0,0,0,0,0,0,0,0,0,0,0.0496894196790108,2.89143240941032
"CMU_50643",1,0,3.16039043869516,0,1,0,0,0,0,0,0,0,0,0,0,0,-1.48848715625405,2.61797596022244
"CMU_50644",1,0,1.16039043869516,0,1,0,0,0,0,0,0,0,0,0,0,0,-1.20264945074167,1.95770192266401
"CMU_50647",1,0,9.16039043869516,0,1,0,0,0,0,0,0,0,0,0,0,0,1.58444406664969,2.54456308305152
"CMU_50648",1,0,13.1603904386952,0,1,0,0,0,0,0,0,0,0,0,0,0,0.954278931817901,2.33069610177514
"CMU_50649",1,0,4.16039043869516,0,1,0,0,0,0,0,0,0,0,0,0,0,1.22554621294909,1.04522218118407
"CMU_50651",1,0,21.1603904386952,0,1,0,0,0,0,0,0,0,0,0,0,0,-0.248431796443983,2.24183357597858
"CMU_50652",1,0,6.16039043869516,0,1,0,0,0,0,0,0,0,0,0,0,0,-1.81015607677869,2.28842050380748
"CMU_50653",1,0,12.1603904386952,0,1,0,0,0,0,0,0,0,0,0,0,0,0.697880786673117,1.30258234729155
"CMU_50654",1,0,6.16039043869516,0,1,0,0,0,0,0,0,0,0,0,0,0,-0.0381282818857976,2.3768086946646
"CMU_50656",0,1,10.1603904386952,0,1,0,0,0,0,0,0,0,0,0,0,0,-0.198390709260505,2.91033659999035
"CMU_50657",0,1,3.16039043869516,0,1,0,0,0,0,0,0,0,0,0,0,0,-0.0122496655899943,2.20086661265126
"CMU_50658",0,1,9.16039043869516,0,1,0,0,0,0,0,0,0,0,0,0,0,0.2121584542968,2.28835064515586
"CMU_50659",0,1,9.16039043869516,0,1,0,0,0,0,0,0,0,0,0,0,0,0.219511259779291,2.6327582789265
"CMU_50660",0,1,7.16039043869516,0,1,0,0,0,0,0,0,0,0,0,0,0,0.478781203206501,2.33933616765665
"CMU_50661",0,1,2.16039043869516,0,1,0,0,0,0,0,0,0,0,0,0,0,0.139939430087547,2.61571407719255
"CMU_50663",0,1,3.16039043869516,0,1,0,0,0,0,0,0,0,0,0,0,0,0.588247056306351,2.74839437703485
"CMU_50664",0,1,3.16039043869516,0,1,0,0,0,0,0,0,0,0,0,0,0,-0.0809479053672953,1.83300356476067
"CMU_50665",0,1,15.1603904386952,0,1,0,0,0,0,0,0,0,0,0,0,0,-0.0324518933757177,2.63980174154382
"CMU_50666",0,1,13.1603904386952,0,1,0,0,0,0,0,0,0,0,0,0,0,-0.59960154194471,2.74921122121089
"CMU_50667",0,1,22.1603904386952,0,1,0,0,0,0,0,0,0,0,0,0,0,-0.122159529583768,2.17823178079239
"CMU_50668",0,1,7.16039043869516,0,1,0,0,0,0,0,0,0,0,0,0,0,-0.566325182573268,2.78833186372396
"CMU_50669",0,1,12.1603904386952,0,1,0,0,0,0,0,0,0,0,0,0,0,1.44011173038513,1.2230930291538
"Leuven_50682",0,1,5.16039043869516,0,0,0,1,0,0,0,0,0,0,0,0,0,-0.290519532083994,1.39526341548555
"Leuven_50683",0,1,6.16039043869516,0,0,0,1,0,0,0,0,0,0,0,0,0,1.06647254358974,1.4438218808306
"Leuven_50685",0,1,5.16039043869516,0,0,0,1,0,0,0,0,0,0,0,0,0,0.607851706483614,1.07234455642789
"Leuven_50686",1,0,1.16039043869516,0,0,0,1,0,0,0,0,0,0,0,0,0,1.60822773442838,0.316986854517761
"Leuven_50687",0,1,4.16039043869516,0,0,0,1,0,0,0,0,0,0,0,0,0,0.998668138888217,0.569809158848509
"Leuven_50688",0,1,3.16039043869516,0,0,0,1,0,0,0,0,0,0,0,0,0,2.80659009065648,1.03965420040949
"Leuven_50689",1,0,3.16039043869516,0,0,0,1,0,0,0,0,0,0,0,0,0,2.07091348601572,-0.858614886971729
"Leuven_50690",1,0,4.16039043869516,0,0,0,1,0,0,0,0,0,0,0,0,0,1.13917039618347,0.764951140791498
"Leuven_50691",0,1,4.16039043869516,0,0,0,1,0,0,0,0,0,0,0,0,0,1.54170356512106,0.741017002090693
"Leuven_50692",0,1,4.16039043869516,0,0,0,1,0,0,0,0,0,0,0,0,0,2.35005053660215,-0.796025632242639
"Leuven_50693",1,0,4.16039043869516,0,0,0,1,0,0,0,0,0,0,0,0,0,1.79101535119612,0.0468105065539037
"Leuven_50694",1,0,1.16039043869516,0,0,0,1,0,0,0,0,0,0,0,0,0,1.13699677486096,1.0875288269687
"Leuven_50695",1,0,1.16039043869516,0,0,0,1,0,0,0,0,0,0,0,0,0,2.48521591948254,2.09184266327447
"Leuven_50696",1,0,2.16039043869516,0,0,0,1,0,0,0,0,0,0,0,0,0,1.56244086034489,0.156154113557665
"Leuven_50697",1,0,1.16039043869516,0,0,0,1,0,0,0,0,0,0,0,0,0,0.448546417919452,1.08539728477601
"Leuven_50698",0,1,10.1603904386952,0,0,0,1,0,0,0,0,0,0,0,0,0,0.574790452513816,0.376146185978501
"Leuven_50699",0,1,3.16039043869516,0,0,0,1,0,0,0,0,0,0,0,0,0,0.812354252722025,0.249299449848973
"Leuven_50700",1,0,5.16039043869516,0,0,0,1,0,0,0,0,0,0,0,0,0,-3.63480420173537,0.460714244494285
"Leuven_50701",0,1,0.160390438695163,0,0,0,1,0,0,0,0,0,0,0,0,0,-1.1817844594561,1.5792474162776
"Leuven_50702",1,0,0.160390438695163,0,0,0,1,0,0,0,0,0,0,0,0,0,1.48061870920054,0.317177801210003
"Leuven_50703",0,1,11.1603904386952,0,0,0,1,0,0,0,0,0,0,0,0,0,1.45908388697024,0.895452867111084
"Leuven_50704",1,0,11.1603904386952,0,0,0,1,0,0,0,0,0,0,0,0,0,2.18732873179848,-0.613840097755831
"Leuven_50705",1,0,6.16039043869516,0,0,0,1,0,0,0,0,0,0,0,0,0,1.92473882415439,1.08337000640908
"Leuven_50706",0,1,4.16039043869516,0,0,0,1,0,0,0,0,0,0,0,0,0,1.50712640397448,-0.409995900959435
"Leuven_50707",0,1,4.16039043869516,0,0,0,1,0,0,0,0,0,0,0,0,0,0.268972853102916,0.227233851348197
"Leuven_50708",1,0,14.1603904386952,0,0,0,1,0,0,0,0,0,0,0,0,0,3.46589243057012,0.813520483363523
"Leuven_50709",0,1,7.16039043869516,0,0,0,1,0,0,0,0,0,0,0,0,0,1.94245079857808,1.01551835931759
"Leuven_50710",0,1,9.16039043869516,0,0,0,1,0,0,0,0,0,0,0,0,0,3.04538522787163,0.653562091493279
"Leuven_50711",1,0,1.16039043869516,0,0,0,1,0,0,0,0,0,0,0,0,0,3.15640781153748,0.837070001554608
"Leuven_50722",0,1,-4.03960956130484,0,0,0,1,0,0,0,0,0,0,0,0,0,1.56656758762567,0.0231497049304504
"Leuven_50723",0,1,-4.03960956130484,0,0,0,1,0,0,0,0,0,0,0,0,0,0.00118595373144664,0.676328503894707
"Leuven_50724",0,1,-2.73960956130484,0,0,0,1,0,0,0,0,0,0,0,0,0,1.52683199809279,-0.101079490968978
"Leuven_50725",0,1,-3.63960956130484,0,0,0,1,0,0,0,0,0,0,0,0,0,0.68043422479203,2.00450609364269
"Leuven_50726",0,1,-1.23960956130484,0,0,0,1,0,0,0,0,0,0,0,0,0,2.70728614280229,1.49849142563565
"Leuven_50728",0,1,-2.23960956130484,0,0,0,1,0,0,0,0,0,0,0,0,0,2.24900210326097,1.15672706126304
"Leuven_50730",0,1,-5.53960956130484,0,0,0,1,0,0,0,0,0,0,0,0,0,-0.080733092989026,0.434253232549321
"Leuven_50731",0,1,-1.63960956130484,0,0,0,1,0,0,0,0,0,0,0,0,0,2.43215269413358,1.2443883528338
"Leuven_50732",0,1,-5.43960956130484,0,0,0,1,0,0,0,0,0,0,0,0,0,0.938343823903225,0.710197526015379
"Leuven_50733",0,1,-3.13960956130484,0,0,0,1,0,0,0,0,0,0,0,0,0,2.78964933603722,1.37751668547942
"Leuven_50734",0,1,-1.23960956130484,0,0,0,1,0,0,0,0,0,0,0,0,0,2.77848387291623,1.4733467765325
"Leuven_50735",0,1,-3.53960956130484,0,0,0,1,0,0,0,0,0,0,0,0,0,2.22583158835821,0.274628531311278
"Leuven_50737",0,1,-5.63960956130484,0,0,0,1,0,0,0,0,0,0,0,0,0,0.904942538087169,1.78890136964422
"Leuven_50738",0,1,-5.03960956130484,0,0,0,1,0,0,0,0,0,0,0,0,0,0.131751979512022,0.199310908289281
"Leuven_50739",0,1,-2.63960956130484,0,0,0,1,0,0,0,0,0,0,0,0,0,0.690090125187292,0.444689996895501
"Leuven_50740",0,1,-5.43960956130484,0,0,0,1,0,0,0,0,0,0,0,0,0,1.65801645084251,1.40625273897828
"Leuven_50741",0,1,-3.63960956130484,0,0,0,1,0,0,0,0,0,0,0,0,0,2.24950032118761,0.418265864751791
"Leuven_50742",0,1,-0.939609561304838,0,0,0,1,0,0,0,0,0,0,0,0,0,1.0247188257429,1.32533160680268
"Leuven_50743",1,0,-3.63960956130484,0,0,0,1,0,0,0,0,0,0,0,0,0,1.83996990431873,0.718643392114837
"Leuven_50745",1,0,-4.83960956130484,0,0,0,1,0,0,0,0,0,0,0,0,0,2.12870114592771,0.560491952860931
"Leuven_50746",1,0,-4.03960956130484,0,0,0,1,0,0,0,0,0,0,0,0,0,1.84311467089273,1.36492520050522
"Leuven_50747",1,0,-3.63960956130484,0,0,0,1,0,0,0,0,0,0,0,0,0,0.291970976132397,1.67745711674331
"Leuven_50748",1,0,-3.63960956130484,0,0,0,1,0,0,0,0,0,0,0,0,0,2.36293142319446,0.74308316907667
"Leuven_50749",1,0,-2.53960956130484,0,0,0,1,0,0,0,0,0,0,0,0,0,1.29819670335146,0.878292877851599
"Leuven_50750",1,0,-1.03960956130484,0,0,0,1,0,0,0,0,0,0,0,0,0,-1.11014444804096,1.73815194138023
"Leuven_50751",1,0,-5.73960956130484,0,0,0,1,0,0,0,0,0,0,0,0,0,0.311376073871703,2.27589478392855
"Leuven_50752",1,0,-3.13960956130484,0,0,0,1,0,0,0,0,0,0,0,0,0,1.04713183227443,0.908626094177111
"Leuven_50753",1,0,-3.53960956130484,0,0,0,1,0,0,0,0,0,0,0,0,0,0.724162695071766,0.0948298936786812
"Leuven_50754",1,0,-5.53960956130484,0,0,0,1,0,0,0,0,0,0,0,0,0,2.16508538541711,0.0494192689660488
"Leuven_50755",1,0,-5.63960956130484,0,0,0,1,0,0,0,0,0,0,0,0,0,1.90289335120905,-0.0867582761492589
"Leuven_50756",1,0,-2.93960956130484,0,0,0,1,0,0,0,0,0,0,0,0,0,0.139855287460486,0.474009749808264
"Leuven_50757",1,0,-3.53960956130484,0,0,0,1,0,0,0,0,0,0,0,0,0,1.04628382830239,1.31900549173597
"KKI_50772",0,1,-5.06960956130484,0,0,1,0,0,0,0,0,0,0,0,0,0,1.42478905760445,-0.333208285540883
"KKI_50773",0,1,-6.99960956130484,0,0,1,0,0,0,0,0,0,0,0,0,0,0.640754992569242,-0.764118640495718
"KKI_50774",0,1,-7.19960956130484,0,0,1,0,0,0,0,0,0,0,0,0,0,2.29657832525298,-1.09666788082648
"KKI_50775",0,1,-6.83960956130484,0,0,1,0,0,0,0,0,0,0,0,0,0,0.197943364403895,0.514440368478405
"KKI_50776",0,1,-8.53960956130484,0,0,1,0,0,0,0,0,0,0,0,0,0,-0.816437062287755,0.326382440078505
"KKI_50777",0,1,-9.44960956130484,0,0,1,0,0,0,0,0,0,0,0,0,0,1.65202077868552,-0.116744050245358
"KKI_50778",0,1,-8.10960956130484,0,0,1,0,0,0,0,0,0,0,0,0,0,0.16189282353379,0.216057995930299
"KKI_50780",0,1,-8.01960956130484,0,0,1,0,0,0,0,0,0,0,0,0,0,1.48983721006937,0.283153319165721
"KKI_50781",0,1,-8.53960956130484,0,0,1,0,0,0,0,0,0,0,0,0,0,0.695499262545345,0.248442727284259
"KKI_50782",0,1,-7.65960956130484,0,0,1,0,0,0,0,0,0,0,0,0,0,0.0370649908437079,0.338532998317676
"KKI_50783",0,1,-7.43960956130484,0,0,1,0,0,0,0,0,0,0,0,0,0,1.49240534065031,-1.34352731199403
"KKI_50784",0,1,-9.76960956130484,0,0,1,0,0,0,0,0,0,0,0,0,0,-0.191332421856942,1.62510296463463
"KKI_50786",0,1,-9.08960956130484,0,0,1,0,0,0,0,0,0,0,0,0,0,-0.76207541389108,0.401979787322474
"KKI_50787",0,1,-7.01960956130484,0,0,1,0,0,0,0,0,0,0,0,0,0,-0.15737020805373,0.215763040407057
"KKI_50788",0,1,-7.58960956130484,0,0,1,0,0,0,0,0,0,0,0,0,0,0.13642920909673,0.050085999657093
"KKI_50789",0,1,-8.52960956130484,0,0,1,0,0,0,0,0,0,0,0,0,0,-0.118004410596516,1.35809254677855
"KKI_50790",0,1,-9.00960956130484,0,0,1,0,0,0,0,0,0,0,0,0,0,0.486009534496666,-0.235929843700094
"KKI_50791",1,0,-7.65960956130484,0,0,1,0,0,0,0,0,0,0,0,0,0,1.50566092329256,-1.09464549879551
"KKI_50792",1,0,-9.63960956130484,0,0,1,0,0,0,0,0,0,0,0,0,0,0.205842332114081,0.739211488521973
"KKI_50794",1,0,-8.17960956130484,0,0,1,0,0,0,0,0,0,0,0,0,0,-0.74840023958801,1.85231183663142
"KKI_50795",1,0,-9.74960956130484,0,0,1,0,0,0,0,0,0,0,0,0,0,0.553393123621529,0.797003318113584
"KKI_50797",1,0,-5.29960956130484,0,0,1,0,0,0,0,0,0,0,0,0,0,-0.45544899272341,1.33422750162035
"KKI_50798",1,0,-7.66960956130484,0,0,1,0,0,0,0,0,0,0,0,0,0,0.274622417039661,0.0327853892018649
"KKI_50799",1,0,-6.69960956130484,0,0,1,0,0,0,0,0,0,0,0,0,0,1.04687200579937,-0.697159845868089
"KKI_50800",1,0,-6.07960956130484,0,0,1,0,0,0,0,0,0,0,0,0,0,-0.310523159990119,1.22509567944154
"KKI_50801",1,0,-6.56960956130484,0,0,1,0,0,0,0,0,0,0,0,0,0,-0.103848566225894,1.64704352229241
"KKI_50802",1,0,-9.63960956130484,0,0,1,0,0,0,0,0,0,0,0,0,0,1.61924495935194,-0.304461557105104
"KKI_50803",1,0,-9.38960956130484,0,0,1,0,0,0,0,0,0,0,0,0,0,0.474628329166812,-0.0544659133680355
"KKI_50804",1,0,-9.50960956130484,0,0,1,0,0,0,0,0,0,0,0,0,0,-0.275146472246099,0.866738724669771
"KKI_50809",0,1,-9.40960956130484,0,0,1,0,0,0,0,0,0,0,0,0,0,0.950427728886997,0.280090888898747
"KKI_50810",0,1,-5.98960956130484,0,0,1,0,0,0,0,0,0,0,0,0,0,0.206916845140253,-1.22062928594126
"KKI_50811",0,1,-5.07960956130484,0,0,1,0,0,0,0,0,0,0,0,0,0,1.51869063005082,-0.554756153523596
"KKI_50812",0,1,-7.86960956130484,0,0,1,0,0,0,0,0,0,0,0,0,0,0.493703472736508,-0.210351955491812
"KKI_50813",0,1,-7.04960956130484,0,0,1,0,0,0,0,0,0,0,0,0,0,0.81419828814985,-0.32440210950862
"KKI_50814",0,1,-9.37960956130484,0,0,1,0,0,0,0,0,0,0,0,0,0,1.61322113399043,-0.685203340298147
"KKI_50816",0,1,-8.10960956130484,0,0,1,0,0,0,0,0,0,0,0,0,0,0.255987245497367,-0.227133563037888
"KKI_50817",0,1,-7.86960956130484,0,0,1,0,0,0,0,0,0,0,0,0,0,-0.800993677508824,-1.04754645711238
"KKI_50818",0,1,-6.04960956130484,0,0,1,0,0,0,0,0,0,0,0,0,0,2.26830314676852,-0.172670396505896
"KKI_50819",0,1,-8.12960956130484,0,0,1,0,0,0,0,0,0,0,0,0,0,1.06027380722303,-0.644059308246599
"KKI_50820",0,1,-8.96960956130484,0,0,1,0,0,0,0,0,0,0,0,0,0,0.427038787497015,-0.562175647930458
"KKI_50821",0,1,-6.66960956130484,0,0,1,0,0,0,0,0,0,0,0,0,0,-0.223910013170854,1.17565905766939
"KKI_50822",0,1,-5.40960956130484,0,0,1,0,0,0,0,0,0,0,0,0,0,1.18763065297434,0.827619298942867
"KKI_50823",1,0,-6.46960956130484,0,0,1,0,0,0,0,0,0,0,0,0,0,0.877249405981062,0.112713965610209
"KKI_50824",1,0,-7.54960956130484,0,0,1,0,0,0,0,0,0,0,0,0,0,0.406715574933333,-0.865668818943585
"NYU_50953",1,0,-6.07560956130484,0,0,0,0,0,0,0,0,0,0,0,0,0,-1.05231071163094,-0.782370242769135
"NYU_50954",1,0,-3.08960956130484,0,0,0,0,0,0,0,0,0,0,0,0,0,-0.461991604745368,-1.77649507914167
"NYU_50956",1,0,-3.77960956130484,0,0,0,0,0,0,0,0,0,0,0,0,0,-0.391029759505526,-1.17850875552891
"NYU_50957",1,0,-3.08960956130484,0,0,0,0,0,0,0,0,0,0,0,0,0,-2.24172358795138,0.0510746860599396
"NYU_50958",1,0,-7.60960956130484,0,0,0,0,0,0,0,0,0,0,0,0,0,-1.62776107362396,-0.597220264060354
"NYU_50959",1,0,4.97039043869516,0,0,0,0,0,0,0,0,0,0,0,0,0,-1.39535979075885,-1.67168075204368
"NYU_50960",1,0,20.9203904386952,0,0,0,0,0,0,0,0,0,0,0,0,0,-2.22571157625154,-0.986923267864711
"NYU_50961",1,0,7.18039043869516,0,0,0,0,0,0,0,0,0,0,0,0,0,-1.30412271681251,-0.553556357684504
"NYU_50962",1,0,6.57039043869516,0,0,0,0,0,0,0,0,0,0,0,0,0,-1.10039415644882,-1.12811600635333
"NYU_50964",1,0,-5.08960956130484,0,0,0,0,0,0,0,0,0,0,0,0,0,-1.54204501057538,0.053527884054245
"NYU_50965",1,0,-8.58960956130484,0,0,0,0,0,0,0,0,0,0,0,0,0,-2.81719577469257,-0.434150412852623
"NYU_50966",1,0,-2.69960956130484,0,0,0,0,0,0,0,0,0,0,0,0,0,-0.798059081004508,-1.63426523358315
"NYU_50967",1,0,-8.09960956130484,0,0,0,0,0,0,0,0,0,0,0,0,0,-1.20274217647083,-0.579971858692501
"NYU_50968",1,0,-7.88960956130484,0,0,0,0,0,0,0,0,0,0,0,0,0,-1.63430746323282,-0.820051567011173
"NYU_50969",1,0,-10.2296095613048,0,0,0,0,0,0,0,0,0,0,0,0,0,-2.08809199928192,0.304593317571593
"NYU_50970",1,0,-8.93960956130484,0,0,0,0,0,0,0,0,0,0,0,0,0,-0.801011018757192,-1.35000089801569
"NYU_50971",1,0,-7.59960956130484,0,0,0,0,0,0,0,0,0,0,0,0,0,-2.45603359596074,-0.674295914778211
"NYU_50972",1,0,-3.88960956130484,0,0,0,0,0,0,0,0,0,0,0,0,0,-3.25800667527786,-0.645883653081029
"NYU_50973",1,0,0.0403904386951623,0,0,0,0,0,0,0,0,0,0,0,0,0,-1.28062359463768,-0.550452518441952
"NYU_50974",1,0,-6.27960956130484,0,0,0,0,0,0,0,0,0,0,0,0,0,-1.25666846667566,-1.68061906119823
"NYU_50975",1,0,-6.87960956130484,0,0,0,0,0,0,0,0,0,0,0,0,0,-2.28250540174734,0.299612468187186
"NYU_50976",1,0,-3.18960956130484,0,0,0,0,0,0,0,0,0,0,0,0,0,-1.15188050927601,-0.617248474394432
"NYU_50977",1,0,-10.7096095613048,0,0,0,0,0,0,0,0,0,0,0,0,0,-0.691209791459221,-0.908526076657237
"NYU_50978",1,0,-8.25960956130484,0,0,0,0,0,0,0,0,0,0,0,0,0,-1.11563802651554,-2.26922403637791
"NYU_50979",1,0,-8.46960956130484,0,0,0,0,0,0,0,0,0,0,0,0,0,-1.88342658579719,0.798779539974585
"NYU_50980",1,0,-9.31960956130484,0,0,0,0,0,0,0,0,0,0,0,0,0,-2.75386558815139,0.453173678225397
"NYU_50981",1,0,-4.87960956130484,0,0,0,0,0,0,0,0,0,0,0,0,0,-1.23503023484872,-0.568150540051081
"NYU_50982",1,0,-8.37960956130484,0,0,0,0,0,0,0,0,0,0,0,0,0,-0.939563812825417,-1.85949966387378
"NYU_50983",1,0,-7.35960956130484,0,0,0,0,0,0,0,0,0,0,0,0,0,-3.29560211660471,-0.717805786511525
"NYU_50984",1,0,-4.63960956130484,0,0,0,0,0,0,0,0,0,0,0,0,0,-1.75095074250665,0.958033269875489
"NYU_50985",1,0,-4.74960956130484,0,0,0,0,0,0,0,0,0,0,0,0,0,-1.11324862374656,-1.21784924712431
"NYU_50988",1,0,-3.62960956130484,0,0,0,0,0,0,0,0,0,0,0,0,0,-0.715477155702469,-1.2121158368164
"NYU_50989",1,0,-8.05960956130484,0,0,0,0,0,0,0,0,0,0,0,0,0,-1.18312255729896,-0.360011746013324
"NYU_50990",1,0,-4.12960956130484,0,0,0,0,0,0,0,0,0,0,0,0,0,-1.10879258537832,-0.00741785576043524
"NYU_50991",1,0,-6.93960956130484,0,0,0,0,0,0,0,0,0,0,0,0,0,-0.887899705538945,-1.28360635721784
"NYU_50992",1,0,-7.17960956130484,0,0,0,0,0,0,0,0,0,0,0,0,0,-1.06944350441684,-0.0958947032291851
"NYU_50993",1,0,-6.96960956130484,0,0,0,0,0,0,0,0,0,0,0,0,0,-1.17477884634836,-0.49976469876132
"NYU_50994",1,0,-2.17960956130484,0,0,0,0,0,0,0,0,0,0,0,0,0,-0.637819454615964,-2.20310927742548
"NYU_50995",1,0,-1.09960956130484,0,0,0,0,0,0,0,0,0,0,0,0,0,-1.54452227303759,-0.404366876128023
"NYU_50996",1,0,-2.02960956130484,0,0,0,0,0,0,0,0,0,0,0,0,0,-2.94054018023281,-1.58387029136576
"NYU_50997",1,0,-1.56960956130484,0,0,0,0,0,0,0,0,0,0,0,0,0,-2.36762296712892,0.422184123693011
"NYU_50998",1,0,-4.79960956130484,0,0,0,0,0,0,0,0,0,0,0,0,0,-1.87501720873951,-0.393660524362858
"NYU_50999",1,0,-3.30960956130484,0,0,0,0,0,0,0,0,0,0,0,0,0,-1.10628983248394,-0.295498743374231
"NYU_51000",1,0,-4.50960956130484,0,0,0,0,0,0,0,0,0,0,0,0,0,-1.35861706602556,-0.0514961158594421
"NYU_51001",1,0,-7.12960956130484,0,0,0,0,0,0,0,0,0,0,0,0,0,-1.4676919548359,0.4480042166252
"NYU_51002",1,0,-10.6116095613048,0,0,0,0,0,0,0,0,0,0,0,0,0,-1.85859876528792,-0.105213155506477
"NYU_51003",1,0,-9.32960956130484,0,0,0,0,0,0,0,0,0,0,0,0,0,-1.01670012715944,-0.729319195662165
"NYU_51006",1,0,-6.72960956130484,0,0,0,0,0,0,0,0,0,0,0,0,0,-0.415582083688555,-1.1558684043102
"NYU_51007",1,0,-5.91960956130484,0,0,0,0,0,0,0,0,0,0,0,0,0,-1.08954480265445,-0.421026847050157
"NYU_51010",1,0,-9.30960956130484,0,0,0,0,0,0,0,0,0,0,0,0,0,-1.48597638307633,-0.120312340074838
"NYU_51011",1,0,-9.04960956130484,0,0,0,0,0,0,0,0,0,0,0,0,0,-1.93789566511347,1.06274448922388
"NYU_51012",1,0,-8.04960956130484,0,0,0,0,0,0,0,0,0,0,0,0,0,-2.7838905742955,0.516114837774488
"NYU_51013",1,0,-10.6896095613048,0,0,0,0,0,0,0,0,0,0,0,0,0,-3.92008478534064,-0.159131230050323
"NYU_51014",1,0,-6.83460956130484,0,0,0,0,0,0,0,0,0,0,0,0,0,-0.546533187511996,-1.26768341358316
"NYU_51015",1,0,12.1403904386952,0,0,0,0,0,0,0,0,0,0,0,0,0,-0.597059940510788,-2.11833992543103
"NYU_51016",1,0,5.15039043869516,0,0,0,0,0,0,0,0,0,0,0,0,0,-0.74888054073011,-1.56227621819805
"NYU_51017",1,0,4.20039043869516,0,0,0,0,0,0,0,0,0,0,0,0,0,-2.15252798265699,-1.5210015925743
"NYU_51018",1,0,2.41039043869516,0,0,0,0,0,0,0,0,0,0,0,0,0,-1.05033932404419,-1.50843416770407
"NYU_51019",1,0,4.45039043869516,0,0,0,0,0,0,0,0,0,0,0,0,0,-1.39786762827815,-1.74576938273589
"NYU_51020",1,0,10.7403904386952,0,0,0,0,0,0,0,0,0,0,0,0,0,-2.81587944689632,-0.82492769371227
"NYU_51021",1,0,5.82039043869516,0,0,0,0,0,0,0,0,0,0,0,0,0,-4.01434139221435,-1.01074018581241
"NYU_51023",1,0,2.78039043869516,0,0,0,0,0,0,0,0,0,0,0,0,0,-0.971094206036877,-1.5132329635294
"NYU_51024",1,0,21.2603904386952,0,0,0,0,0,0,0,0,0,0,0,0,0,-1.1983835124446,-1.91916125439978
"NYU_51025",1,0,1.80039043869516,0,0,0,0,0,0,0,0,0,0,0,0,0,-0.971375738216902,-0.93292922609491
"NYU_51026",1,0,0.740390438695162,0,0,0,0,0,0,0,0,0,0,0,0,0,-1.71217064515632,-2.35518373706105
"NYU_51027",1,0,5.14039043869516,0,0,0,0,0,0,0,0,0,0,0,0,0,-1.15054648311872,-1.00211937408568
"NYU_51028",1,0,11.3403904386952,0,0,0,0,0,0,0,0,0,0,0,0,0,-1.23285785621499,-2.00552682100271
"NYU_51029",1,0,8.67639043869516,0,0,0,0,0,0,0,0,0,0,0,0,0,-1.23869593373554,-0.666557033949174
"NYU_51030",1,0,-10.5496095613048,0,0,0,0,0,0,0,0,0,0,0,0,0,-2.95243457085212,1.37967029704485
"NYU_51032",1,0,-10.6896095613048,0,0,0,0,0,0,0,0,0,0,0,0,0,-1.71642715839135,0.0260359708586735
"NYU_51034",1,0,-7.18960956130484,0,0,0,0,0,0,0,0,0,0,0,0,0,-3.13319148561608,0.422893315078435
"NYU_51035",1,0,-7.56960956130484,0,0,0,0,0,0,0,0,0,0,0,0,0,-2.59450465021081,0.801309044310993
"NYU_51036",0,1,-9.79960956130484,0,0,0,0,0,0,0,0,0,0,0,0,0,-1.23578982110819,-1.03613557405007
"NYU_51038",0,1,-9.57960956130484,0,0,0,0,0,0,0,0,0,0,0,0,0,-0.375923028307109,-1.50026232437241
"NYU_51039",0,1,-9.33960956130484,0,0,0,0,0,0,0,0,0,0,0,0,0,-0.879418475453419,-1.09052373968904
"NYU_51040",0,1,-9.31960956130484,0,0,0,0,0,0,0,0,0,0,0,0,0,-0.857401087959822,-2.56747824022028
"NYU_51041",0,1,-8.93960956130484,0,0,0,0,0,0,0,0,0,0,0,0,0,-0.484778422469764,-1.05618057776818
"NYU_51042",0,1,-8.92960956130484,0,0,0,0,0,0,0,0,0,0,0,0,0,-1.43647515537922,-0.973827338414699
"NYU_51044",0,1,-6.97960956130484,0,0,0,0,0,0,0,0,0,0,0,0,0,-1.0676762219269,-1.10111900159247
"NYU_51045",0,1,-6.27960956130484,0,0,0,0,0,0,0,0,0,0,0,0,0,-1.59668207525079,-0.147924754326294
"NYU_51046",0,1,-6.27960956130484,0,0,0,0,0,0,0,0,0,0,0,0,0,-0.731289089348042,-0.960890504736087
"NYU_51047",0,1,-5.73960956130484,0,0,0,0,0,0,0,0,0,0,0,0,0,-0.705525454594453,-1.73162023499748
"NYU_51048",0,1,-5.39960956130484,0,0,0,0,0,0,0,0,0,0,0,0,0,-0.880292134295452,-1.18007149234797
"NYU_51049",0,1,-4.61960956130484,0,0,0,0,0,0,0,0,0,0,0,0,0,-0.574890114794407,-0.979791445302285
"NYU_51050",0,1,-4.58960956130484,0,0,0,0,0,0,0,0,0,0,0,0,0,-0.749057257315502,-1.80424833420173
"NYU_51051",0,1,-3.77960956130484,0,0,0,0,0,0,0,0,0,0,0,0,0,-1.21475065544364,-0.815478894449033
"NYU_51052",0,1,-3.65960956130484,0,0,0,0,0,0,0,0,0,0,0,0,0,-1.30714672053275,-1.70623702215427
"NYU_51053",0,1,-3.45960956130484,0,0,0,0,0,0,0,0,0,0,0,0,0,-0.791655071663343,-1.32949182357219
"NYU_51054",0,1,-3.41960956130484,0,0,0,0,0,0,0,0,0,0,0,0,0,-1.47450341771706,-0.278063300258053
"NYU_51055",0,1,-1.88960956130484,0,0,0,0,0,0,0,0,0,0,0,0,0,-1.69328237720292,-1.41242908496752
"NYU_51056",0,1,-0.529609561304838,0,0,0,0,0,0,0,0,0,0,0,0,0,-0.808223924263639,-3.06903908412347
"NYU_51057",0,1,3.74039043869516,0,0,0,0,0,0,0,0,0,0,0,0,0,-1.16811723038773,-2.28877443077501
"NYU_51058",0,1,4.27039043869516,0,0,0,0,0,0,0,0,0,0,0,0,0,-0.874289832443721,-1.17138674214455
"NYU_51059",0,1,4.92039043869516,0,0,0,0,0,0,0,0,0,0,0,0,0,-1.4323138552494,-1.37898498408061
"NYU_51060",0,1,4.90039043869516,0,0,0,0,0,0,0,0,0,0,0,0,0,-1.33050648564648,-0.0542241059605744
"NYU_51061",0,1,9.19039043869516,0,0,0,0,0,0,0,0,0,0,0,0,0,-0.817515995438511,-2.46976685237925
"NYU_51062",0,1,9.92039043869516,0,0,0,0,0,0,0,0,0,0,0,0,0,-1.16310910374133,-0.875007329420478
"NYU_51063",0,1,11.2903904386952,0,0,0,0,0,0,0,0,0,0,0,0,0,-1.68974448507916,-1.38234081757285
"NYU_51064",0,1,-10.5796095613048,0,0,0,0,0,0,0,0,0,0,0,0,0,-1.15775928556957,-0.969372768024108
"NYU_51065",0,1,-7.31960956130484,0,0,0,0,0,0,0,0,0,0,0,0,0,-2.17917902362704,-0.973182945208971
"NYU_51066",0,1,0.750390438695163,0,0,0,0,0,0,0,0,0,0,0,0,0,-1.83351416409406,-0.93744744225416
"NYU_51067",0,1,5.81039043869516,0,0,0,0,0,0,0,0,0,0,0,0,0,-1.81043933330397,-1.45697087122959
"NYU_51068",0,1,13.9403904386952,0,0,0,0,0,0,0,0,0,0,0,0,0,-2.84649933420726,-1.71296543238334
"NYU_51069",0,1,-9.68960956130484,0,0,0,0,0,0,0,0,0,0,0,0,0,-1.05246902921603,-2.13992038392599
"NYU_51070",0,1,-10.5496095613048,0,0,0,0,0,0,0,0,0,0,0,0,0,-1.07764040216298,-0.220000266523588
"NYU_51071",0,1,-7.14960956130484,0,0,0,0,0,0,0,0,0,0,0,0,0,-0.973242975850495,-1.06720627774405
"NYU_51072",0,1,-5.92960956130484,0,0,0,0,0,0,0,0,0,0,0,0,0,-1.37528264149045,-0.89790606349073
"NYU_51073",0,1,-5.34960956130484,0,0,0,0,0,0,0,0,0,0,0,0,0,-1.58965547136192,-0.661733482287123
"NYU_51074",0,1,-5.02960956130484,0,0,0,0,0,0,0,0,0,0,0,0,0,-0.781693931237957,-1.7131393123204
"NYU_51075",0,1,-3.63960956130484,0,0,0,0,0,0,0,0,0,0,0,0,0,-2.34278805940009,-0.250524400289189
"NYU_51076",0,1,-0.909609561304837,0,0,0,0,0,0,0,0,0,0,0,0,0,-1.48102893123895,-1.80533054344791
"NYU_51077",0,1,-0.539609561304836,0,0,0,0,0,0,0,0,0,0,0,0,0,-2.85405397736691,0.743190893863808
"NYU_51078",0,1,-11.3696095613048,0,0,0,0,0,0,0,0,0,0,0,0,0,-1.61983927909848,-0.996367073787494
"NYU_51079",0,1,-10.6496095613048,0,0,0,0,0,0,0,0,0,0,0,0,0,-1.61908571310631,-0.687053844270138
"NYU_51080",0,1,-9.82960956130484,0,0,0,0,0,0,0,0,0,0,0,0,0,-0.698263067527577,-1.28964104280779
"NYU_51081",0,1,-9.01960956130484,0,0,0,0,0,0,0,0,0,0,0,0,0,-0.0708741300653202,-1.91904448771302
"NYU_51082",0,1,-8.95960956130484,0,0,0,0,0,0,0,0,0,0,0,0,0,-2.09356260617742,-0.39898420733665
"NYU_51083",0,1,-8.90960956130484,0,0,0,0,0,0,0,0,0,0,0,0,0,-1.83301434653414,-0.690283284061627
"NYU_51084",0,1,-8.60960956130484,0,0,0,0,0,0,0,0,0,0,0,0,0,-1.89334885764649,-0.470934018626518
"NYU_51085",0,1,-8.02960956130484,0,0,0,0,0,0,0,0,0,0,0,0,0,-1.18748778542196,-1.12940807848398
"NYU_51086",0,1,-7.37960956130484,0,0,0,0,0,0,0,0,0,0,0,0,0,-0.776262774075585,-1.05731983540127
"NYU_51087",0,1,-7.31960956130484,0,0,0,0,0,0,0,0,0,0,0,0,0,-1.47667193739225,0.374987512209981
"NYU_51088",0,1,-7.10960956130484,0,0,0,0,0,0,0,0,0,0,0,0,0,-0.851036914479403,-0.764074974220634
"NYU_51089",0,1,-7.07960956130484,0,0,0,0,0,0,0,0,0,0,0,0,0,-1.85498204212937,-0.865578771351686
"NYU_51090",0,1,-6.80960956130484,0,0,0,0,0,0,0,0,0,0,0,0,0,-0.672501440415005,-1.18187147637683
"NYU_51091",0,1,-6.51960956130484,0,0,0,0,0,0,0,0,0,0,0,0,0,-1.08283811931377,-0.610755038692176
"NYU_51093",0,1,-6.14960956130484,0,0,0,0,0,0,0,0,0,0,0,0,0,-1.03085392168571,-0.534221950317914
"NYU_51094",0,1,-5.73960956130484,0,0,0,0,0,0,0,0,0,0,0,0,0,-1.28707856292447,-0.339653000532749
"NYU_51095",0,1,-5.60960956130484,0,0,0,0,0,0,0,0,0,0,0,0,0,-3.84453833045195,-0.452105060054592
"NYU_51096",0,1,-4.65960956130484,0,0,0,0,0,0,0,0,0,0,0,0,0,-0.721675645850121,-1.41121587595132
"NYU_51097",0,1,-4.25660956130484,0,0,0,0,0,0,0,0,0,0,0,0,0,-1.2753221734741,-1.11626220172085
"NYU_51098",0,1,-4.21160956130484,0,0,0,0,0,0,0,0,0,0,0,0,0,-1.4847834099118,-0.5280905405152
"NYU_51099",0,1,-4.11960956130484,0,0,0,0,0,0,0,0,0,0,0,0,0,-1.5286347608459,-0.88075369376168
"NYU_51100",0,1,-3.47960956130484,0,0,0,0,0,0,0,0,0,0,0,0,0,-1.89097449732815,-0.963597878443164
"NYU_51101",0,1,-3.41460956130484,0,0,0,0,0,0,0,0,0,0,0,0,0,-1.92442216144516,-0.324703384477402
"NYU_51102",0,1,-3.18660956130484,0,0,0,0,0,0,0,0,0,0,0,0,0,-1.69070807986796,-0.365970799493141
"NYU_51103",0,1,-3.17960956130484,0,0,0,0,0,0,0,0,0,0,0,0,0,-2.6451133851468,-0.716859413782294
"NYU_51104",0,1,-2.56960956130484,0,0,0,0,0,0,0,0,0,0,0,0,0,-2.01720679228374,-1.76042530781201
"NYU_51105",0,1,-2.55560956130484,0,0,0,0,0,0,0,0,0,0,0,0,0,-1.0679379881063,-1.8225218235481
"NYU_51106",0,1,-2.41960956130484,0,0,0,0,0,0,0,0,0,0,0,0,0,-0.99302125836837,-1.04341902839929
"NYU_51107",0,1,-2.30960956130484,0,0,0,0,0,0,0,0,0,0,0,0,0,-0.895142834918811,-1.34815515391535
"NYU_51108",0,1,-2.12960956130484,0,0,0,0,0,0,0,0,0,0,0,0,0,-0.825805429131757,-1.38935447972213
"NYU_51109",0,1,-1.70960956130484,0,0,0,0,0,0,0,0,0,0,0,0,0,-1.94898761173929,-0.110339218765304
"NYU_51110",0,1,-1.55960956130484,0,0,0,0,0,0,0,0,0,0,0,0,0,-1.13054640082864,-1.41429430590953
"NYU_51111",0,1,-1.28960956130484,0,0,0,0,0,0,0,0,0,0,0,0,0,-1.69456337043048,-1.64282381376453
"NYU_51112",0,1,1.38839043869516,0,0,0,0,0,0,0,0,0,0,0,0,0,-1.53332977188284,-1.36887020451481
"NYU_51113",0,1,4.54039043869516,0,0,0,0,0,0,0,0,0,0,0,0,0,-1.28743346518399,-1.82852275032032
"NYU_51114",0,1,4.64039043869516,0,0,0,0,0,0,0,0,0,0,0,0,0,-0.815545108996019,-1.12922644758963
"NYU_51115",0,1,4.92039043869516,0,0,0,0,0,0,0,0,0,0,0,0,0,-1.46475699271679,-1.54997587683297
"NYU_51116",0,1,7.50039043869516,0,0,0,0,0,0,0,0,0,0,0,0,0,-1.31338024959104,-1.38742595214257
"NYU_51117",0,1,10.3633904386952,0,0,0,0,0,0,0,0,0,0,0,0,0,-1.37209451038065,-1.89885515374393
"NYU_51118",0,1,11.1803904386952,0,0,0,0,0,0,0,0,0,0,0,0,0,-2.53576147934561,-0.705013768564566
"NYU_51119",0,1,12.8843904386952,0,0,0,0,0,0,0,0,0,0,0,0,0,-1.76539261905666,-1.50512456484314
"NYU_51120",0,1,-7.64960956130484,0,0,0,0,0,0,0,0,0,0,0,0,0,-0.977401073479368,-0.702632222165786
"NYU_51121",0,1,-7.09960956130484,0,0,0,0,0,0,0,0,0,0,0,0,0,-0.407836506037238,-1.18590002838936
"NYU_51122",0,1,-5.91960956130484,0,0,0,0,0,0,0,0,0,0,0,0,0,-1.63442070485108,0.139661267436738
"NYU_51123",0,1,-5.76960956130484,0,0,0,0,0,0,0,0,0,0,0,0,0,-1.70266556391335,-0.171676723433283
"NYU_51124",0,1,-5.16960956130484,0,0,0,0,0,0,0,0,0,0,0,0,0,-0.687225147212815,-2.01214809582547
"NYU_51125",0,1,-3.04960956130484,0,0,0,0,0,0,0,0,0,0,0,0,0,-0.667749848440022,-1.45550928437216
"NYU_51126",0,1,-1.52960956130484,0,0,0,0,0,0,0,0,0,0,0,0,0,-1.39574612418692,-1.41166283045097
"NYU_51128",0,1,-0.959609561304838,0,0,0,0,0,0,0,0,0,0,0,0,0,-1.44348352461331,-1.90499547274187
"NYU_51129",0,1,-0.139609561304837,0,0,0,0,0,0,0,0,0,0,0,0,0,-1.27112688529434,-0.900619461983478
"NYU_51130",0,1,1.29039043869516,0,0,0,0,0,0,0,0,0,0,0,0,0,-3.87175843394734,-1.56601941699493
"NYU_51131",0,1,1.89039043869516,0,0,0,0,0,0,0,0,0,0,0,0,0,-1.1623617552679,-1.24040478160696
"Trinity_51132",0,1,6.99039043869516,0,0,0,0,0,0,0,0,0,1,0,0,0,1.21730735312905,0.0842825992188296
"Trinity_51133",0,1,-5.79960956130484,0,0,0,0,0,0,0,0,0,1,0,0,0,1.3436747680412,0.384404577934111
"Trinity_51134",0,1,-1.00960956130484,0,0,0,0,0,0,0,0,0,1,0,0,0,0.964599439417006,0.800605560111234
"Trinity_51135",0,1,-4.08960956130484,0,0,0,0,0,0,0,0,0,1,0,0,0,2.62775267656189,0.752360323205111
"Trinity_51137",0,1,-4.58960956130484,0,0,0,0,0,0,0,0,0,1,0,0,0,0.929708059646859,1.3318549503735
"Trinity_51138",0,1,-5.17960956130484,0,0,0,0,0,0,0,0,0,1,0,0,0,2.20120750869289,0.614367525470324
"Trinity_51139",0,1,1.66039043869516,0,0,0,0,0,0,0,0,0,1,0,0,0,1.33251024113934,-0.0688414603240821
"Trinity_51140",0,1,-2.08960956130484,0,0,0,0,0,0,0,0,0,1,0,0,0,2.83613566216417,0.6808180552759
"Trinity_51141",0,1,-1.92960956130484,0,0,0,0,0,0,0,0,0,1,0,0,0,0.718854037664644,0.866794221951113
"Trinity_51142",0,1,-2.92960956130484,0,0,0,0,0,0,0,0,0,1,0,0,0,1.59103693493876,1.08347740807023
"NYU_51146",0,1,2.18039043869516,0,0,0,0,0,0,0,0,0,0,0,0,0,-1.93443064766032,-1.95452715156132
"NYU_51147",0,1,2.20039043869516,0,0,0,0,0,0,0,0,0,0,0,0,0,-1.24608678589162,-0.824026442320144
"NYU_51148",0,1,2.46039043869516,0,0,0,0,0,0,0,0,0,0,0,0,0,-1.44055025834311,-1.24674846744135
"NYU_51149",0,1,2.72039043869516,0,0,0,0,0,0,0,0,0,0,0,0,0,-1.32706661987536,-0.350833400066929
"NYU_51150",0,1,4.93039043869516,0,0,0,0,0,0,0,0,0,0,0,0,0,-2.73324866819326,0.209783467867863
"NYU_51151",0,1,5.24039043869516,0,0,0,0,0,0,0,0,0,0,0,0,0,-1.03392766415977,-1.20302869784242
"NYU_51152",0,1,5.51039043869516,0,0,0,0,0,0,0,0,0,0,0,0,0,-1.17649625053241,-0.929673855473676
"NYU_51153",0,1,8.33039043869517,0,0,0,0,0,0,0,0,0,0,0,0,0,-1.80937231291568,-1.52468830251907
"NYU_51154",0,1,12.2403904386952,0,0,0,0,0,0,0,0,0,0,0,0,0,-1.09741441737253,-0.881968320274512
"NYU_51155",0,1,12.9403904386952,0,0,0,0,0,0,0,0,0,0,0,0,0,-1.16262073479667,-1.07534427937456
"NYU_51156",0,1,3.31039043869516,0,0,0,0,0,0,0,0,0,0,0,0,0,-3.88131083240619,-0.689150124225393
"NYU_51159",0,1,-5.02960956130484,0,0,0,0,0,0,0,0,0,0,0,0,0,-2.67309309366547,1.53722215634561
"UCLA_51205",1,0,0.100390438695165,0,0,0,0,0,0,0,0,0,0,1,0,0,1.16174113488629,0.548940842629991
"UCLA_51206",1,0,-2.05960956130484,0,0,0,0,0,0,0,0,0,0,1,0,0,1.76391260588378,-0.225258459546245
"UCLA_51207",1,0,-3.72960956130484,0,0,0,0,0,0,0,0,0,0,1,0,0,-0.599156216804533,1.72786374839893
"UCLA_51208",1,0,-0.859609561304836,0,0,0,0,0,0,0,0,0,0,1,0,0,-1.8566951337913,0.175550920839581
"UCLA_51210",1,0,-1.27960956130484,0,0,0,0,0,0,0,0,0,0,1,0,0,0.090652769016787,-0.376482129078946
"UCLA_51212",1,0,-2.17960956130484,0,0,0,0,0,0,0,0,0,0,1,0,0,1.66003044827505,0.207569435965825
"UCLA_51214",1,0,-7.42960956130484,0,0,0,0,0,0,0,0,0,0,1,0,0,0.0414162816857153,1.11075818167292
"UCLA_51216",1,0,-7.29960956130484,0,0,0,0,0,0,0,0,0,0,1,0,0,1.03560909304338,1.20019037430884
"UCLA_51217",1,0,-2.61960956130484,0,0,0,0,0,0,0,0,0,0,1,0,0,1.76340861066602,-0.366379383643717
"UCLA_51218",1,0,-0.969609561304836,0,0,0,0,0,0,0,0,0,0,1,0,0,2.88769600143952,-0.861060938896284
"UCLA_51219",1,0,-3.90960956130484,0,0,0,0,0,0,0,0,0,0,1,0,0,-1.27837082080313,1.63286524261279
"UCLA_51220",1,0,-3.09960956130484,0,0,0,0,0,0,0,0,0,0,1,0,0,1.74120621084205,0.892183967374523
"UCLA_51221",1,0,-3.25960956130484,0,0,0,0,0,0,0,0,0,0,1,0,0,2.02720504114132,0.31757266139555
"UCLA_51222",1,0,-6.02960956130484,0,0,0,0,0,0,0,0,0,0,1,0,0,2.19763196927612,-0.26900825374162
"UCLA_51223",1,0,-4.52960956130484,0,0,0,0,0,0,0,0,0,0,1,0,0,1.81920839629342,0.4199161334545
"UCLA_51224",1,0,-4.84960956130484,0,0,0,0,0,0,0,0,0,0,1,0,0,2.53623046765723,-0.105809643873024
"UCLA_51225",1,0,-5.50960956130484,0,0,0,0,0,0,0,0,0,0,1,0,0,1.7648581311812,1.0621958147648
"UCLA_51226",1,0,-8.57960956130484,0,0,0,0,0,0,0,0,0,0,1,0,0,1.16073927100931,0.573794274458312
"UCLA_51227",1,0,-3.30960956130484,0,0,0,0,0,0,0,0,0,0,1,0,0,0.00397844905081057,2.36174173592201
"UCLA_51229",1,0,-3.24960956130484,0,0,0,0,0,0,0,0,0,0,1,0,0,2.36142149320697,-1.6258876085469
"UCLA_51230",1,0,-0.309609561304836,0,0,0,0,0,0,0,0,0,0,1,0,0,2.3120083902185,-1.02579095938891
"UCLA_51234",1,0,-6.92960956130484,0,0,0,0,0,0,0,0,0,0,1,0,0,2.93263304598451,-0.903584431389076
"UCLA_51235",1,0,-7.16960956130484,0,0,0,0,0,0,0,0,0,0,1,0,0,1.81428454939815,-0.320090784249553
"UCLA_51236",1,0,-5.41960956130484,0,0,0,0,0,0,0,0,0,0,1,0,0,0.542858872341663,1.86322704816327
"UCLA_51237",1,0,-0.439609561304838,0,0,0,0,0,0,0,0,0,0,1,0,0,2.87957145859281,-0.936088033462805
"UCLA_51239",1,0,-4.16960956130484,0,0,0,0,0,0,0,0,0,0,1,0,0,1.58671654047291,1.30741327871809
"UCLA_51240",1,0,-2.87960956130484,0,0,0,0,0,0,0,0,0,0,1,0,0,1.71646548954811,0.652651717692898
"UCLA_51241",1,0,-6.93960956130484,0,0,0,0,0,0,0,0,0,0,1,0,0,2.57383445016772,-0.936177229107778
"UCLA_51248",1,0,-4.33960956130484,0,0,0,0,0,0,0,0,0,0,1,0,0,2.0832651456436,-0.744323818007077
"UCLA_51249",1,0,-9.34960956130484,0,0,0,0,0,0,0,0,0,0,1,0,0,2.31887914057876,0.993646173697864
"UCLA_51250",0,1,-2.95960956130484,0,0,0,0,0,0,0,0,0,0,1,0,0,1.02926545120155,0.480775578468199
"UCLA_51251",0,1,-5.47960956130484,0,0,0,0,0,0,0,0,0,0,1,0,0,0.0261607534552546,1.29776661682185
"UCLA_51252",0,1,-6.84960956130484,0,0,0,0,0,0,0,0,0,0,1,0,0,1.64818292135971,0.377672805292947
"UCLA_51253",0,1,-6.03960956130484,0,0,0,0,0,0,0,0,0,0,1,0,0,3.55309502988253,-1.34218896447404
"UCLA_51254",0,1,-3.39960956130484,0,0,0,0,0,0,0,0,0,0,1,0,0,1.78299285584137,-0.171989292242896
"UCLA_51255",0,1,-3.03960956130484,0,0,0,0,0,0,0,0,0,0,1,0,0,1.65075807064409,0.304937268991029
"UCLA_51256",0,1,-2.79960956130484,0,0,0,0,0,0,0,0,0,0,1,0,0,2.49401007230864,-0.523540424714053
"UCLA_51257",0,1,-4.45960956130484,0,0,0,0,0,0,0,0,0,0,1,0,0,2.69520050898503,0.514205655389833
"UCLA_51260",0,1,-4.17960956130484,0,0,0,0,0,0,0,0,0,0,1,0,0,2.93486747108631,-0.793581809737325
"UCLA_51261",0,1,-0.0496095613048375,0,0,0,0,0,0,0,0,0,0,1,0,0,0.127035265831984,0.771734213133062
"UCLA_51262",0,1,-6.27960956130484,0,0,0,0,0,0,0,0,0,0,1,0,0,1.51642628879934,0.0964767723011384
"UCLA_51264",0,1,-4.37960956130484,0,0,0,0,0,0,0,0,0,0,1,0,0,2.46968689398971,0.0406154413456534
"UCLA_51265",0,1,-1.91960956130484,0,0,0,0,0,0,0,0,0,0,1,0,0,2.72219378754491,-0.30214614433255
"UCLA_51266",0,1,-3.80960956130484,0,0,0,0,0,0,0,0,0,0,1,0,0,1.0175087620496,0.933201533083883
"UCLA_51267",0,1,-6.58960956130484,0,0,0,0,0,0,0,0,0,0,1,0,0,2.5673075918027,-1.9054021096003
"UCLA_51268",0,1,-0.0596095613048355,0,0,0,0,0,0,0,0,0,0,1,0,0,1.53497248621357,-0.20690146472111
"UCLA_51269",0,1,-3.54960956130484,0,0,0,0,0,0,0,0,0,0,1,0,0,0.874453333033584,0.32445230213942
"UCLA_51271",0,1,-5.74960956130484,0,0,0,0,0,0,0,0,0,0,1,0,0,2.69334277232982,-1.14431922912038
"UCLA_51272",0,1,-4.42960956130484,0,0,0,0,0,0,0,0,0,0,1,0,0,2.61567961004591,-0.346292297865553
"UCLA_51273",0,1,-5.15960956130484,0,0,0,0,0,0,0,0,0,0,1,0,0,2.41187649946236,0.0820648995031292
"UCLA_51275",0,1,-2.09960956130484,0,0,0,0,0,0,0,0,0,0,1,0,0,1.33764080553806,0.312332793249762
"UCLA_51276",0,1,-3.98960956130484,0,0,0,0,0,0,0,0,0,0,1,0,0,2.96303534542548,-0.161654678538519
"UCLA_51277",0,1,-5.82960956130484,0,0,0,0,0,0,0,0,0,0,1,0,0,2.48545193702032,-1.22026746906717
"UCLA_51278",0,1,-8.62960956130484,0,0,0,0,0,0,0,0,0,0,1,0,0,-1.73756614930166,1.58652396884836
"UCLA_51279",0,1,-4.01960956130484,0,0,0,0,0,0,0,0,0,0,1,0,0,2.93623126743555,-1.20657347460096
"UCLA_51280",0,1,-8.33960956130484,0,0,0,0,0,0,0,0,0,0,1,0,0,2.81688595859803,-0.0976743799919969
"UCLA_51281",0,1,-6.00960956130484,0,0,0,0,0,0,0,0,0,0,1,0,0,2.06237949164128,-0.394115321690967
"UCLA_51282",0,1,-5.10960956130484,0,0,0,0,0,0,0,0,0,0,1,0,0,1.18072863593311,0.763716657208426
"UCLA_51291",1,0,-1.36960956130484,0,0,0,0,0,0,0,0,0,0,1,0,0,1.88313122291944,-0.35735218028821
"UCLA_51293",1,0,-4.75960956130484,0,0,0,0,0,0,0,0,0,0,1,0,0,2.94069397082586,-0.0324581484358181
"UCLA_51294",1,0,-6.13960956130484,0,0,0,0,0,0,0,0,0,0,1,0,0,0.410536340359083,1.4614975704089
"UCLA_51295",1,0,-7.79960956130484,0,0,0,0,0,0,0,0,0,0,1,0,0,1.78963937099562,1.01159236737078
"UCLA_51298",1,0,-7.26960956130484,0,0,0,0,0,0,0,0,0,0,1,0,0,0.595200174882958,1.02137994836705
"UCLA_51301",1,0,-4.55960956130484,0,0,0,0,0,0,0,0,0,0,1,0,0,1.4020933211509,1.99594851340552
"UCLA_51302",1,0,-6.98960956130484,0,0,0,0,0,0,0,0,0,0,1,0,0,0.375416530803066,1.26099358749971
"UCLA_51303",0,1,-4.83960956130484,0,0,0,0,0,0,0,0,0,0,1,0,0,2.72942454840958,-1.14261375713571
"UCLA_51304",0,1,-7.30960956130484,0,0,0,0,0,0,0,0,0,0,1,0,0,-1.87304748260389,1.41385808281923
"UCLA_51305",0,1,-5.19960956130484,0,0,0,0,0,0,0,0,0,0,1,0,0,2.18710222512633,-0.0146410175390133
"UCLA_51306",0,1,-6.17960956130484,0,0,0,0,0,0,0,0,0,0,1,0,0,1.19825596107214,0.624134267237077
"UCLA_51307",0,1,-5.68960956130484,0,0,0,0,0,0,0,0,0,0,1,0,0,0.705114477734185,0.716961825252843
"UCLA_51308",0,1,-8.04960956130484,0,0,0,0,0,0,0,0,0,0,1,0,0,2.76071730593452,-0.886381239298607
"UCLA_51309",0,1,-5.93960956130484,0,0,0,0,0,0,0,0,0,0,1,0,0,1.13202124081246,0.656906968482113
"UCLA_51311",0,1,-5.88960956130484,0,0,0,0,0,0,0,0,0,0,1,0,0,2.53740992801015,-1.05751400145991
"UCLA_51313",0,1,-4.47960956130484,0,0,0,0,0,0,0,0,0,0,1,0,0,0.882211382441547,-0.6777105646249
"UCLA_51315",0,1,-4.20960956130484,0,0,0,0,0,0,0,0,0,0,1,0,0,2.2402395537804,-0.231725093009883
"UCLA_51317",1,0,-5.01960956130484,0,0,0,0,0,0,0,0,0,0,1,0,0,1.54417571129011,0.496021174002034
"MaxMun_51318",1,0,1.16039043869516,0,0,0,0,1,0,0,0,0,0,0,0,0,0.800391550555752,-1.07438714643502
"MaxMun_51319",1,0,15.1603904386952,0,0,0,0,1,0,0,0,0,0,0,0,0,1.34297169320682,-2.43264885099069
"MaxMun_51321",1,0,27.1603904386952,0,0,0,0,1,0,0,0,0,0,0,0,0,-0.162855328302593,-0.785094736135848
"MaxMun_51322",1,0,11.1603904386952,0,0,0,0,1,0,0,0,0,0,0,0,0,0.666817284206094,-0.0783346667749999
"MaxMun_51323",1,0,12.1603904386952,0,0,0,0,1,0,0,0,0,0,0,0,0,1.00720268501528,-2.46645205201231
"MaxMun_51324",1,0,34.1603904386952,0,0,0,0,1,0,0,0,0,0,0,0,0,-0.557276410110599,-0.511176305049079
"MaxMun_51325",1,0,14.1603904386952,0,0,0,0,1,0,0,0,0,0,0,0,0,0.578172079801873,-0.915509715141492
"MaxMun_51326",1,0,24.1603904386952,0,0,0,0,1,0,0,0,0,0,0,0,0,0.0465968862668534,0.161805654964534
"MaxMun_51328",1,0,4.16039043869516,0,0,0,0,1,0,0,0,0,0,0,0,0,0.383858257854125,-0.687241916580341
"MaxMun_51329",1,0,0.160390438695163,0,0,0,0,1,0,0,0,0,0,0,0,0,-0.962074512662878,0.870285769080616
"MaxMun_51330",1,0,27.1603904386952,0,0,0,0,1,0,0,0,0,0,0,0,0,-1.83602774444127,0.644183525899387
"MaxMun_51331",1,0,17.1603904386952,0,0,0,0,1,0,0,0,0,0,0,0,0,-1.80936287313487,0.0240640872709917
"MaxMun_51332",0,1,5.16039043869516,0,0,0,0,1,0,0,0,0,0,0,0,0,-1.20732651864803,-0.542367506952806
"MaxMun_51333",0,1,6.16039043869516,0,0,0,0,1,0,0,0,0,0,0,0,0,-0.67546599702453,-0.127134023335923
"MaxMun_51334",0,1,9.16039043869516,0,0,0,0,1,0,0,0,0,0,0,0,0,-0.672089527725822,0.147613391221549
"MaxMun_51335",0,1,5.16039043869516,0,0,0,0,1,0,0,0,0,0,0,0,0,-0.63445233289785,-1.1313259606542
"MaxMun_51336",0,1,8.16039043869516,0,0,0,0,1,0,0,0,0,0,0,0,0,-2.43772730219064,0.761552309640525
"MaxMun_51338",0,1,12.1603904386952,0,0,0,0,1,0,0,0,0,0,0,0,0,-0.232000405779287,-0.735505433001678
"MaxMun_51339",0,1,11.1603904386952,0,0,0,0,1,0,0,0,0,0,0,0,0,0.349769741832902,-0.511806554543926
"MaxMun_51340",0,1,11.1603904386952,0,0,0,0,1,0,0,0,0,0,0,0,0,0.36243902470034,-1.37688163951852
"MaxMun_51341",0,1,11.1603904386952,0,0,0,0,1,0,0,0,0,0,0,0,0,-2.08670411492882,1.73045078381729
"MaxMun_51342",0,1,5.16039043869516,0,0,0,0,1,0,0,0,0,0,0,0,0,-0.228251674432875,-1.2856126453488
"MaxMun_51343",0,1,12.1603904386952,0,0,0,0,1,0,0,0,0,0,0,0,0,0.120788247170344,-0.146664804707294
"MaxMun_51344",0,1,4.16039043869516,0,0,0,0,1,0,0,0,0,0,0,0,0,-0.432158254914195,0.383641753677819
"MaxMun_51345",0,1,17.1603904386952,0,0,0,0,1,0,0,0,0,0,0,0,0,0.40163730707997,-1.29902664482557
"MaxMun_51346",0,1,7.16039043869516,0,0,0,0,1,0,0,0,0,0,0,0,0,-0.389843579456863,-0.616408492838999
"MaxMun_51347",0,1,6.16039043869516,0,0,0,0,1,0,0,0,0,0,0,0,0,0.503990006896675,-0.921958181984963
"MaxMun_51349",1,0,-6.83960956130484,0,0,0,0,1,0,0,0,0,0,0,0,0,-1.72029986611314,0.581613642741545
"MaxMun_51350",1,0,-6.83960956130484,0,0,0,0,1,0,0,0,0,0,0,0,0,-1.70280592990816,2.0654810169557
"MaxMun_51351",1,0,-6.83960956130484,0,0,0,0,1,0,0,0,0,0,0,0,0,-0.154849223156321,0.347532846018347
"MaxMun_51354",1,0,-5.83960956130484,0,0,0,0,1,0,0,0,0,0,0,0,0,-1.72515174228056,1.56519900954957
"MaxMun_51355",1,0,-6.83960956130484,0,0,0,0,1,0,0,0,0,0,0,0,0,-2.3964721565118,0.660202806982489
"MaxMun_51356",0,1,-7.83960956130484,0,0,0,0,1,0,0,0,0,0,0,0,0,-0.209599254771863,0.401559056908854
"MaxMun_51357",0,1,-6.83960956130484,0,0,0,0,1,0,0,0,0,0,0,0,0,0.687276861987273,-1.01914327983525
"MaxMun_51360",0,1,-10.8396095613048,0,0,0,0,1,0,0,0,0,0,0,0,0,-1.59359306053174,-0.169033697567538
"MaxMun_51362",0,1,15.1603904386952,0,0,0,0,1,0,0,0,0,0,0,0,0,0.673545636374152,-1.44648504558241
"MaxMun_51363",0,1,14.1603904386952,0,0,0,0,1,0,0,0,0,0,0,0,0,1.01550726237608,-0.335284068969061
"MaxMun_51364",0,1,8.16039043869516,0,0,0,0,1,0,0,0,0,0,0,0,0,-0.995825835989523,0.627472979586772
"MaxMun_51365",0,1,5.16039043869516,0,0,0,0,1,0,0,0,0,0,0,0,0,0.0525700646917377,0.420291185940396
"MaxMun_51366",0,1,14.1603904386952,0,0,0,0,1,0,0,0,0,0,0,0,0,0.876862181428191,0.702645417570289
"MaxMun_51367",0,1,3.16039043869516,0,0,0,0,1,0,0,0,0,0,0,0,0,2.10631808750039,-1.52276718911302
"MaxMun_51368",0,1,10.1603904386952,0,0,0,0,1,0,0,0,0,0,0,0,0,1.76493813119399,-0.740905948313482
"MaxMun_51369",0,1,14.1603904386952,0,0,0,0,1,0,0,0,0,0,0,0,0,-0.0109476990656216,0.62152830017618
"MaxMun_51370",0,1,14.1603904386952,0,0,0,0,1,0,0,0,0,0,0,0,0,1.40454899835701,-1.22527700028061
"MaxMun_51371",0,1,30.1603904386952,0,0,0,0,1,0,0,0,0,0,0,0,0,-0.070018286002755,-0.904340115454136
"MaxMun_51372",0,1,28.1603904386952,0,0,0,0,1,0,0,0,0,0,0,0,0,1.99428409735733,-1.01824209197118
"MaxMun_51373",0,1,28.1603904386952,0,0,0,0,1,0,0,0,0,0,0,0,0,1.03757626822374,-2.06246590988188
"Caltech_51459",1,0,4.96039043869516,1,0,0,0,0,0,0,0,0,0,0,0,0,1.99437786246118,-0.936076763938377
"Caltech_51460",1,0,16.7603904386952,1,0,0,0,0,0,0,0,0,0,0,0,0,2.17175201477696,-1.44457107539888
"Caltech_51461",1,0,19.8603904386952,1,0,0,0,0,0,0,0,0,0,0,0,0,-0.698094097798163,1.21821399469266
"Caltech_51463",1,0,2.36039043869516,1,0,0,0,0,0,0,0,0,0,0,0,0,2.57838211984605,-0.748417830939942
"Caltech_51464",1,0,3.06039043869516,1,0,0,0,0,0,0,0,0,0,0,0,0,0.985621897776922,-0.791417043056917
"Caltech_51465",1,0,2.36039043869516,1,0,0,0,0,0,0,0,0,0,0,0,0,2.52158734879781,-1.26906721146196
"Caltech_51473",1,0,3.36039043869516,1,0,0,0,0,0,0,0,0,0,0,0,0,0.600302536863469,-0.431892938903719
"Caltech_51475",0,1,26.3603904386952,1,0,0,0,0,0,0,0,0,0,0,0,0,1.44633644672469,0.575793909022377
"Caltech_51477",0,1,24.6603904386952,1,0,0,0,0,0,0,0,0,0,0,0,0,1.65738517866127,0.00705106850847403
"Caltech_51478",0,1,1.86039043869516,1,0,0,0,0,0,0,0,0,0,0,0,0,1.97743551103867,-0.155008074695556
"Caltech_51479",0,1,2.16039043869516,1,0,0,0,0,0,0,0,0,0,0,0,0,0.182644677243223,-0.783491610577782
"Caltech_51480",0,1,2.96039043869516,1,0,0,0,0,0,0,0,0,0,0,0,0,2.59309478805248,-1.34115870242981
"Caltech_51481",0,1,10.0603904386952,1,0,0,0,0,0,0,0,0,0,0,0,0,-0.952084161281116,0.122646660382964
"Caltech_51482",0,1,3.26039043869516,1,0,0,0,0,0,0,0,0,0,0,0,0,1.23858553129637,-0.961267735699106
"Caltech_51484",0,1,5.76039043869516,1,0,0,0,0,0,0,0,0,0,0,0,0,1.7179704919393,-0.494077276653372
"Caltech_51485",0,1,6.06039043869516,1,0,0,0,0,0,0,0,0,0,0,0,0,0.4775074752969,-0.598976666275348
"Caltech_51486",0,1,4.16039043869516,1,0,0,0,0,0,0,0,0,0,0,0,0,1.81030645579477,-1.40804718782655
"Caltech_51487",0,1,-0.839609561304837,1,0,0,0,0,0,0,0,0,0,0,0,0,1.08810769895276,-0.918820892887319
"Caltech_51490",0,1,26.2603904386952,1,0,0,0,0,0,0,0,0,0,0,0,0,1.76619121926818,-0.676050113434774
"Caltech_51491",0,1,38.3603904386952,1,0,0,0,0,0,0,0,0,0,0,0,0,2.34464639000841,-1.56827806889877
"Caltech_51493",0,1,11.3603904386952,1,0,0,0,0,0,0,0,0,0,0,0,0,1.80494144383903,-0.8493873964025
"SBL_51557",0,1,8.16039043869516,0,0,0,0,0,0,0,1,0,0,0,0,0,1.47474922625991,0.936553733355296
"SBL_51558",0,1,9.16039043869516,0,0,0,0,0,0,0,1,0,0,0,0,0,0.578792126691959,1.73618198285934
"SBL_51559",0,1,9.16039043869516,0,0,0,0,0,0,0,1,0,0,0,0,0,0.758771510580245,1.28342995160659
"SBL_51560",0,1,9.16039043869516,0,0,0,0,0,0,0,1,0,0,0,0,0,1.37749360388805,1.07810919870835
"SBL_51561",0,1,18.1603904386952,0,0,0,0,0,0,0,1,0,0,0,0,0,0.626960817249746,0.709937735805263
"SBL_51562",0,1,19.1603904386952,0,0,0,0,0,0,0,1,0,0,0,0,0,-0.4069914846565,1.25106106812686
"SBL_51563",0,1,20.1603904386952,0,0,0,0,0,0,0,1,0,0,0,0,0,0.0518407588474136,0.556069089846617
"SBL_51564",0,1,21.1603904386952,0,0,0,0,0,0,0,1,0,0,0,0,0,0.879041639364815,1.44507084364653
"SBL_51565",0,1,21.1603904386952,0,0,0,0,0,0,0,1,0,0,0,0,0,1.28468683140617,0.899710024943573
"SBL_51566",0,1,23.1603904386952,0,0,0,0,0,0,0,1,0,0,0,0,0,0.826246288031791,0.853001207352488
"SBL_51567",0,1,16.1603904386952,0,0,0,0,0,0,0,1,0,0,0,0,0,-0.0266854239989403,1.21094679804444
"SBL_51568",0,1,19.1603904386952,0,0,0,0,0,0,0,1,0,0,0,0,0,0.417806818602243,1.81493838580172
"SBL_51569",0,1,18.1603904386952,0,0,0,0,0,0,0,1,0,0,0,0,0,0.773612761456765,1.24013313250188
"SBL_51570",0,1,24.1603904386952,0,0,0,0,0,0,0,1,0,0,0,0,0,0.456303381405153,0.487322582884016
"SBL_51571",1,0,4.16039043869516,0,0,0,0,0,0,0,1,0,0,0,0,0,1.05981445166301,1.23381827613563
"SBL_51572",1,0,10.1603904386952,0,0,0,0,0,0,0,1,0,0,0,0,0,1.00489046803547,1.01796892874395
"SBL_51573",1,0,12.1603904386952,0,0,0,0,0,0,0,1,0,0,0,0,0,1.0253823429829,1.03830358401192
"SBL_51574",1,0,12.1603904386952,0,0,0,0,0,0,0,1,0,0,0,0,0,1.33229012510883,0.969619825472071
"SBL_51576",1,0,13.1603904386952,0,0,0,0,0,0,0,1,0,0,0,0,0,0.770481641563501,1.54721654898441
"SBL_51577",1,0,13.1603904386952,0,0,0,0,0,0,0,1,0,0,0,0,0,1.54312371810269,0.394264873550877
"SBL_51578",1,0,15.1603904386952,0,0,0,0,0,0,0,1,0,0,0,0,0,1.08514920786766,1.31406135470421
"SBL_51579",1,0,23.1603904386952,0,0,0,0,0,0,0,1,0,0,0,0,0,0.470121012492151,0.430965380229863
"SBL_51580",1,0,24.1603904386952,0,0,0,0,0,0,0,1,0,0,0,0,0,1.10687781968048,1.32635064919239
"SBL_51581",1,0,46.1603904386952,0,0,0,0,0,0,0,1,0,0,0,0,0,-0.702824870660593,1.56300071438123
"SBL_51582",1,0,13.1603904386952,0,0,0,0,0,0,0,1,0,0,0,0,0,0.250121303445238,1.11845341143488
"SBL_51583",1,0,17.1603904386952,0,0,0,0,0,0,0,1,0,0,0,0,0,1.53257011282738,1.25423414200903
"SBL_51584",1,0,31.1603904386952,0,0,0,0,0,0,0,1,0,0,0,0,0,-0.536721879566054,1.16681608256055
"SBL_51585",1,0,9.16039043869516,0,0,0,0,0,0,0,1,0,0,0,0,0,-0.0425775110719903,0.982874654577546
"MaxMun_51606",1,0,11.1603904386952,0,0,0,0,1,0,0,0,0,0,0,0,0,1.46890360968009,0.0840478343675757
"MaxMun_51607",1,0,8.16039043869516,0,0,0,0,1,0,0,0,0,0,0,0,0,0.575359053049907,1.05127411047976
