NYU_50955
NYU_50986
NYU_50987
NYU_51008
NYU_51033
NYU_51127
UCLA_51211
UCLA_51213
UCLA_51232
UCLA_51233
UCLA_51238
UCLA_51242
UCLA_51243
UCLA_51244
UCLA_51245
UCLA_51246
UCLA_51247
UCLA_51270
UCLA_51296
UCLA_51297
UCLA_51310
UCLA_51312
UCLA_51314
UCLA_51316
UM_50278
UM_50281
UM_50283
UM_50288
UM_50299
UM_50303
UM_50305
UM_50306
UM_50309
UM_50311
UM_50313
UM_50317
UM_50322
UM_50323
UM_50345
UM_50376
UM_50423
Yale_50617
Pitt_50017
Pitt_50052
KKI_50785
KKI_50779
KKI_50815
KKI_50825
KKI_50826
Olin_50110
Olin_50118
Olin_50120
Olin_50122
Olin_50133
Olin_50136
Leuven_50744
SDSU_50182
SDSU_50185
SDSU_50187
SDSU_50190
SDSU_50192
SDSU_50207
SDSU_50212
SDSU_50216
SDSU_50197
MaxMun_51348
MaxMun_51352
MaxMun_51353
MaxMun_51358
