----------------------------------------
Begin PBS Prologue Thu Apr  7 18:58:06 EDT 2016 1460069886
Job ID:		35390693.gpc-sched-ib0
Username:	edickie
Group:		arisvoin
Nodes:		gpc-f132n013-ib0
End PBS Prologue Thu Apr  7 18:58:08 EDT 2016 1460069888
----------------------------------------
/home/a/arisvoin/edickie/quarantine/python/2.7.11-Anaconda2-2.5.0/build/lib/python2.7/site-packages/matplotlib/font_manager.py:273: UserWarning: Matplotlib is building the font cache using fc-list. This may take a moment.
  warnings.warn('Matplotlib is building the font cache using fc-list. This may take a moment.')
Traceback (most recent call last):
  File "/home/a/arisvoin/edickie/code/epitome/bin/epi-qc-icafix", line 218, in <module>
    signalICs, noiseICs = get_SignalandNoise(featdir, icalabels, numICs)
  File "/home/a/arisvoin/edickie/code/epitome/bin/epi-qc-icafix", line 98, in get_SignalandNoise
    bad_ica = map(int,bad_ica)
ValueError: invalid literal for int() with base 10: ''
tar: qc_icafix_Trinity: Cannot stat: No such file or directory
tar: Exiting with failure status due to previous errors
rm: cannot remove `/dev/shm/qc_icafix_Trinity': No such file or directory
----------------------------------------
Begin PBS Epilogue Thu Apr  7 18:59:30 EDT 2016 1460069970
Job ID:		35390693.gpc-sched-ib0
Username:	edickie
Group:		arisvoin
Job Name:	epi-pretrain-qc_Trinity_20160405.sh
Session:	31403
Limits:		neednodes=1:ppn=8,nodes=1:ppn=8,walltime=02:00:00
Resources:	cput=00:00:12,mem=73324kb,vmem=602096kb,walltime=00:01:19
Queue:		batch_ib
Account:		
Nodes:	gpc-f132n013-ib0
Killing leftovers...

End PBS Epilogue Thu Apr  7 18:59:31 EDT 2016 1460069971
----------------------------------------
