----------------------------------------
Begin PBS Prologue Wed Apr  6 17:06:03 EDT 2016 1459976763
Job ID:		35375857.gpc-sched-ib0
Username:	edickie
Group:		arisvoin
Nodes:		gpc-f111n079-ib0
End PBS Prologue Wed Apr  6 17:06:05 EDT 2016 1459976765
----------------------------------------
/home/a/arisvoin/edickie/quarantine/python/2.7.11-Anaconda2-2.5.0/build/lib/python2.7/site-packages/matplotlib/font_manager.py:273: UserWarning: Matplotlib is building the font cache using fc-list. This may take a moment.
  warnings.warn('Matplotlib is building the font cache using fc-list. This may take a moment.')
Traceback (most recent call last):
  File "/home/a/arisvoin/edickie/code/epitome/bin/epi-qc-icafix", line 214, in <module>
    signalICs, noiseICs = get_SignalandNoise(featdir, icalabels, numICs)
  File "/home/a/arisvoin/edickie/code/epitome/bin/epi-qc-icafix", line 94, in get_SignalandNoise
    bad_ica = map(int,bad_ica)
ValueError: invalid literal for int() with base 10: ''
tar: qc_icafix_KKI: Cannot stat: No such file or directory
tar: Exiting with failure status due to previous errors
rm: cannot remove `/dev/shm/qc_icafix_KKI': No such file or directory
----------------------------------------
Begin PBS Epilogue Wed Apr  6 17:07:27 EDT 2016 1459976847
Job ID:		35375857.gpc-sched-ib0
Username:	edickie
Group:		arisvoin
Job Name:	epi-pretrain-qc_KKI_20160406.sh
Session:	2553
Limits:		neednodes=1:ppn=8,nodes=1:ppn=8,walltime=02:00:00
Resources:	cput=00:00:13,mem=73532kb,vmem=598744kb,walltime=00:01:19
Queue:		batch_ib
Account:		
Nodes:	gpc-f111n079-ib0
Killing leftovers...

End PBS Epilogue Wed Apr  6 17:07:28 EDT 2016 1459976848
----------------------------------------
