----------------------------------------
Begin PBS Prologue Wed Apr  6 19:17:36 EDT 2016 1459984656
Job ID:		35377006.gpc-sched-ib0
Username:	edickie
Group:		arisvoin
Nodes:		gpc-f101n036-ib0
End PBS Prologue Wed Apr  6 19:17:37 EDT 2016 1459984657
----------------------------------------
/home/a/arisvoin/edickie/quarantine/python/2.7.11-Anaconda2-2.5.0/build/lib/python2.7/site-packages/matplotlib/font_manager.py:273: UserWarning: Matplotlib is building the font cache using fc-list. This may take a moment.
  warnings.warn('Matplotlib is building the font cache using fc-list. This may take a moment.')
----------------------------------------
Begin PBS Epilogue Wed Apr  6 19:27:46 EDT 2016 1459985266
Job ID:		35377006.gpc-sched-ib0
Username:	edickie
Group:		arisvoin
Job Name:	epi-pretrain-qc_UM_20160406.sh
Session:	6322
Limits:		neednodes=1:ppn=8,nodes=1:ppn=8,walltime=02:00:00
Resources:	cput=00:00:29,mem=110028kb,vmem=899828kb,walltime=00:10:05
Queue:		batch_ib
Account:		
Nodes:	gpc-f101n036-ib0
Killing leftovers...

End PBS Epilogue Wed Apr  6 19:27:48 EDT 2016 1459985268
----------------------------------------
