----------------------------------------
Begin PBS Prologue Wed Apr 13 13:25:53 EDT 2016 1460568353
Job ID:		35483834.gpc-sched-ib0
Username:	edickie
Group:		arisvoin
Nodes:		gpc-f101n013-ib0
End PBS Prologue Wed Apr 13 13:25:55 EDT 2016 1460568355
----------------------------------------
/home/a/arisvoin/edickie/quarantine/python/2.7.11-Anaconda2-2.5.0/build/lib/python2.7/site-packages/matplotlib/font_manager.py:273: UserWarning: Matplotlib is building the font cache using fc-list. This may take a moment.
  warnings.warn('Matplotlib is building the font cache using fc-list. This may take a moment.')
Traceback (most recent call last):
  File "/home/a/arisvoin/edickie/code/epitome/bin/epi-qc-motionind", line 289, in <module>
    main()
  File "/home/a/arisvoin/edickie/code/epitome/bin/epi-qc-motionind", line 106, in main
    if DVARS: DV_all = np.array([])
NameError: global name 'DVARS' is not defined
working on subject UM_50382
working on subject UM_50383
working on subject UM_50385
working on subject UM_50386
working on subject UM_50387
working on subject UM_50388
working on subject UM_50391
working on subject UM_50397
working on subject UM_50399
working on subject UM_50402
working on subject UM_50404
working on subject UM_50405
working on subject UM_50406
working on subject UM_50407
working on subject UM_50408
working on subject UM_50410
working on subject UM_50411
working on subject UM_50413
working on subject UM_50414
working on subject UM_50415
working on subject UM_50416
working on subject UM_50419
working on subject UM_50424
working on subject UM_50427
working on subject UM_50428
working on subject UM_50382
working on subject UM_50383
working on subject UM_50385
working on subject UM_50386
working on subject UM_50387
working on subject UM_50388
working on subject UM_50391
working on subject UM_50397
working on subject UM_50399
working on subject UM_50402
working on subject UM_50404
working on subject UM_50405
working on subject UM_50406
working on subject UM_50407
working on subject UM_50408
working on subject UM_50410
working on subject UM_50411
working on subject UM_50413
working on subject UM_50414
working on subject UM_50415
working on subject UM_50416
working on subject UM_50419
working on subject UM_50424
working on subject UM_50427
working on subject UM_50428
++ 3dedge3: AFNI version=AFNI_2011_12_21_1014 (Dec  9 2015) [64-bit]
++ 3dedge3: AFNI version=AFNI_2011_12_21_1014 (Dec  9 2015) [64-bit]
++ 3dedge3: AFNI version=AFNI_2011_12_21_1014 (Dec  9 2015) [64-bit]
++ 3dedge3: AFNI version=AFNI_2011_12_21_1014 (Dec  9 2015) [64-bit]
++ 3dedge3: AFNI version=AFNI_2011_12_21_1014 (Dec  9 2015) [64-bit]
++ 3dedge3: AFNI version=AFNI_2011_12_21_1014 (Dec  9 2015) [64-bit]
++ 3dedge3: AFNI version=AFNI_2011_12_21_1014 (Dec  9 2015) [64-bit]
++ 3dedge3: AFNI version=AFNI_2011_12_21_1014 (Dec  9 2015) [64-bit]
++ 3dedge3: AFNI version=AFNI_2011_12_21_1014 (Dec  9 2015) [64-bit]
++ 3dedge3: AFNI version=AFNI_2011_12_21_1014 (Dec  9 2015) [64-bit]
++ 3dedge3: AFNI version=AFNI_2011_12_21_1014 (Dec  9 2015) [64-bit]
++ 3dedge3: AFNI version=AFNI_2011_12_21_1014 (Dec  9 2015) [64-bit]
++ 3dedge3: AFNI version=AFNI_2011_12_21_1014 (Dec  9 2015) [64-bit]
++ 3dedge3: AFNI version=AFNI_2011_12_21_1014 (Dec  9 2015) [64-bit]
++ 3dedge3: AFNI version=AFNI_2011_12_21_1014 (Dec  9 2015) [64-bit]
++ 3dedge3: AFNI version=AFNI_2011_12_21_1014 (Dec  9 2015) [64-bit]
++ 3dedge3: AFNI version=AFNI_2011_12_21_1014 (Dec  9 2015) [64-bit]
++ 3dedge3: AFNI version=AFNI_2011_12_21_1014 (Dec  9 2015) [64-bit]
++ 3dedge3: AFNI version=AFNI_2011_12_21_1014 (Dec  9 2015) [64-bit]
++ 3dedge3: AFNI version=AFNI_2011_12_21_1014 (Dec  9 2015) [64-bit]
++ 3dedge3: AFNI version=AFNI_2011_12_21_1014 (Dec  9 2015) [64-bit]
++ 3dedge3: AFNI version=AFNI_2011_12_21_1014 (Dec  9 2015) [64-bit]
++ 3dedge3: AFNI version=AFNI_2011_12_21_1014 (Dec  9 2015) [64-bit]
++ 3dedge3: AFNI version=AFNI_2011_12_21_1014 (Dec  9 2015) [64-bit]
++ 3dedge3: AFNI version=AFNI_2011_12_21_1014 (Dec  9 2015) [64-bit]
Cleaning up ramdisk directory /dev/shm/tmp.EEaCmP on Wed Apr 13 13:46:47 EDT 2016
done at Wed Apr 13 13:46:47 EDT 2016
----------------------------------------
Begin PBS Epilogue Wed Apr 13 13:46:52 EDT 2016 1460569612
Job ID:		35483834.gpc-sched-ib0
Username:	edickie
Group:		arisvoin
Job Name:	epi-pretrain-qc_UM2_20160412.sh
Session:	5589
Limits:		neednodes=1:ppn=8,nodes=1:ppn=8,walltime=02:00:00
Resources:	cput=00:14:55,mem=1362960kb,vmem=2456580kb,walltime=00:20:54
Queue:		batch_ib
Account:		
Nodes:	gpc-f101n013-ib0
Killing leftovers...

End PBS Epilogue Wed Apr 13 13:46:53 EDT 2016 1460569613
----------------------------------------
